Timestamp,Imports in thousands
2004-05-07T14:30:00Z,0
2004-05-14T14:30:00Z,0
2004-05-21T14:30:00Z,1
2004-05-28T14:30:00Z,1
2004-06-04T14:30:00Z,0
2004-06-11T14:30:00Z,0
2004-06-18T14:30:00Z,0
2004-06-25T14:30:00Z,1
2004-07-02T14:30:00Z,1
2004-07-09T14:30:00Z,1
2004-07-16T14:30:00Z,1
2004-07-23T14:30:00Z,1
2004-07-30T14:30:00Z,1
2004-08-06T14:30:00Z,1
2004-08-13T14:30:00Z,1
2004-08-20T14:30:00Z,1
2004-08-27T14:30:00Z,1
2004-09-03T14:30:00Z,1
2004-09-10T14:30:00Z,1
2004-09-17T14:30:00Z,1
2004-09-24T14:30:00Z,1
2004-10-01T14:30:00Z,1
2004-10-08T14:30:00Z,1
2004-10-15T14:30:00Z,1
2004-10-22T14:30:00Z,1
2004-10-29T14:30:00Z,1
2004-11-05T14:30:00Z,0
2004-11-12T14:30:00Z,1
2004-11-19T14:30:00Z,0
2004-11-26T14:30:00Z,0
2004-12-03T14:30:00Z,1
2004-12-10T14:30:00Z,0
2004-12-17T14:30:00Z,0
2004-12-24T14:30:00Z,1
2004-12-31T14:30:00Z,1
2005-01-07T14:30:00Z,1
2005-01-14T14:30:00Z,1
2005-01-21T14:30:00Z,1
2005-01-28T14:30:00Z,0
2005-02-04T14:30:00Z,0
2005-02-11T14:30:00Z,0
2005-02-18T14:30:00Z,1
2005-02-25T14:30:00Z,0
2005-03-04T14:30:00Z,0
2005-03-11T14:30:00Z,1
2005-03-18T14:30:00Z,1
2005-03-25T14:30:00Z,0
2005-04-01T14:30:00Z,0
2005-04-08T14:30:00Z,1
2005-04-15T14:30:00Z,0
2005-04-22T14:30:00Z,0
2005-04-29T14:30:00Z,1
2005-05-06T14:30:00Z,0
2005-05-13T14:30:00Z,1
2005-05-20T14:30:00Z,0
2005-05-27T14:30:00Z,1
2005-06-03T14:30:00Z,1
2005-06-10T14:30:00Z,0
2005-06-17T14:30:00Z,0
2005-06-24T14:30:00Z,0
2005-07-01T14:30:00Z,0
2005-07-08T14:30:00Z,1
2005-07-15T14:30:00Z,1
2005-07-22T14:30:00Z,1
2005-07-29T14:30:00Z,1
2005-08-05T14:30:00Z,1
2005-08-12T14:30:00Z,1
2005-08-19T14:30:00Z,1
2005-08-26T14:30:00Z,1
2005-09-02T14:30:00Z,0
2005-09-09T14:30:00Z,1
2005-09-16T14:30:00Z,0
2005-09-23T14:30:00Z,0
2005-09-30T14:30:00Z,1
2005-10-07T14:30:00Z,1
2005-10-14T14:30:00Z,0
2005-10-21T14:30:00Z,1
2005-10-28T14:30:00Z,1
2005-11-04T14:30:00Z,1
2005-11-11T14:30:00Z,0
2005-11-18T14:30:00Z,0
2005-11-25T14:30:00Z,1
2005-12-02T14:30:00Z,0
2005-12-09T14:30:00Z,1
2005-12-16T14:30:00Z,0
2005-12-23T14:30:00Z,1
2005-12-30T14:30:00Z,0
2006-01-06T14:30:00Z,1
2006-01-13T14:30:00Z,0
2006-01-20T14:30:00Z,0
2006-01-27T14:30:00Z,1
2006-02-03T14:30:00Z,1
2006-02-10T14:30:00Z,1
2006-02-17T14:30:00Z,0
2006-02-24T14:30:00Z,1
2006-03-03T14:30:00Z,0
2006-03-10T14:30:00Z,1
2006-03-17T14:30:00Z,0
2006-03-24T14:30:00Z,0
2006-03-31T14:30:00Z,0
2006-04-07T14:30:00Z,1
2006-04-14T14:30:00Z,1
2006-04-21T14:30:00Z,0
2006-04-28T14:30:00Z,0
2006-05-05T14:30:00Z,0
2006-05-12T14:30:00Z,0
2006-05-19T14:30:00Z,0
2006-05-26T14:30:00Z,0
2006-06-02T14:30:00Z,0
2006-06-09T14:30:00Z,0
2006-06-16T14:30:00Z,0
2006-06-23T14:30:00Z,0
2006-06-30T14:30:00Z,0
2006-07-07T14:30:00Z,0
2006-07-14T14:30:00Z,0
2006-07-21T14:30:00Z,0
2006-07-28T14:30:00Z,0
2006-08-04T14:30:00Z,0
2006-08-11T14:30:00Z,0
2006-08-18T14:30:00Z,0
2006-08-25T14:30:00Z,0
2006-09-01T14:30:00Z,0
2006-09-08T14:30:00Z,0
2006-09-15T14:30:00Z,0
2006-09-22T14:30:00Z,0
2006-09-29T14:30:00Z,0
2006-10-06T14:30:00Z,0
2006-10-13T14:30:00Z,0
2006-10-20T14:30:00Z,0
2006-10-27T14:30:00Z,0
2006-11-03T14:30:00Z,0
2006-11-10T14:30:00Z,0
2006-11-17T14:30:00Z,0
2006-11-24T14:30:00Z,0
2006-12-01T14:30:00Z,0
2006-12-08T14:30:00Z,0
2006-12-15T14:30:00Z,0
2006-12-22T14:30:00Z,0
2006-12-29T14:30:00Z,0
2007-01-05T14:30:00Z,0
2007-01-12T14:30:00Z,0
2007-01-19T14:30:00Z,0
2007-01-26T14:30:00Z,0
2007-02-02T14:30:00Z,0
2007-02-09T14:30:00Z,0
2007-02-16T14:30:00Z,1
2007-02-23T14:30:00Z,0
2007-03-02T14:30:00Z,2
2007-03-09T14:30:00Z,0
2007-03-16T14:30:00Z,0
2007-03-23T14:30:00Z,0
2007-03-30T14:30:00Z,0
2007-04-06T14:30:00Z,0
2007-04-13T14:30:00Z,1
2007-04-20T14:30:00Z,0
2007-04-27T14:30:00Z,1
2007-05-04T14:30:00Z,1
2007-05-11T14:30:00Z,1
2007-05-18T14:30:00Z,0
2007-05-25T14:30:00Z,1
2007-06-01T14:30:00Z,0
2007-06-08T14:30:00Z,0
2007-06-15T14:30:00Z,0
2007-06-22T14:30:00Z,0
2007-06-29T14:30:00Z,1
2007-07-06T14:30:00Z,0
2007-07-13T14:30:00Z,0
2007-07-20T14:30:00Z,1
2007-07-27T14:30:00Z,0
2007-08-03T14:30:00Z,0
2007-08-10T14:30:00Z,0
2007-08-17T14:30:00Z,1
2007-08-24T14:30:00Z,1
2007-08-31T14:30:00Z,1
2007-09-07T14:30:00Z,1
2007-09-14T14:30:00Z,0
2007-09-21T14:30:00Z,0
2007-09-28T14:30:00Z,0
2007-10-05T14:30:00Z,0
2007-10-12T14:30:00Z,0
2007-10-19T14:30:00Z,0
2007-10-26T14:30:00Z,0
2007-11-02T14:30:00Z,0
2007-11-09T14:30:00Z,0
2007-11-16T14:30:00Z,0
2007-11-23T14:30:00Z,0
2007-11-30T14:30:00Z,0
2007-12-07T14:30:00Z,0
2007-12-14T14:30:00Z,0
2007-12-21T14:30:00Z,0
2007-12-28T14:30:00Z,0
2008-01-04T14:30:00Z,1
2008-01-11T14:30:00Z,0
2008-01-18T14:30:00Z,0
2008-01-25T14:30:00Z,0
2008-02-01T14:30:00Z,0
2008-02-08T14:30:00Z,0
2008-02-15T14:30:00Z,0
2008-02-22T14:30:00Z,0
2008-02-29T14:30:00Z,1
2008-03-07T14:30:00Z,0
2008-03-14T14:30:00Z,1
2008-03-21T14:30:00Z,0
2008-03-28T14:30:00Z,0
2008-04-04T14:30:00Z,0
2008-04-11T14:30:00Z,0
2008-04-18T14:30:00Z,0
2008-04-25T14:30:00Z,0
2008-05-02T14:30:00Z,0
2008-05-09T14:30:00Z,0
2008-05-16T14:30:00Z,0
2008-05-23T14:30:00Z,0
2008-05-30T14:30:00Z,0
2008-06-06T14:30:00Z,0
2008-06-13T14:30:00Z,0
2008-06-20T14:30:00Z,0
2008-06-27T14:30:00Z,0
2008-07-04T14:30:00Z,0
2008-07-11T14:30:00Z,0
2008-07-18T14:30:00Z,0
2008-07-25T14:30:00Z,0
2008-08-01T14:30:00Z,0
2008-08-08T14:30:00Z,0
2008-08-15T14:30:00Z,0
2008-08-22T14:30:00Z,0
2008-08-29T14:30:00Z,0
2008-09-05T14:30:00Z,0
2008-09-12T14:30:00Z,0
2008-09-19T14:30:00Z,0
2008-09-26T14:30:00Z,0
2008-10-03T14:30:00Z,0
2008-10-10T14:30:00Z,0
2008-10-17T14:30:00Z,0
2008-10-24T14:30:00Z,0
2008-10-31T14:30:00Z,0
2008-11-07T14:30:00Z,0
2008-11-14T14:30:00Z,0
2008-11-21T14:30:00Z,0
2008-11-28T14:30:00Z,0
2008-12-05T14:30:00Z,0
2008-12-12T14:30:00Z,0
2008-12-19T14:30:00Z,0
2008-12-26T14:30:00Z,0
2009-01-02T14:30:00Z,0
2009-01-09T14:30:00Z,0
2009-01-16T14:30:00Z,0
2009-01-23T14:30:00Z,0
2009-01-30T14:30:00Z,0
2009-02-06T14:30:00Z,0
2009-02-13T14:30:00Z,0
2009-02-20T14:30:00Z,0
2009-02-27T14:30:00Z,0
2009-03-06T14:30:00Z,0
2009-03-13T14:30:00Z,0
2009-03-20T14:30:00Z,0
2009-03-27T14:30:00Z,0
2009-04-03T14:30:00Z,0
2009-04-10T14:30:00Z,0
2009-04-17T14:30:00Z,0
2009-04-24T14:30:00Z,0
2009-05-01T14:30:00Z,0
2009-05-08T14:30:00Z,0
2009-05-15T14:30:00Z,0
2009-05-22T14:30:00Z,0
2009-05-29T14:30:00Z,0
2009-06-05T14:30:00Z,0
2009-06-12T14:30:00Z,0
2009-06-19T14:30:00Z,0
2009-06-26T14:30:00Z,0
2009-07-03T14:30:00Z,0
2009-07-10T14:30:00Z,0
2009-07-17T14:30:00Z,0
2009-07-24T14:30:00Z,0
2009-07-31T14:30:00Z,0
2009-08-07T14:30:00Z,0
2009-08-14T14:30:00Z,0
2009-08-21T14:30:00Z,0
2009-08-28T14:30:00Z,0
2009-09-04T14:30:00Z,0
2009-09-11T14:30:00Z,0
2009-09-18T14:30:00Z,0
2009-09-25T14:30:00Z,0
2009-10-02T14:30:00Z,0
2009-10-09T14:30:00Z,0
2009-10-16T14:30:00Z,0
2009-10-23T14:30:00Z,0
2009-10-30T14:30:00Z,0
2009-11-06T14:30:00Z,0
2009-11-13T14:30:00Z,0
2009-11-20T14:30:00Z,0
2009-11-27T14:30:00Z,0
2009-12-04T14:30:00Z,0
2009-12-11T14:30:00Z,0
2009-12-18T14:30:00Z,0
2009-12-25T14:30:00Z,1
2010-01-01T14:30:00Z,1
2010-01-08T14:30:00Z,0
2010-01-15T14:30:00Z,0
2010-01-22T14:30:00Z,0
2010-01-29T14:30:00Z,0
2010-02-05T14:30:00Z,0
2010-02-12T14:30:00Z,1
2010-02-19T14:30:00Z,1
2010-02-26T14:30:00Z,1
2010-03-05T14:30:00Z,1
2010-03-12T14:30:00Z,1
2010-03-19T14:30:00Z,0
2010-03-26T14:30:00Z,0
2010-04-02T14:30:00Z,0
2010-04-09T14:30:00Z,0
2010-04-16T14:30:00Z,1
2010-04-23T14:30:00Z,0
2010-04-30T14:30:00Z,0
2010-05-07T14:30:00Z,0
2010-05-14T14:30:00Z,0
2010-05-21T14:30:00Z,0
2010-05-28T14:30:00Z,0
2010-06-04T14:30:00Z,0
2010-06-11T14:30:00Z,0
2010-06-18T14:30:00Z,1
2010-06-25T14:30:00Z,0
2010-07-02T14:30:00Z,0
2010-07-09T14:30:00Z,0
2010-07-16T14:30:00Z,0
2010-07-23T14:30:00Z,0
2010-07-30T14:30:00Z,1
2010-08-06T14:30:00Z,0
2010-08-13T14:30:00Z,1
2010-08-20T14:30:00Z,1
2010-08-27T14:30:00Z,0
2010-09-03T14:30:00Z,0
2010-09-10T14:30:00Z,0
2010-09-17T14:30:00Z,0
2010-09-24T14:30:00Z,0
2010-10-01T14:30:00Z,0
2010-10-08T14:30:00Z,0
2010-10-15T14:30:00Z,0
2010-10-22T14:30:00Z,0
2010-10-29T14:30:00Z,0
2010-11-05T14:30:00Z,0
2010-11-12T14:30:00Z,0
2010-11-19T14:30:00Z,0
2010-11-26T14:30:00Z,0
2010-12-03T14:30:00Z,1
2010-12-10T14:30:00Z,1
2010-12-17T14:30:00Z,1
2010-12-24T14:30:00Z,1
2010-12-31T14:30:00Z,1
2011-01-07T14:30:00Z,1
2011-01-14T14:30:00Z,1
2011-01-21T14:30:00Z,1
2011-01-28T14:30:00Z,1
2011-02-04T14:30:00Z,2
2011-02-11T14:30:00Z,2
2011-02-18T14:30:00Z,2
2011-02-25T14:30:00Z,2
2011-03-04T14:30:00Z,0
2011-03-11T14:30:00Z,0
2011-03-18T14:30:00Z,0
2011-03-25T14:30:00Z,0
2011-04-01T14:30:00Z,0
2011-04-08T14:30:00Z,0
2011-04-15T14:30:00Z,0
2011-04-22T14:30:00Z,0
2011-04-29T14:30:00Z,0
2011-05-06T14:30:00Z,0
2011-05-13T14:30:00Z,0
2011-05-20T14:30:00Z,0
2011-05-27T14:30:00Z,0
2011-06-03T14:30:00Z,0
2011-06-10T14:30:00Z,0
2011-06-17T14:30:00Z,0
2011-06-24T14:30:00Z,0
2011-07-01T14:30:00Z,0
2011-07-08T14:30:00Z,0
2011-07-15T14:30:00Z,0
2011-07-22T14:30:00Z,0
2011-07-29T14:30:00Z,0
2011-08-05T14:30:00Z,0
2011-08-12T14:30:00Z,0
2011-08-19T14:30:00Z,0
2011-08-26T14:30:00Z,0
2011-09-02T14:30:00Z,0
2011-09-09T14:30:00Z,0
2011-09-16T14:30:00Z,0
2011-09-23T14:30:00Z,0
2011-09-30T14:30:00Z,0
2011-10-07T14:30:00Z,0
2011-10-14T14:30:00Z,0
2011-10-21T14:30:00Z,0
2011-10-28T14:30:00Z,0
2011-11-04T14:30:00Z,0
2011-11-11T14:30:00Z,0
2011-11-18T14:30:00Z,0
2011-11-25T14:30:00Z,0
2011-12-02T14:30:00Z,0
2011-12-09T14:30:00Z,0
2011-12-16T14:30:00Z,0
2011-12-23T14:30:00Z,0
2011-12-30T14:30:00Z,0
2012-01-06T14:30:00Z,0
2012-01-13T14:30:00Z,0
2012-01-20T14:30:00Z,0
2012-01-27T14:30:00Z,1
2012-02-03T14:30:00Z,1
2012-02-10T14:30:00Z,0
2012-02-17T14:30:00Z,0
2012-02-24T14:30:00Z,0
2012-03-02T14:30:00Z,0
2012-03-09T14:30:00Z,0
2012-03-16T14:30:00Z,0
2012-03-23T14:30:00Z,0
2012-03-30T14:30:00Z,0
2012-04-06T14:30:00Z,0
2012-04-13T14:30:00Z,0
2012-04-20T14:30:00Z,0
2012-04-27T14:30:00Z,0
2012-05-04T14:30:00Z,0
2012-05-11T14:30:00Z,0
2012-05-18T14:30:00Z,0
2012-05-25T14:30:00Z,0
2012-06-01T14:30:00Z,0
2012-06-08T14:30:00Z,0
2012-06-15T14:30:00Z,0
2012-06-22T14:30:00Z,0
2012-06-29T14:30:00Z,0
2012-07-06T14:30:00Z,0
2012-07-13T14:30:00Z,0
2012-07-20T14:30:00Z,0
2012-07-27T14:30:00Z,0
2012-08-03T14:30:00Z,0
2012-08-10T14:30:00Z,0
2012-08-17T14:30:00Z,0
2012-08-24T14:30:00Z,0
2012-08-31T14:30:00Z,0
2012-09-07T14:30:00Z,0
2012-09-14T14:30:00Z,0
2012-09-21T14:30:00Z,0
2012-09-28T14:30:00Z,0
2012-10-05T14:30:00Z,0
2012-10-12T14:30:00Z,0
2012-10-19T14:30:00Z,0
2012-10-26T14:30:00Z,1
2012-11-02T14:30:00Z,1
2012-11-09T14:30:00Z,1
2012-11-16T14:30:00Z,1
2012-11-23T14:30:00Z,1
2012-11-30T14:30:00Z,1
2012-12-07T14:30:00Z,1
2012-12-14T14:30:00Z,1
2012-12-21T14:30:00Z,1
2012-12-28T14:30:00Z,1
2013-01-04T14:30:00Z,1
2013-01-11T14:30:00Z,1
2013-01-18T14:30:00Z,1
2013-01-25T14:30:00Z,2
2013-02-01T14:30:00Z,2
2013-02-08T14:30:00Z,1
2013-02-15T14:30:00Z,0
2013-02-22T14:30:00Z,1
2013-03-01T14:30:00Z,1
2013-03-08T14:30:00Z,1
2013-03-15T14:30:00Z,1
2013-03-22T14:30:00Z,1
2013-03-29T14:30:00Z,2
2013-04-05T14:30:00Z,1
2013-04-12T14:30:00Z,0
2013-04-19T14:30:00Z,0
2013-04-26T14:30:00Z,0
2013-05-03T14:30:00Z,0
2013-05-10T14:30:00Z,1
2013-05-17T14:30:00Z,0
2013-05-24T14:30:00Z,0
2013-05-31T14:30:00Z,0
2013-06-07T14:30:00Z,0
2013-06-14T14:30:00Z,0
2013-06-21T14:30:00Z,1
2013-06-28T14:30:00Z,1
2013-07-05T14:30:00Z,1
2013-07-12T14:30:00Z,1
2013-07-19T14:30:00Z,1
2013-07-26T14:30:00Z,1
2013-08-02T14:30:00Z,1
2013-08-09T14:30:00Z,1
2013-08-16T14:30:00Z,1
2013-08-23T14:30:00Z,1
2013-08-30T14:30:00Z,2
2013-09-06T14:30:00Z,1
2013-09-13T14:30:00Z,0
2013-09-20T14:30:00Z,0
2013-09-27T14:30:00Z,0
2013-10-04T14:30:00Z,0
2013-10-11T14:30:00Z,0
2013-10-18T14:30:00Z,0
2013-10-25T14:30:00Z,0
2013-11-01T14:30:00Z,0
2013-11-08T14:30:00Z,0
2013-11-15T14:30:00Z,1
2013-11-22T14:30:00Z,1
2013-11-29T14:30:00Z,0
2013-12-06T14:30:00Z,0
2013-12-13T14:30:00Z,0
2013-12-20T14:30:00Z,1
2013-12-27T14:30:00Z,1
2014-01-03T14:30:00Z,1
2014-01-10T14:30:00Z,0
2014-01-17T14:30:00Z,0
2014-01-24T14:30:00Z,0
2014-01-31T14:30:00Z,0
2014-02-07T14:30:00Z,0
2014-02-14T14:30:00Z,0
2014-02-21T14:30:00Z,0
2014-02-28T14:30:00Z,0
2014-03-07T14:30:00Z,0
2014-03-14T14:30:00Z,0
2014-03-21T14:30:00Z,0
2014-03-28T14:30:00Z,0
2014-04-04T14:30:00Z,0
2014-04-11T14:30:00Z,0
2014-04-18T14:30:00Z,0
2014-04-25T14:30:00Z,0
2014-05-02T14:30:00Z,0
2014-05-09T14:30:00Z,0
2014-05-16T14:30:00Z,0
2014-05-23T14:30:00Z,0
2014-05-30T14:30:00Z,0
2014-06-06T14:30:00Z,0
2014-06-13T14:30:00Z,0
2014-06-20T14:30:00Z,0
2014-06-27T14:30:00Z,0
2014-07-04T14:30:00Z,0
2014-07-11T14:30:00Z,0
2014-07-18T14:30:00Z,0
2014-07-25T14:30:00Z,0
2014-08-01T14:30:00Z,0
2014-08-08T14:30:00Z,0
2014-08-15T14:30:00Z,0
2014-08-22T14:30:00Z,0
2014-08-29T14:30:00Z,0
2014-09-05T14:30:00Z,0
2014-09-12T14:30:00Z,0
2014-09-19T14:30:00Z,0
2014-09-26T14:30:00Z,0
2014-10-03T14:30:00Z,0
2014-10-10T14:30:00Z,0
2014-10-17T14:30:00Z,0
2014-10-24T14:30:00Z,0
2014-10-31T14:30:00Z,0
2014-11-07T14:30:00Z,0
2014-11-14T14:30:00Z,0
2014-11-21T14:30:00Z,0
2014-11-28T14:30:00Z,0
2014-12-05T14:30:00Z,0
2014-12-12T14:30:00Z,0
2014-12-19T14:30:00Z,0
2014-12-26T14:30:00Z,0
2015-01-02T14:30:00Z,0
2015-01-09T14:30:00Z,0
2015-01-16T14:30:00Z,0
2015-01-23T14:30:00Z,0
2015-01-30T14:30:00Z,0
2015-02-06T14:30:00Z,0
2015-02-13T14:30:00Z,0
2015-02-20T14:30:00Z,0
2015-02-27T14:30:00Z,0
2015-03-06T14:30:00Z,0
2015-03-13T14:30:00Z,0
2015-03-20T14:30:00Z,0
2015-03-27T14:30:00Z,0
2015-04-03T14:30:00Z,0
2015-04-10T14:30:00Z,0
2015-04-17T14:30:00Z,0
2015-04-24T14:30:00Z,0
2015-05-01T14:30:00Z,0
2015-05-08T14:30:00Z,0
2015-05-15T14:30:00Z,0
2015-05-22T14:30:00Z,0
2015-05-29T14:30:00Z,0
2015-06-05T14:30:00Z,0
2015-06-12T14:30:00Z,0
2015-06-19T14:30:00Z,0
2015-06-26T14:30:00Z,0
2015-07-03T14:30:00Z,0
2015-07-10T14:30:00Z,0
2015-07-17T14:30:00Z,0
2015-07-24T14:30:00Z,0
2015-07-31T14:30:00Z,0
2015-08-07T14:30:00Z,0
2015-08-14T14:30:00Z,0
2015-08-21T14:30:00Z,0
2015-08-28T14:30:00Z,0
2015-09-04T14:30:00Z,0
2015-09-11T14:30:00Z,0
2015-09-18T14:30:00Z,0
2015-09-25T14:30:00Z,0
2015-10-02T14:30:00Z,0
2015-10-09T14:30:00Z,0
2015-10-16T14:30:00Z,0
2015-10-23T14:30:00Z,0
2015-10-30T14:30:00Z,0
2015-11-06T14:30:00Z,0
2015-11-13T14:30:00Z,0
2015-11-20T14:30:00Z,0
2015-11-27T14:30:00Z,0
2015-12-04T14:30:00Z,0
2015-12-11T14:30:00Z,0
2015-12-18T14:30:00Z,0
2015-12-25T14:30:00Z,0
2016-01-01T14:30:00Z,0
2016-01-08T14:30:00Z,0
2016-01-15T14:30:00Z,0
2016-01-22T14:30:00Z,0
2016-01-29T14:30:00Z,0
2016-02-05T14:30:00Z,0
2016-02-12T14:30:00Z,0
2016-02-19T14:30:00Z,0
2016-02-26T14:30:00Z,0
2016-03-04T14:30:00Z,0
2016-03-11T14:30:00Z,0
2016-03-18T14:30:00Z,0
2016-03-25T14:30:00Z,0
2016-04-01T14:30:00Z,0
2016-04-08T14:30:00Z,0
2016-04-15T14:30:00Z,0
2016-04-22T14:30:00Z,0
2016-04-29T14:30:00Z,0
2016-05-06T14:30:00Z,0
2016-05-13T14:30:00Z,0
2016-05-20T14:30:00Z,0
2016-05-27T14:30:00Z,0
2016-06-03T14:30:00Z,0
2016-06-10T14:30:00Z,0
2016-06-17T14:30:00Z,0
2016-06-24T14:30:00Z,0
2016-07-01T14:30:00Z,0
2016-07-08T14:30:00Z,0
2016-07-15T14:30:00Z,0
2016-07-22T14:30:00Z,0
2016-07-29T14:30:00Z,0
2016-08-05T14:30:00Z,0
2016-08-12T14:30:00Z,0
2016-08-19T14:30:00Z,0
2016-08-26T14:30:00Z,0
2016-09-02T14:30:00Z,0
2016-09-09T14:30:00Z,0
2016-09-16T14:30:00Z,0
2016-09-23T14:30:00Z,0
2016-09-30T14:30:00Z,0
2016-10-07T14:30:00Z,0
2016-10-14T14:30:00Z,0
2016-10-21T14:30:00Z,0
2016-10-28T14:30:00Z,0
2016-11-04T14:30:00Z,0
2016-11-11T14:30:00Z,0
2016-11-18T14:30:00Z,0
2016-11-25T14:30:00Z,0
2016-12-02T14:30:00Z,0
2016-12-09T14:30:00Z,0
2016-12-16T14:30:00Z,0
2016-12-23T14:30:00Z,0
2016-12-30T14:30:00Z,0
2017-01-06T14:30:00Z,0
2017-01-13T14:30:00Z,0
2017-01-20T14:30:00Z,0
2017-01-27T14:30:00Z,0
2017-02-03T14:30:00Z,0
2017-02-10T14:30:00Z,0
2017-02-17T14:30:00Z,0
2017-02-24T14:30:00Z,0
2017-03-03T14:30:00Z,0
2017-03-10T14:30:00Z,0
2017-03-17T14:30:00Z,0
2017-03-24T14:30:00Z,0
2017-03-31T14:30:00Z,0
2017-04-07T14:30:00Z,0
2017-04-14T14:30:00Z,0
2017-04-21T14:30:00Z,0
2017-04-28T14:30:00Z,0
2017-05-05T14:30:00Z,0
2017-05-12T14:30:00Z,0
2017-05-19T14:30:00Z,0
2017-05-26T14:30:00Z,0
2017-06-02T14:30:00Z,0
2017-06-09T14:30:00Z,0
2017-06-16T14:30:00Z,0
2017-06-23T14:30:00Z,0
2017-06-30T14:30:00Z,0
2017-07-07T14:30:00Z,0
2017-07-14T14:30:00Z,0
2017-07-21T14:30:00Z,0
2017-07-28T14:30:00Z,0
2017-08-04T14:30:00Z,0
2017-08-11T14:30:00Z,0
2017-08-18T14:30:00Z,0
2017-08-25T14:30:00Z,0
2017-09-01T14:30:00Z,0
2017-09-08T14:30:00Z,0
2017-09-15T14:30:00Z,0
2017-09-22T14:30:00Z,0
2017-09-29T14:30:00Z,0
2017-10-06T14:30:00Z,0
2017-10-13T14:30:00Z,0
2017-10-20T14:30:00Z,0
2017-10-27T14:30:00Z,0
2017-11-03T14:30:00Z,0
2017-11-10T14:30:00Z,0
2017-11-17T14:30:00Z,0
2017-11-24T14:30:00Z,0
2017-12-01T14:30:00Z,0
2017-12-08T14:30:00Z,0
2017-12-15T14:30:00Z,0
2017-12-22T14:30:00Z,0
2017-12-29T14:30:00Z,0
2018-01-05T14:30:00Z,0
2018-01-12T14:30:00Z,0
2018-01-19T14:30:00Z,0
2018-01-26T14:30:00Z,0
2018-02-02T14:30:00Z,0
2018-02-09T14:30:00Z,0
2018-02-16T14:30:00Z,0
2018-02-23T14:30:00Z,0
2018-03-02T14:30:00Z,0
2018-03-09T14:30:00Z,0
2018-03-16T14:30:00Z,0
2018-03-23T14:30:00Z,0
2018-03-30T14:30:00Z,0
2018-04-06T14:30:00Z,0
2018-04-13T14:30:00Z,0
2018-04-20T14:30:00Z,0
2018-04-27T14:30:00Z,0
2018-05-04T14:30:00Z,0
2018-05-11T14:30:00Z,0
2018-05-18T14:30:00Z,0
2018-05-25T14:30:00Z,0
2018-06-01T14:30:00Z,0
2018-06-08T14:30:00Z,0
2018-06-15T14:30:00Z,0
2018-06-22T14:30:00Z,0
2018-06-29T14:30:00Z,0
2018-07-06T14:30:00Z,0
2018-07-13T14:30:00Z,0
2018-07-20T14:30:00Z,0
2018-07-27T14:30:00Z,0
2018-08-03T14:30:00Z,0
2018-08-10T14:30:00Z,0
2018-08-17T14:30:00Z,0
2018-08-24T14:30:00Z,0
2018-08-31T14:30:00Z,0
2018-09-07T14:30:00Z,0
2018-09-14T14:30:00Z,0
2018-09-21T14:30:00Z,0
2018-09-28T14:30:00Z,0
2018-10-05T14:30:00Z,0
2018-10-12T14:30:00Z,0
2018-10-19T14:30:00Z,0
