Timestamp, Imports in Thousands
1982-08-20T14:30:00Z,24
1982-08-27T14:30:00Z,0
1982-09-24T14:30:00Z,40
1982-10-01T14:30:00Z,0
1982-10-08T14:30:00Z,0
1982-10-15T14:30:00Z,21
1982-10-22T14:30:00Z,46
1982-10-29T14:30:00Z,0
1982-11-05T14:30:00Z,21
1982-11-12T14:30:00Z,0
1982-11-19T14:30:00Z,51
1982-11-26T14:30:00Z,18
1982-12-03T14:30:00Z,21
1982-12-10T14:30:00Z,7
1982-12-17T14:30:00Z,0
1982-12-24T14:30:00Z,46
1982-12-31T14:30:00Z,0
1983-01-07T14:30:00Z,18
1983-01-14T14:30:00Z,5
1983-01-21T14:30:00Z,79
1983-01-28T14:30:00Z,37
1983-02-04T14:30:00Z,55
1983-02-11T14:30:00Z,2
1983-02-18T14:30:00Z,13
1983-02-25T14:30:00Z,0
1983-03-04T14:30:00Z,0
1983-03-11T14:30:00Z,0
1983-03-18T14:30:00Z,0
1983-03-25T14:30:00Z,13
1983-04-01T14:30:00Z,0
1983-04-08T14:30:00Z,24
1983-04-15T14:30:00Z,0
1983-04-29T14:30:00Z,3
1983-05-13T14:30:00Z,3
1983-05-20T14:30:00Z,19
1983-06-03T14:30:00Z,4
1983-06-10T14:30:00Z,3
1983-06-17T14:30:00Z,56
1983-06-24T14:30:00Z,0
1983-07-01T14:30:00Z,67
1983-07-08T14:30:00Z,5
1983-07-15T14:30:00Z,48
1983-07-22T14:30:00Z,5
1983-07-29T14:30:00Z,6
1983-08-05T14:30:00Z,0
1983-08-12T14:30:00Z,18
1983-08-19T14:30:00Z,0
1983-08-26T14:30:00Z,39
1983-09-02T14:30:00Z,66
1983-09-09T14:30:00Z,30
1983-09-16T14:30:00Z,89
1983-09-23T14:30:00Z,69
1983-09-30T14:30:00Z,43
1983-10-07T14:30:00Z,37
1983-10-14T14:30:00Z,0
1983-10-21T14:30:00Z,95
1983-10-28T14:30:00Z,60
1983-11-04T14:30:00Z,23
1983-11-11T14:30:00Z,16
1983-11-18T14:30:00Z,24
1983-11-25T14:30:00Z,63
1983-12-02T14:30:00Z,30
1983-12-09T14:30:00Z,0
1983-12-16T14:30:00Z,17
1983-12-23T14:30:00Z,21
1983-12-30T14:30:00Z,28
1984-01-06T14:30:00Z,17
1984-01-13T14:30:00Z,37
1984-01-20T14:30:00Z,108
1984-01-27T14:30:00Z,87
1984-02-03T14:30:00Z,117
1984-02-10T14:30:00Z,136
1984-02-17T14:30:00Z,46
1984-02-24T14:30:00Z,27
1984-03-02T14:30:00Z,22
1984-03-09T14:30:00Z,11
1984-03-16T14:30:00Z,23
1984-03-23T14:30:00Z,70
1984-03-30T14:30:00Z,28
1984-04-06T14:30:00Z,63
1984-04-13T14:30:00Z,11
1984-04-20T14:30:00Z,0
1984-04-27T14:30:00Z,39
1984-05-04T14:30:00Z,33
1984-05-11T14:30:00Z,11
1984-05-18T14:30:00Z,22
1984-05-25T14:30:00Z,11
1984-06-01T14:30:00Z,26
1984-06-08T14:30:00Z,69
1984-06-15T14:30:00Z,0
1984-06-22T14:30:00Z,21
1984-06-29T14:30:00Z,49
1984-07-06T14:30:00Z,21
1984-07-13T14:30:00Z,11
1984-07-20T14:30:00Z,29
1984-07-27T14:30:00Z,10
1984-08-03T14:30:00Z,44
1984-08-10T14:30:00Z,21
1984-08-17T14:30:00Z,71
1984-08-24T14:30:00Z,11
1984-08-31T14:30:00Z,21
1984-09-07T14:30:00Z,27
1984-09-14T14:30:00Z,21
1984-09-21T14:30:00Z,28
1984-09-28T14:30:00Z,9
1984-10-05T14:30:00Z,49
1984-10-12T14:30:00Z,35
1984-10-19T14:30:00Z,85
1984-10-26T14:30:00Z,27
1984-11-02T14:30:00Z,57
1984-11-09T14:30:00Z,0
1984-11-16T14:30:00Z,14
1984-11-23T14:30:00Z,0
1984-11-30T14:30:00Z,42
1984-12-07T14:30:00Z,0
1984-12-14T14:30:00Z,39
1984-12-21T14:30:00Z,8
1984-12-28T14:30:00Z,0
1985-01-04T14:30:00Z,29
1985-01-11T14:30:00Z,61
1985-01-18T14:30:00Z,64
1985-01-25T14:30:00Z,39
1985-02-01T14:30:00Z,63
1985-02-08T14:30:00Z,0
1985-02-15T14:30:00Z,0
1985-02-22T14:30:00Z,30
1985-03-01T14:30:00Z,28
1985-03-08T14:30:00Z,0
1985-03-15T14:30:00Z,16
1985-03-22T14:30:00Z,69
1985-03-29T14:30:00Z,0
1985-04-05T14:30:00Z,0
1985-04-12T14:30:00Z,0
1985-04-19T14:30:00Z,0
1985-04-26T14:30:00Z,46
1985-05-03T14:30:00Z,0
1985-05-10T14:30:00Z,0
1985-05-17T14:30:00Z,0
1985-05-24T14:30:00Z,40
1985-05-31T14:30:00Z,168
1985-06-07T14:30:00Z,21
1985-06-14T14:30:00Z,52
1985-06-21T14:30:00Z,22
1985-06-28T14:30:00Z,0
1985-07-05T14:30:00Z,17
1985-07-12T14:30:00Z,52
1985-07-19T14:30:00Z,26
1985-07-26T14:30:00Z,0
1985-08-02T14:30:00Z,0
1985-08-09T14:30:00Z,14
1985-08-16T14:30:00Z,0
1985-08-23T14:30:00Z,38
1985-08-30T14:30:00Z,0
1985-09-06T14:30:00Z,62
1985-09-13T14:30:00Z,0
1985-09-20T14:30:00Z,0
1985-09-27T14:30:00Z,39
1985-10-04T14:30:00Z,49
1985-10-11T14:30:00Z,11
1985-10-18T14:30:00Z,0
1985-10-25T14:30:00Z,0
1985-11-01T14:30:00Z,32
1985-11-08T14:30:00Z,22
1985-11-15T14:30:00Z,85
1985-11-22T14:30:00Z,22
1985-11-29T14:30:00Z,40
1985-12-06T14:30:00Z,29
1985-12-13T14:30:00Z,60
1985-12-20T14:30:00Z,0
1985-12-27T14:30:00Z,0
1986-01-03T14:30:00Z,62
1986-01-10T14:30:00Z,57
1986-01-17T14:30:00Z,0
1986-01-24T14:30:00Z,54
1986-01-31T14:30:00Z,54
1986-02-07T14:30:00Z,26
1986-02-14T14:30:00Z,51
1986-02-21T14:30:00Z,0
1986-02-28T14:30:00Z,53
1986-03-07T14:30:00Z,32
1986-03-14T14:30:00Z,80
1986-03-21T14:30:00Z,7
1986-03-28T14:30:00Z,35
1986-04-04T14:30:00Z,55
1986-04-11T14:30:00Z,0
1986-04-18T14:30:00Z,37
1986-04-25T14:30:00Z,36
1986-05-02T14:30:00Z,0
1986-05-09T14:30:00Z,60
1986-05-16T14:30:00Z,14
1986-05-23T14:30:00Z,56
1986-05-30T14:30:00Z,36
1986-06-06T14:30:00Z,135
1986-06-13T14:30:00Z,64
1986-06-20T14:30:00Z,59
1986-06-27T14:30:00Z,55
1986-07-04T14:30:00Z,42
1986-07-11T14:30:00Z,38
1986-07-18T14:30:00Z,37
1986-07-25T14:30:00Z,76
1986-08-01T14:30:00Z,14
1986-08-08T14:30:00Z,13
1986-08-15T14:30:00Z,111
1986-08-22T14:30:00Z,25
1986-08-29T14:30:00Z,20
1986-09-05T14:30:00Z,41
1986-09-12T14:30:00Z,61
1986-09-19T14:30:00Z,83
1986-09-26T14:30:00Z,30
1986-10-03T14:30:00Z,4
1986-10-10T14:30:00Z,41
1986-10-17T14:30:00Z,0
1986-10-24T14:30:00Z,65
1986-10-31T14:30:00Z,11
1986-11-07T14:30:00Z,41
1986-11-14T14:30:00Z,22
1986-11-21T14:30:00Z,39
1986-11-28T14:30:00Z,93
1986-12-05T14:30:00Z,4
1986-12-12T14:30:00Z,22
1986-12-19T14:30:00Z,1
1986-12-26T14:30:00Z,53
1987-01-02T14:30:00Z,0
1987-01-09T14:30:00Z,23
1987-01-16T14:30:00Z,39
1987-01-23T14:30:00Z,19
1987-01-30T14:30:00Z,0
1987-02-06T14:30:00Z,36
1987-02-13T14:30:00Z,24
1987-02-20T14:30:00Z,0
1987-02-27T14:30:00Z,55
1987-03-06T14:30:00Z,128
1987-03-13T14:30:00Z,8
1987-03-20T14:30:00Z,16
1987-03-27T14:30:00Z,32
1987-04-03T14:30:00Z,17
1987-04-10T14:30:00Z,20
1987-04-17T14:30:00Z,28
1987-04-24T14:30:00Z,43
1987-05-01T14:30:00Z,16
1987-05-08T14:30:00Z,15
1987-05-15T14:30:00Z,14
1987-05-22T14:30:00Z,14
1987-05-29T14:30:00Z,39
1987-06-05T14:30:00Z,32
1987-06-12T14:30:00Z,12
1987-06-19T14:30:00Z,47
1987-06-26T14:30:00Z,0
1987-07-03T14:30:00Z,64
1987-07-10T14:30:00Z,15
1987-07-17T14:30:00Z,22
1987-07-24T14:30:00Z,41
1987-07-31T14:30:00Z,13
1987-08-07T14:30:00Z,31
1987-08-14T14:30:00Z,14
1987-08-21T14:30:00Z,0
1987-08-28T14:30:00Z,17
1987-09-04T14:30:00Z,53
1987-09-11T14:30:00Z,23
1987-09-18T14:30:00Z,43
1987-09-25T14:30:00Z,40
1987-10-02T14:30:00Z,53
1987-10-09T14:30:00Z,6
1987-10-16T14:30:00Z,13
1987-10-23T14:30:00Z,0
1987-10-30T14:30:00Z,16
1987-11-06T14:30:00Z,35
1987-11-13T14:30:00Z,7
1987-11-20T14:30:00Z,26
1987-11-27T14:30:00Z,52
1987-12-04T14:30:00Z,18
1987-12-11T14:30:00Z,42
1987-12-18T14:30:00Z,20
1987-12-25T14:30:00Z,26
1988-01-01T14:30:00Z,39
1988-01-08T14:30:00Z,0
1988-01-15T14:30:00Z,27
1988-01-22T14:30:00Z,21
1988-01-29T14:30:00Z,0
1988-02-05T14:30:00Z,0
1988-02-12T14:30:00Z,3
1988-02-19T14:30:00Z,0
1988-02-26T14:30:00Z,21
1988-03-04T14:30:00Z,0
1988-03-11T14:30:00Z,20
1988-03-18T14:30:00Z,36
1988-03-25T14:30:00Z,75
1988-04-01T14:30:00Z,101
1988-04-08T14:30:00Z,176
1988-04-15T14:30:00Z,57
1988-04-22T14:30:00Z,0
1988-04-29T14:30:00Z,39
1988-05-06T14:30:00Z,0
1988-05-13T14:30:00Z,29
1988-05-20T14:30:00Z,42
1988-05-27T14:30:00Z,102
1988-06-03T14:30:00Z,328
1988-06-10T14:30:00Z,0
1988-06-17T14:30:00Z,202
1988-06-24T14:30:00Z,229
1988-07-01T14:30:00Z,89
1988-07-08T14:30:00Z,68
1988-07-15T14:30:00Z,0
1988-07-22T14:30:00Z,145
1988-07-29T14:30:00Z,20
1988-08-05T14:30:00Z,0
1988-08-12T14:30:00Z,161
1988-08-19T14:30:00Z,237
1988-08-26T14:30:00Z,131
1988-09-02T14:30:00Z,44
1988-09-09T14:30:00Z,0
1988-09-16T14:30:00Z,45
1988-09-23T14:30:00Z,87
1988-09-30T14:30:00Z,28
1988-10-07T14:30:00Z,121
1988-10-14T14:30:00Z,42
1988-10-21T14:30:00Z,122
1988-10-28T14:30:00Z,87
1988-11-04T14:30:00Z,195
1988-11-11T14:30:00Z,83
1988-11-18T14:30:00Z,128
1988-11-25T14:30:00Z,47
1988-12-02T14:30:00Z,114
1988-12-09T14:30:00Z,60
1988-12-16T14:30:00Z,77
1988-12-23T14:30:00Z,73
1988-12-30T14:30:00Z,433
1989-01-06T14:30:00Z,48
1989-01-13T14:30:00Z,121
1989-01-20T14:30:00Z,90
1989-01-27T14:30:00Z,198
1989-02-03T14:30:00Z,329
1989-02-10T14:30:00Z,426
1989-02-17T14:30:00Z,226
1989-02-24T14:30:00Z,189
1989-03-03T14:30:00Z,101
1989-03-10T14:30:00Z,221
1989-03-17T14:30:00Z,163
1989-03-24T14:30:00Z,108
1989-03-31T14:30:00Z,319
1989-04-07T14:30:00Z,119
1989-04-14T14:30:00Z,166
1989-04-21T14:30:00Z,168
1989-04-28T14:30:00Z,216
1989-05-05T14:30:00Z,236
1989-05-12T14:30:00Z,171
1989-05-19T14:30:00Z,95
1989-05-26T14:30:00Z,127
1989-06-02T14:30:00Z,198
1989-06-09T14:30:00Z,153
1989-06-16T14:30:00Z,71
1989-06-23T14:30:00Z,193
1989-06-30T14:30:00Z,101
1989-07-07T14:30:00Z,123
1989-07-14T14:30:00Z,178
1989-07-21T14:30:00Z,372
1989-07-28T14:30:00Z,173
1989-08-04T14:30:00Z,158
1989-08-11T14:30:00Z,101
1989-08-18T14:30:00Z,93
1989-08-25T14:30:00Z,224
1989-09-01T14:30:00Z,55
1989-09-08T14:30:00Z,173
1989-09-15T14:30:00Z,191
1989-09-22T14:30:00Z,85
1989-09-29T14:30:00Z,58
1989-10-06T14:30:00Z,82
1989-10-13T14:30:00Z,109
1989-10-20T14:30:00Z,70
1989-10-27T14:30:00Z,37
1989-11-03T14:30:00Z,91
1989-11-10T14:30:00Z,35
1989-11-17T14:30:00Z,77
1989-11-24T14:30:00Z,44
1989-12-01T14:30:00Z,215
1989-12-08T14:30:00Z,74
1989-12-15T14:30:00Z,231
1989-12-22T14:30:00Z,82
1989-12-29T14:30:00Z,137
1990-01-05T14:30:00Z,108
1990-01-12T14:30:00Z,107
1990-01-19T14:30:00Z,129
1990-01-26T14:30:00Z,133
1990-02-02T14:30:00Z,115
1990-02-09T14:30:00Z,151
1990-02-16T14:30:00Z,11
1990-02-23T14:30:00Z,190
1990-03-02T14:30:00Z,53
1990-03-09T14:30:00Z,72
1990-03-16T14:30:00Z,77
1990-03-23T14:30:00Z,121
1990-03-30T14:30:00Z,170
1990-04-06T14:30:00Z,103
1990-04-13T14:30:00Z,122
1990-04-20T14:30:00Z,104
1990-04-27T14:30:00Z,76
1990-05-04T14:30:00Z,142
1990-05-11T14:30:00Z,86
1990-05-18T14:30:00Z,134
1990-05-25T14:30:00Z,70
1990-06-01T14:30:00Z,156
1990-06-08T14:30:00Z,83
1990-06-15T14:30:00Z,87
1990-06-22T14:30:00Z,107
1990-06-29T14:30:00Z,123
1990-07-06T14:30:00Z,87
1990-07-13T14:30:00Z,27
1990-07-20T14:30:00Z,95
1990-07-27T14:30:00Z,70
1990-08-03T14:30:00Z,102
1990-08-10T14:30:00Z,147
1990-08-17T14:30:00Z,61
1990-08-24T14:30:00Z,27
1990-08-31T14:30:00Z,60
1990-09-07T14:30:00Z,42
1990-09-14T14:30:00Z,36
1990-09-21T14:30:00Z,44
1990-09-28T14:30:00Z,111
1990-10-05T14:30:00Z,32
1990-10-12T14:30:00Z,29
1990-10-19T14:30:00Z,16
1990-10-26T14:30:00Z,31
1990-11-02T14:30:00Z,47
1990-11-09T14:30:00Z,44
1990-11-16T14:30:00Z,23
1990-11-23T14:30:00Z,93
1990-11-30T14:30:00Z,40
1990-12-07T14:30:00Z,83
1990-12-14T14:30:00Z,111
1990-12-21T14:30:00Z,35
1990-12-28T14:30:00Z,56
1991-01-04T14:30:00Z,36
1991-01-11T14:30:00Z,59
1991-01-18T14:30:00Z,40
1991-01-25T14:30:00Z,22
1991-02-01T14:30:00Z,57
1991-02-08T14:30:00Z,32
1991-02-15T14:30:00Z,32
1991-02-22T14:30:00Z,37
1991-03-01T14:30:00Z,13
1991-03-08T14:30:00Z,41
1991-03-15T14:30:00Z,57
1991-03-22T14:30:00Z,48
1991-03-29T14:30:00Z,52
1991-04-05T14:30:00Z,54
1991-04-12T14:30:00Z,50
1991-04-19T14:30:00Z,40
1991-04-26T14:30:00Z,64
1991-05-03T14:30:00Z,63
1991-05-10T14:30:00Z,89
1991-05-17T14:30:00Z,17
1991-05-24T14:30:00Z,73
1991-05-31T14:30:00Z,74
1991-06-07T14:30:00Z,119
1991-06-14T14:30:00Z,24
1991-06-21T14:30:00Z,56
1991-06-28T14:30:00Z,41
1991-07-05T14:30:00Z,59
1991-07-12T14:30:00Z,92
1991-07-19T14:30:00Z,42
1991-07-26T14:30:00Z,35
1991-08-02T14:30:00Z,81
1991-08-09T14:30:00Z,114
1991-08-16T14:30:00Z,129
1991-08-23T14:30:00Z,60
1991-08-30T14:30:00Z,25
1991-09-06T14:30:00Z,104
1991-09-13T14:30:00Z,68
1991-09-20T14:30:00Z,73
1991-09-27T14:30:00Z,35
1991-10-04T14:30:00Z,105
1991-10-11T14:30:00Z,36
1991-10-18T14:30:00Z,64
1991-10-25T14:30:00Z,46
1991-11-01T14:30:00Z,82
1991-11-08T14:30:00Z,66
1991-11-15T14:30:00Z,101
1991-11-22T14:30:00Z,85
1991-11-29T14:30:00Z,88
1991-12-06T14:30:00Z,28
1991-12-13T14:30:00Z,101
1991-12-20T14:30:00Z,131
1991-12-27T14:30:00Z,60
1992-01-03T14:30:00Z,83
1992-01-10T14:30:00Z,49
1992-01-17T14:30:00Z,64
1992-01-24T14:30:00Z,39
1992-01-31T14:30:00Z,68
1992-02-07T14:30:00Z,14
1992-02-14T14:30:00Z,75
1992-02-21T14:30:00Z,25
1992-02-28T14:30:00Z,103
1992-03-06T14:30:00Z,61
1992-03-13T14:30:00Z,48
1992-03-20T14:30:00Z,42
1992-03-27T14:30:00Z,60
1992-04-03T14:30:00Z,50
1992-04-10T14:30:00Z,51
1992-04-17T14:30:00Z,72
1992-04-24T14:30:00Z,54
1992-05-01T14:30:00Z,144
1992-05-08T14:30:00Z,54
1992-05-15T14:30:00Z,56
1992-05-22T14:30:00Z,75
1992-05-29T14:30:00Z,127
1992-06-05T14:30:00Z,66
1992-06-12T14:30:00Z,58
1992-06-19T14:30:00Z,71
1992-06-26T14:30:00Z,78
1992-07-03T14:30:00Z,92
1992-07-10T14:30:00Z,28
1992-07-17T14:30:00Z,80
1992-07-24T14:30:00Z,73
1992-07-31T14:30:00Z,150
1992-08-07T14:30:00Z,75
1992-08-14T14:30:00Z,72
1992-08-21T14:30:00Z,101
1992-08-28T14:30:00Z,65
1992-09-04T14:30:00Z,107
1992-09-11T14:30:00Z,71
1992-09-18T14:30:00Z,55
1992-09-25T14:30:00Z,49
1992-10-02T14:30:00Z,108
1992-10-09T14:30:00Z,49
1992-10-16T14:30:00Z,138
1992-10-23T14:30:00Z,33
1992-10-30T14:30:00Z,48
1992-11-06T14:30:00Z,88
1992-11-13T14:30:00Z,64
1992-11-20T14:30:00Z,87
1992-11-27T14:30:00Z,69
1992-12-04T14:30:00Z,80
1992-12-11T14:30:00Z,100
1992-12-18T14:30:00Z,89
1992-12-25T14:30:00Z,90
1993-01-01T14:30:00Z,44
1993-01-08T14:30:00Z,94
1993-01-15T14:30:00Z,134
1993-01-22T14:30:00Z,47
1993-01-29T14:30:00Z,59
1993-02-05T14:30:00Z,80
1993-02-12T14:30:00Z,74
1993-02-19T14:30:00Z,106
1993-02-26T14:30:00Z,69
1993-03-05T14:30:00Z,85
1993-03-12T14:30:00Z,83
1993-03-19T14:30:00Z,90
1993-03-26T14:30:00Z,75
1993-04-02T14:30:00Z,121
1993-04-09T14:30:00Z,53
1993-04-16T14:30:00Z,100
1993-04-23T14:30:00Z,71
1993-04-30T14:30:00Z,90
1993-05-07T14:30:00Z,60
1993-05-14T14:30:00Z,64
1993-05-21T14:30:00Z,73
1993-05-28T14:30:00Z,36
1993-06-04T14:30:00Z,52
1993-06-11T14:30:00Z,69
1993-06-18T14:30:00Z,92
1993-06-25T14:30:00Z,43
1993-07-02T14:30:00Z,60
1993-07-09T14:30:00Z,29
1993-07-16T14:30:00Z,114
1993-07-23T14:30:00Z,116
1993-07-30T14:30:00Z,40
1993-08-06T14:30:00Z,69
1993-08-13T14:30:00Z,61
1993-08-20T14:30:00Z,163
1993-08-27T14:30:00Z,70
1993-09-03T14:30:00Z,49
1993-09-10T14:30:00Z,27
1993-09-17T14:30:00Z,45
1993-09-24T14:30:00Z,62
1993-10-01T14:30:00Z,57
1993-10-08T14:30:00Z,76
1993-10-15T14:30:00Z,31
1993-10-22T14:30:00Z,40
1993-10-29T14:30:00Z,178
1993-11-05T14:30:00Z,66
1993-11-12T14:30:00Z,71
1993-11-19T14:30:00Z,87
1993-11-26T14:30:00Z,74
1993-12-03T14:30:00Z,86
1993-12-10T14:30:00Z,108
1993-12-17T14:30:00Z,53
1993-12-24T14:30:00Z,46
1993-12-31T14:30:00Z,28
1994-01-07T14:30:00Z,102
1994-01-14T14:30:00Z,31
1994-01-21T14:30:00Z,136
1994-01-28T14:30:00Z,61
1994-02-04T14:30:00Z,93
1994-02-11T14:30:00Z,62
1994-02-18T14:30:00Z,86
1994-02-25T14:30:00Z,121
1994-03-04T14:30:00Z,83
1994-03-11T14:30:00Z,49
1994-03-18T14:30:00Z,145
1994-03-25T14:30:00Z,60
1994-04-01T14:30:00Z,99
1994-04-08T14:30:00Z,116
1994-04-15T14:30:00Z,174
1994-04-22T14:30:00Z,100
1994-04-29T14:30:00Z,65
1994-05-06T14:30:00Z,59
1994-05-13T14:30:00Z,59
1994-05-20T14:30:00Z,112
1994-05-27T14:30:00Z,67
1994-06-03T14:30:00Z,83
1994-06-10T14:30:00Z,126
1994-06-17T14:30:00Z,107
1994-06-24T14:30:00Z,123
1994-07-01T14:30:00Z,98
1994-07-08T14:30:00Z,46
1994-07-15T14:30:00Z,45
1994-07-22T14:30:00Z,71
1994-07-29T14:30:00Z,87
1994-08-05T14:30:00Z,145
1994-08-12T14:30:00Z,87
1994-08-19T14:30:00Z,72
1994-08-26T14:30:00Z,48
1994-09-02T14:30:00Z,117
1994-09-09T14:30:00Z,47
1994-09-16T14:30:00Z,138
1994-09-23T14:30:00Z,49
1994-09-30T14:30:00Z,164
1994-10-07T14:30:00Z,55
1994-10-14T14:30:00Z,59
1994-10-21T14:30:00Z,62
1994-10-28T14:30:00Z,55
1994-11-04T14:30:00Z,192
1994-11-11T14:30:00Z,45
1994-11-18T14:30:00Z,80
1994-11-25T14:30:00Z,96
1994-12-02T14:30:00Z,73
1994-12-09T14:30:00Z,144
1994-12-16T14:30:00Z,44
1994-12-23T14:30:00Z,172
1994-12-30T14:30:00Z,67
1995-01-06T14:30:00Z,85
1995-01-13T14:30:00Z,89
1995-01-20T14:30:00Z,45
1995-01-27T14:30:00Z,67
1995-02-03T14:30:00Z,53
1995-02-10T14:30:00Z,188
1995-02-17T14:30:00Z,95
1995-02-24T14:30:00Z,185
1995-03-03T14:30:00Z,44
1995-03-10T14:30:00Z,130
1995-03-17T14:30:00Z,116
1995-03-24T14:30:00Z,116
1995-03-31T14:30:00Z,63
1995-04-07T14:30:00Z,77
1995-04-14T14:30:00Z,35
1995-04-21T14:30:00Z,111
1995-04-28T14:30:00Z,33
1995-05-05T14:30:00Z,57
1995-05-12T14:30:00Z,169
1995-05-19T14:30:00Z,69
1995-05-26T14:30:00Z,87
1995-06-02T14:30:00Z,59
1995-06-09T14:30:00Z,32
1995-06-16T14:30:00Z,170
1995-06-23T14:30:00Z,25
1995-06-30T14:30:00Z,69
1995-07-07T14:30:00Z,45
1995-07-14T14:30:00Z,122
1995-07-21T14:30:00Z,85
1995-07-28T14:30:00Z,182
1995-08-04T14:30:00Z,70
1995-08-11T14:30:00Z,78
1995-08-18T14:30:00Z,77
1995-08-25T14:30:00Z,147
1995-09-01T14:30:00Z,154
1995-09-08T14:30:00Z,69
1995-09-15T14:30:00Z,42
1995-09-22T14:30:00Z,244
1995-09-29T14:30:00Z,141
1995-10-06T14:30:00Z,89
1995-10-13T14:30:00Z,95
1995-10-20T14:30:00Z,78
1995-10-27T14:30:00Z,181
1995-11-03T14:30:00Z,185
1995-11-10T14:30:00Z,212
1995-11-17T14:30:00Z,201
1995-11-24T14:30:00Z,176
1995-12-01T14:30:00Z,28
1995-12-08T14:30:00Z,182
1995-12-15T14:30:00Z,54
1995-12-22T14:30:00Z,100
1995-12-29T14:30:00Z,71
1996-01-05T14:30:00Z,87
1996-01-12T14:30:00Z,50
1996-01-19T14:30:00Z,75
1996-01-26T14:30:00Z,30
1996-02-02T14:30:00Z,112
1996-02-09T14:30:00Z,73
1996-02-16T14:30:00Z,97
1996-02-23T14:30:00Z,142
1996-03-01T14:30:00Z,70
1996-03-08T14:30:00Z,78
1996-03-15T14:30:00Z,103
1996-03-22T14:30:00Z,73
1996-03-29T14:30:00Z,87
1996-04-05T14:30:00Z,106
1996-04-12T14:30:00Z,95
1996-04-19T14:30:00Z,127
1996-04-26T14:30:00Z,106
1996-05-03T14:30:00Z,53
1996-05-10T14:30:00Z,71
1996-05-17T14:30:00Z,142
1996-05-24T14:30:00Z,141
1996-05-31T14:30:00Z,92
1996-06-07T14:30:00Z,103
1996-06-14T14:30:00Z,129
1996-06-21T14:30:00Z,119
1996-06-28T14:30:00Z,97
1996-07-05T14:30:00Z,49
1996-07-12T14:30:00Z,67
1996-07-19T14:30:00Z,136
1996-07-26T14:30:00Z,53
1996-08-02T14:30:00Z,168
1996-08-09T14:30:00Z,72
1996-08-16T14:30:00Z,157
1996-08-23T14:30:00Z,64
1996-08-30T14:30:00Z,131
1996-09-06T14:30:00Z,133
1996-09-13T14:30:00Z,165
1996-09-20T14:30:00Z,165
1996-09-27T14:30:00Z,109
1996-10-04T14:30:00Z,186
1996-10-11T14:30:00Z,111
1996-10-18T14:30:00Z,133
1996-10-25T14:30:00Z,44
1996-11-01T14:30:00Z,174
1996-11-08T14:30:00Z,87
1996-11-15T14:30:00Z,77
1996-11-22T14:30:00Z,38
1996-11-29T14:30:00Z,97
1996-12-06T14:30:00Z,145
1996-12-13T14:30:00Z,70
1996-12-20T14:30:00Z,110
1996-12-27T14:30:00Z,91
1997-01-03T14:30:00Z,97
1997-01-10T14:30:00Z,116
1997-01-17T14:30:00Z,127
1997-01-24T14:30:00Z,74
1997-01-31T14:30:00Z,86
1997-02-07T14:30:00Z,101
1997-02-14T14:30:00Z,171
1997-02-21T14:30:00Z,81
1997-02-28T14:30:00Z,155
1997-03-07T14:30:00Z,128
1997-03-14T14:30:00Z,89
1997-03-21T14:30:00Z,167
1997-03-28T14:30:00Z,34
1997-04-04T14:30:00Z,133
1997-04-11T14:30:00Z,61
1997-04-18T14:30:00Z,27
1997-04-25T14:30:00Z,128
1997-05-02T14:30:00Z,94
1997-05-09T14:30:00Z,66
1997-05-16T14:30:00Z,63
1997-05-23T14:30:00Z,157
1997-05-30T14:30:00Z,97
1997-06-06T14:30:00Z,68
1997-06-13T14:30:00Z,111
1997-06-20T14:30:00Z,47
1997-06-27T14:30:00Z,176
1997-07-04T14:30:00Z,158
1997-07-11T14:30:00Z,40
1997-07-18T14:30:00Z,105
1997-07-25T14:30:00Z,55
1997-08-01T14:30:00Z,56
1997-08-08T14:30:00Z,106
1997-08-15T14:30:00Z,78
1997-08-22T14:30:00Z,103
1997-08-29T14:30:00Z,91
1997-09-05T14:30:00Z,77
1997-09-12T14:30:00Z,99
1997-09-19T14:30:00Z,102
1997-09-26T14:30:00Z,164
1997-10-03T14:30:00Z,58
1997-10-10T14:30:00Z,134
1997-10-17T14:30:00Z,125
1997-10-24T14:30:00Z,71
1997-10-31T14:30:00Z,79
1997-11-07T14:30:00Z,50
1997-11-14T14:30:00Z,56
1997-11-21T14:30:00Z,86
1997-11-28T14:30:00Z,13
1997-12-05T14:30:00Z,75
1997-12-12T14:30:00Z,51
1997-12-19T14:30:00Z,79
1997-12-26T14:30:00Z,53
1998-01-02T14:30:00Z,49
1998-01-09T14:30:00Z,67
1998-01-16T14:30:00Z,58
1998-01-23T14:30:00Z,36
1998-01-30T14:30:00Z,83
1998-02-06T14:30:00Z,157
1998-02-13T14:30:00Z,72
1998-02-20T14:30:00Z,70
1998-02-27T14:30:00Z,48
1998-03-06T14:30:00Z,199
1998-03-13T14:30:00Z,50
1998-03-20T14:30:00Z,30
1998-03-27T14:30:00Z,109
1998-04-03T14:30:00Z,60
1998-04-10T14:30:00Z,91
1998-04-17T14:30:00Z,75
1998-04-24T14:30:00Z,55
1998-05-01T14:30:00Z,82
1998-05-08T14:30:00Z,76
1998-05-15T14:30:00Z,129
1998-05-22T14:30:00Z,70
1998-05-29T14:30:00Z,113
1998-06-05T14:30:00Z,110
1998-06-12T14:30:00Z,55
1998-06-19T14:30:00Z,52
1998-06-26T14:30:00Z,114
1998-07-03T14:30:00Z,15
1998-07-10T14:30:00Z,31
1998-07-17T14:30:00Z,80
1998-07-24T14:30:00Z,33
1998-07-31T14:30:00Z,40
1998-08-07T14:30:00Z,89
1998-08-14T14:30:00Z,59
1998-08-21T14:30:00Z,67
1998-08-28T14:30:00Z,23
1998-09-04T14:30:00Z,129
1998-09-11T14:30:00Z,32
1998-09-18T14:30:00Z,74
1998-09-25T14:30:00Z,39
1998-10-02T14:30:00Z,74
1998-10-09T14:30:00Z,52
1998-10-16T14:30:00Z,127
1998-10-23T14:30:00Z,16
1998-10-30T14:30:00Z,106
1998-11-06T14:30:00Z,66
1998-11-13T14:30:00Z,119
1998-11-20T14:30:00Z,18
1998-11-27T14:30:00Z,62
1998-12-04T14:30:00Z,73
1998-12-11T14:30:00Z,114
1998-12-18T14:30:00Z,131
1998-12-25T14:30:00Z,115
1999-01-01T14:30:00Z,107
1999-01-08T14:30:00Z,161
1999-01-15T14:30:00Z,84
1999-01-22T14:30:00Z,60
1999-01-29T14:30:00Z,77
1999-02-05T14:30:00Z,69
1999-02-12T14:30:00Z,101
1999-02-19T14:30:00Z,95
1999-02-26T14:30:00Z,157
1999-03-05T14:30:00Z,111
1999-03-12T14:30:00Z,104
1999-03-19T14:30:00Z,53
1999-03-26T14:30:00Z,118
1999-04-02T14:30:00Z,82
1999-04-09T14:30:00Z,201
1999-04-16T14:30:00Z,42
1999-04-23T14:30:00Z,47
1999-04-30T14:30:00Z,157
1999-05-07T14:30:00Z,118
1999-05-14T14:30:00Z,40
1999-05-21T14:30:00Z,117
1999-05-28T14:30:00Z,137
1999-06-04T14:30:00Z,43
1999-06-11T14:30:00Z,39
1999-06-18T14:30:00Z,104
1999-06-25T14:30:00Z,150
1999-07-02T14:30:00Z,119
1999-07-09T14:30:00Z,101
1999-07-16T14:30:00Z,136
1999-07-23T14:30:00Z,190
1999-07-30T14:30:00Z,166
1999-08-06T14:30:00Z,220
1999-08-13T14:30:00Z,163
1999-08-20T14:30:00Z,73
1999-08-27T14:30:00Z,97
1999-09-03T14:30:00Z,80
1999-09-10T14:30:00Z,137
1999-09-17T14:30:00Z,76
1999-09-24T14:30:00Z,185
1999-10-01T14:30:00Z,133
1999-10-08T14:30:00Z,138
1999-10-15T14:30:00Z,148
1999-10-22T14:30:00Z,116
1999-10-29T14:30:00Z,143
1999-11-05T14:30:00Z,125
1999-11-12T14:30:00Z,103
1999-11-19T14:30:00Z,75
1999-11-26T14:30:00Z,110
1999-12-03T14:30:00Z,143
1999-12-10T14:30:00Z,54
1999-12-17T14:30:00Z,149
1999-12-24T14:30:00Z,92
1999-12-31T14:30:00Z,116
2000-01-07T14:30:00Z,53
2000-01-14T14:30:00Z,68
2000-01-21T14:30:00Z,95
2000-01-28T14:30:00Z,189
2000-02-04T14:30:00Z,120
2000-02-11T14:30:00Z,162
2000-02-18T14:30:00Z,109
2000-02-25T14:30:00Z,100
2000-03-03T14:30:00Z,165
2000-03-10T14:30:00Z,127
2000-03-17T14:30:00Z,126
2000-03-24T14:30:00Z,90
2000-03-31T14:30:00Z,79
2000-04-07T14:30:00Z,77
2000-04-14T14:30:00Z,113
2000-04-21T14:30:00Z,109
2000-04-28T14:30:00Z,106
2000-05-05T14:30:00Z,149
2000-05-12T14:30:00Z,76
2000-05-19T14:30:00Z,103
2000-05-26T14:30:00Z,163
2000-06-02T14:30:00Z,134
2000-06-09T14:30:00Z,141
2000-06-16T14:30:00Z,131
2000-06-23T14:30:00Z,104
2000-06-30T14:30:00Z,142
2000-07-07T14:30:00Z,118
2000-07-14T14:30:00Z,115
2000-07-21T14:30:00Z,152
2000-07-28T14:30:00Z,76
2000-08-04T14:30:00Z,177
2000-08-11T14:30:00Z,121
2000-08-18T14:30:00Z,174
2000-08-25T14:30:00Z,52
2000-09-01T14:30:00Z,125
2000-09-08T14:30:00Z,122
2000-09-15T14:30:00Z,76
2000-09-22T14:30:00Z,140
2000-09-29T14:30:00Z,190
2000-10-06T14:30:00Z,128
2000-10-13T14:30:00Z,177
2000-10-20T14:30:00Z,183
2000-10-27T14:30:00Z,173
2000-11-03T14:30:00Z,145
2000-11-10T14:30:00Z,205
2000-11-17T14:30:00Z,89
2000-11-24T14:30:00Z,125
2000-12-01T14:30:00Z,100
2000-12-08T14:30:00Z,162
2000-12-15T14:30:00Z,82
2000-12-22T14:30:00Z,225
2000-12-29T14:30:00Z,181
2001-01-05T14:30:00Z,250
2001-01-12T14:30:00Z,133
2001-01-19T14:30:00Z,250
2001-01-26T14:30:00Z,220
2001-02-02T14:30:00Z,238
2001-02-09T14:30:00Z,192
2001-02-16T14:30:00Z,231
2001-02-23T14:30:00Z,221
2001-03-02T14:30:00Z,116
2001-03-09T14:30:00Z,237
2001-03-16T14:30:00Z,188
2001-03-23T14:30:00Z,155
2001-03-30T14:30:00Z,91
2001-04-06T14:30:00Z,148
2001-04-13T14:30:00Z,156
2001-04-20T14:30:00Z,148
2001-04-27T14:30:00Z,165
2001-05-04T14:30:00Z,175
2001-05-11T14:30:00Z,318
2001-05-18T14:30:00Z,97
2001-05-25T14:30:00Z,167
2001-06-01T14:30:00Z,144
2001-06-08T14:30:00Z,151
2001-06-15T14:30:00Z,137
2001-06-22T14:30:00Z,94
2001-06-29T14:30:00Z,147
2001-07-06T14:30:00Z,168
2001-07-13T14:30:00Z,50
2001-07-20T14:30:00Z,240
2001-07-27T14:30:00Z,241
2001-08-03T14:30:00Z,133
2001-08-10T14:30:00Z,176
2001-08-17T14:30:00Z,111
2001-08-24T14:30:00Z,168
2001-08-31T14:30:00Z,120
2001-09-07T14:30:00Z,117
2001-09-14T14:30:00Z,212
2001-09-21T14:30:00Z,69
2001-09-28T14:30:00Z,120
2001-10-05T14:30:00Z,42
2001-10-12T14:30:00Z,155
2001-10-19T14:30:00Z,130
2001-10-26T14:30:00Z,49
2001-11-02T14:30:00Z,36
2001-11-09T14:30:00Z,174
2001-11-16T14:30:00Z,88
2001-11-23T14:30:00Z,71
2001-11-30T14:30:00Z,57
2001-12-07T14:30:00Z,85
2001-12-14T14:30:00Z,104
2001-12-21T14:30:00Z,131
2001-12-28T14:30:00Z,68
2002-01-04T14:30:00Z,88
2002-01-11T14:30:00Z,105
2002-01-18T14:30:00Z,39
2002-01-25T14:30:00Z,193
2002-02-01T14:30:00Z,113
2002-02-08T14:30:00Z,77
2002-02-15T14:30:00Z,146
2002-02-22T14:30:00Z,76
2002-03-01T14:30:00Z,105
2002-03-08T14:30:00Z,28
2002-03-15T14:30:00Z,48
2002-03-22T14:30:00Z,135
2002-03-29T14:30:00Z,116
2002-04-05T14:30:00Z,106
2002-04-12T14:30:00Z,192
2002-04-19T14:30:00Z,105
2002-04-26T14:30:00Z,87
2002-05-03T14:30:00Z,144
2002-05-10T14:30:00Z,78
2002-05-17T14:30:00Z,99
2002-05-24T14:30:00Z,89
2002-05-31T14:30:00Z,59
2002-06-07T14:30:00Z,153
2002-06-14T14:30:00Z,127
2002-06-21T14:30:00Z,105
2002-06-28T14:30:00Z,104
2002-07-05T14:30:00Z,73
2002-07-12T14:30:00Z,89
2002-07-19T14:30:00Z,53
2002-07-26T14:30:00Z,104
2002-08-02T14:30:00Z,69
2002-08-09T14:30:00Z,124
2002-08-16T14:30:00Z,29
2002-08-23T14:30:00Z,166
2002-08-30T14:30:00Z,59
2002-09-06T14:30:00Z,145
2002-09-13T14:30:00Z,93
2002-09-20T14:30:00Z,166
2002-09-27T14:30:00Z,86
2002-10-04T14:30:00Z,156
2002-10-11T14:30:00Z,143
2002-10-18T14:30:00Z,160
2002-10-25T14:30:00Z,243
2002-11-01T14:30:00Z,192
2002-11-08T14:30:00Z,86
2002-11-15T14:30:00Z,123
2002-11-22T14:30:00Z,101
2002-11-29T14:30:00Z,218
2002-12-06T14:30:00Z,188
2002-12-13T14:30:00Z,108
2002-12-20T14:30:00Z,68
2002-12-27T14:30:00Z,84
2003-01-03T14:30:00Z,192
2003-01-10T14:30:00Z,115
2003-01-17T14:30:00Z,224
2003-01-24T14:30:00Z,75
2003-01-31T14:30:00Z,111
2003-02-07T14:30:00Z,82
2003-02-14T14:30:00Z,48
2003-02-21T14:30:00Z,110
2003-02-28T14:30:00Z,107
2003-03-07T14:30:00Z,67
2003-03-14T14:30:00Z,164
2003-03-21T14:30:00Z,118
2003-03-28T14:30:00Z,35
2003-04-04T14:30:00Z,100
2003-04-11T14:30:00Z,70
2003-04-18T14:30:00Z,97
2003-04-25T14:30:00Z,105
2003-05-02T14:30:00Z,143
2003-05-09T14:30:00Z,118
2003-05-16T14:30:00Z,154
2003-05-23T14:30:00Z,99
2003-05-30T14:30:00Z,128
2003-06-06T14:30:00Z,165
2003-06-13T14:30:00Z,53
2003-06-20T14:30:00Z,128
2003-06-27T14:30:00Z,216
2003-07-04T14:30:00Z,174
2003-07-11T14:30:00Z,168
2003-07-18T14:30:00Z,175
2003-07-25T14:30:00Z,187
2003-08-01T14:30:00Z,156
2003-08-08T14:30:00Z,216
2003-08-15T14:30:00Z,118
2003-08-22T14:30:00Z,68
2003-08-29T14:30:00Z,153
2003-09-05T14:30:00Z,122
2003-09-12T14:30:00Z,122
2003-09-19T14:30:00Z,149
2003-09-26T14:30:00Z,48
2003-10-03T14:30:00Z,108
2003-10-10T14:30:00Z,298
2003-10-17T14:30:00Z,49
2003-10-24T14:30:00Z,90
2003-10-31T14:30:00Z,91
2003-11-07T14:30:00Z,86
2003-11-14T14:30:00Z,54
2003-11-21T14:30:00Z,57
2003-11-28T14:30:00Z,69
2003-12-05T14:30:00Z,82
2003-12-12T14:30:00Z,128
2003-12-19T14:30:00Z,53
2003-12-26T14:30:00Z,146
2004-01-02T14:30:00Z,139
2004-01-09T14:30:00Z,100
2004-01-16T14:30:00Z,108
2004-01-23T14:30:00Z,86
2004-01-30T14:30:00Z,77
2004-02-06T14:30:00Z,65
2004-02-13T14:30:00Z,136
2004-02-20T14:30:00Z,86
2004-02-27T14:30:00Z,57
2004-03-05T14:30:00Z,101
2004-03-12T14:30:00Z,131
2004-03-19T14:30:00Z,37
2004-03-26T14:30:00Z,68
2004-04-02T14:30:00Z,30
2004-04-09T14:30:00Z,59
2004-04-16T14:30:00Z,81
2004-04-23T14:30:00Z,121
2004-04-30T14:30:00Z,59
2004-05-07T14:30:00Z,102
2004-05-14T14:30:00Z,173
2004-05-21T14:30:00Z,159
2004-05-28T14:30:00Z,166
2004-06-04T14:30:00Z,172
2004-06-11T14:30:00Z,211
2004-06-18T14:30:00Z,80
2004-06-25T14:30:00Z,234
2004-07-02T14:30:00Z,160
2004-07-09T14:30:00Z,86
2004-07-16T14:30:00Z,81
2004-07-23T14:30:00Z,67
2004-07-30T14:30:00Z,136
2004-08-06T14:30:00Z,179
2004-08-13T14:30:00Z,98
2004-08-20T14:30:00Z,257
2004-08-27T14:30:00Z,103
2004-09-03T14:30:00Z,76
2004-09-10T14:30:00Z,95
2004-09-17T14:30:00Z,60
2004-09-24T14:30:00Z,77
2004-10-01T14:30:00Z,56
2004-10-08T14:30:00Z,157
2004-10-15T14:30:00Z,153
2004-10-22T14:30:00Z,94
2004-10-29T14:30:00Z,164
2004-11-05T14:30:00Z,51
2004-11-12T14:30:00Z,235
2004-11-19T14:30:00Z,163
2004-11-26T14:30:00Z,105
2004-12-03T14:30:00Z,110
2004-12-10T14:30:00Z,121
2004-12-17T14:30:00Z,119
2004-12-24T14:30:00Z,85
2004-12-31T14:30:00Z,198
2005-01-07T14:30:00Z,30
2005-01-14T14:30:00Z,107
2005-01-21T14:30:00Z,134
2005-01-28T14:30:00Z,76
2005-02-04T14:30:00Z,57
2005-02-11T14:30:00Z,143
2005-02-18T14:30:00Z,66
2005-02-25T14:30:00Z,127
2005-03-04T14:30:00Z,63
2005-03-11T14:30:00Z,77
2005-03-18T14:30:00Z,88
2005-03-25T14:30:00Z,145
2005-04-01T14:30:00Z,200
2005-04-08T14:30:00Z,51
2005-04-15T14:30:00Z,111
2005-04-22T14:30:00Z,49
2005-04-29T14:30:00Z,75
2005-05-06T14:30:00Z,170
2005-05-13T14:30:00Z,100
2005-05-20T14:30:00Z,116
2005-05-27T14:30:00Z,39
2005-06-03T14:30:00Z,48
2005-06-10T14:30:00Z,75
2005-06-17T14:30:00Z,86
2005-06-24T14:30:00Z,107
2005-07-01T14:30:00Z,56
2005-07-08T14:30:00Z,22
2005-07-15T14:30:00Z,165
2005-07-22T14:30:00Z,81
2005-07-29T14:30:00Z,68
2005-08-05T14:30:00Z,80
2005-08-12T14:30:00Z,39
2005-08-19T14:30:00Z,31
2005-08-26T14:30:00Z,165
2005-09-02T14:30:00Z,105
2005-09-09T14:30:00Z,143
2005-09-16T14:30:00Z,185
2005-09-23T14:30:00Z,191
2005-09-30T14:30:00Z,159
2005-10-07T14:30:00Z,179
2005-10-14T14:30:00Z,221
2005-10-21T14:30:00Z,319
2005-10-28T14:30:00Z,301
2005-11-04T14:30:00Z,444
2005-11-11T14:30:00Z,249
2005-11-18T14:30:00Z,139
2005-11-25T14:30:00Z,183
2005-12-02T14:30:00Z,183
2005-12-09T14:30:00Z,400
2005-12-16T14:30:00Z,138
2005-12-23T14:30:00Z,258
2005-12-30T14:30:00Z,167
2006-01-06T14:30:00Z,122
2006-01-13T14:30:00Z,154
2006-01-20T14:30:00Z,182
2006-01-27T14:30:00Z,42
2006-02-03T14:30:00Z,174
2006-02-10T14:30:00Z,66
2006-02-17T14:30:00Z,143
2006-02-24T14:30:00Z,87
2006-03-03T14:30:00Z,104
2006-03-10T14:30:00Z,106
2006-03-17T14:30:00Z,102
2006-03-24T14:30:00Z,161
2006-03-31T14:30:00Z,123
2006-04-07T14:30:00Z,70
2006-04-14T14:30:00Z,254
2006-04-21T14:30:00Z,190
2006-04-28T14:30:00Z,262
2006-05-05T14:30:00Z,209
2006-05-12T14:30:00Z,112
2006-05-19T14:30:00Z,256
2006-05-26T14:30:00Z,345
2006-06-02T14:30:00Z,221
2006-06-09T14:30:00Z,100
2006-06-16T14:30:00Z,183
2006-06-23T14:30:00Z,188
2006-06-30T14:30:00Z,263
2006-07-07T14:30:00Z,225
2006-07-14T14:30:00Z,172
2006-07-21T14:30:00Z,167
2006-07-28T14:30:00Z,224
2006-08-04T14:30:00Z,205
2006-08-11T14:30:00Z,300
2006-08-18T14:30:00Z,399
2006-08-25T14:30:00Z,266
2006-09-01T14:30:00Z,119
2006-09-08T14:30:00Z,124
2006-09-15T14:30:00Z,292
2006-09-22T14:30:00Z,158
2006-09-29T14:30:00Z,200
2006-10-06T14:30:00Z,215
2006-10-13T14:30:00Z,399
2006-10-20T14:30:00Z,182
2006-10-27T14:30:00Z,201
2006-11-03T14:30:00Z,186
2006-11-10T14:30:00Z,78
2006-11-17T14:30:00Z,127
2006-11-24T14:30:00Z,96
2006-12-01T14:30:00Z,141
2006-12-08T14:30:00Z,247
2006-12-15T14:30:00Z,107
2006-12-22T14:30:00Z,163
2006-12-29T14:30:00Z,249
2007-01-05T14:30:00Z,270
2007-01-12T14:30:00Z,137
2007-01-19T14:30:00Z,196
2007-01-26T14:30:00Z,261
2007-02-02T14:30:00Z,203
2007-02-09T14:30:00Z,232
2007-02-16T14:30:00Z,221
2007-02-23T14:30:00Z,286
2007-03-02T14:30:00Z,188
2007-03-09T14:30:00Z,372
2007-03-16T14:30:00Z,238
2007-03-23T14:30:00Z,263
2007-03-30T14:30:00Z,165
2007-04-06T14:30:00Z,294
2007-04-13T14:30:00Z,336
2007-04-20T14:30:00Z,297
2007-04-27T14:30:00Z,233
2007-05-04T14:30:00Z,324
2007-05-11T14:30:00Z,264
2007-05-18T14:30:00Z,162
2007-05-25T14:30:00Z,294
2007-06-01T14:30:00Z,237
2007-06-08T14:30:00Z,312
2007-06-15T14:30:00Z,191
2007-06-22T14:30:00Z,230
2007-06-29T14:30:00Z,293
2007-07-06T14:30:00Z,305
2007-07-13T14:30:00Z,194
2007-07-20T14:30:00Z,189
2007-07-27T14:30:00Z,265
2007-08-03T14:30:00Z,247
2007-08-10T14:30:00Z,231
2007-08-17T14:30:00Z,283
2007-08-24T14:30:00Z,203
2007-08-31T14:30:00Z,224
2007-09-07T14:30:00Z,194
2007-09-14T14:30:00Z,200
2007-09-21T14:30:00Z,268
2007-09-28T14:30:00Z,112
2007-10-05T14:30:00Z,246
2007-10-12T14:30:00Z,191
2007-10-19T14:30:00Z,235
2007-10-26T14:30:00Z,174
2007-11-02T14:30:00Z,191
2007-11-09T14:30:00Z,152
2007-11-16T14:30:00Z,196
2007-11-23T14:30:00Z,220
2007-11-30T14:30:00Z,240
2007-12-07T14:30:00Z,146
2007-12-14T14:30:00Z,190
2007-12-21T14:30:00Z,153
2007-12-28T14:30:00Z,135
2008-01-04T14:30:00Z,166
2008-01-11T14:30:00Z,85
2008-01-18T14:30:00Z,56
2008-01-25T14:30:00Z,182
2008-02-01T14:30:00Z,209
2008-02-08T14:30:00Z,157
2008-02-15T14:30:00Z,71
2008-02-22T14:30:00Z,132
2008-02-29T14:30:00Z,87
2008-03-07T14:30:00Z,258
2008-03-14T14:30:00Z,298
2008-03-21T14:30:00Z,41
2008-03-28T14:30:00Z,111
2008-04-04T14:30:00Z,203
2008-04-11T14:30:00Z,318
2008-04-18T14:30:00Z,178
2008-04-25T14:30:00Z,114
2008-05-02T14:30:00Z,131
2008-05-09T14:30:00Z,300
2008-05-16T14:30:00Z,161
2008-05-23T14:30:00Z,116
2008-05-30T14:30:00Z,162
2008-06-06T14:30:00Z,109
2008-06-13T14:30:00Z,86
2008-06-20T14:30:00Z,114
2008-06-27T14:30:00Z,66
2008-07-04T14:30:00Z,34
2008-07-11T14:30:00Z,98
2008-07-18T14:30:00Z,63
2008-07-25T14:30:00Z,119
2008-08-01T14:30:00Z,59
2008-08-08T14:30:00Z,74
2008-08-15T14:30:00Z,95
2008-08-22T14:30:00Z,67
2008-08-29T14:30:00Z,50
2008-09-05T14:30:00Z,26
2008-09-12T14:30:00Z,79
2008-09-19T14:30:00Z,68
2008-09-26T14:30:00Z,145
2008-10-03T14:30:00Z,151
2008-10-10T14:30:00Z,73
2008-10-17T14:30:00Z,85
2008-10-24T14:30:00Z,38
2008-10-31T14:30:00Z,136
2008-11-07T14:30:00Z,36
2008-11-14T14:30:00Z,88
2008-11-21T14:30:00Z,77
2008-11-28T14:30:00Z,45
2008-12-05T14:30:00Z,26
2008-12-12T14:30:00Z,45
2008-12-19T14:30:00Z,111
2008-12-26T14:30:00Z,54
2009-01-02T14:30:00Z,56
2009-01-09T14:30:00Z,10
2009-01-16T14:30:00Z,69
2009-01-23T14:30:00Z,101
2009-01-30T14:30:00Z,16
2009-02-06T14:30:00Z,111
2009-02-13T14:30:00Z,23
2009-02-20T14:30:00Z,60
2009-02-27T14:30:00Z,59
2009-03-06T14:30:00Z,47
2009-03-13T14:30:00Z,155
2009-03-20T14:30:00Z,56
2009-03-27T14:30:00Z,150
2009-04-03T14:30:00Z,29
2009-04-10T14:30:00Z,76
2009-04-17T14:30:00Z,115
2009-04-24T14:30:00Z,56
2009-05-01T14:30:00Z,123
2009-05-08T14:30:00Z,58
2009-05-15T14:30:00Z,170
2009-05-22T14:30:00Z,73
2009-05-29T14:30:00Z,102
2009-06-05T14:30:00Z,67
2009-06-12T14:30:00Z,51
2009-06-19T14:30:00Z,98
2009-06-26T14:30:00Z,61
2009-07-03T14:30:00Z,99
2009-07-10T14:30:00Z,76
2009-07-17T14:30:00Z,93
2009-07-24T14:30:00Z,68
2009-07-31T14:30:00Z,161
2009-08-07T14:30:00Z,76
2009-08-14T14:30:00Z,67
2009-08-21T14:30:00Z,98
2009-08-28T14:30:00Z,112
2009-09-04T14:30:00Z,93
2009-09-11T14:30:00Z,85
2009-09-18T14:30:00Z,123
2009-09-25T14:30:00Z,115
2009-10-02T14:30:00Z,93
2009-10-09T14:30:00Z,89
2009-10-16T14:30:00Z,74
2009-10-23T14:30:00Z,107
2009-10-30T14:30:00Z,86
2009-11-06T14:30:00Z,35
2009-11-13T14:30:00Z,82
2009-11-20T14:30:00Z,102
2009-11-27T14:30:00Z,63
2009-12-04T14:30:00Z,96
2009-12-11T14:30:00Z,57
2009-12-18T14:30:00Z,77
2009-12-25T14:30:00Z,65
2010-01-01T14:30:00Z,102
2010-01-08T14:30:00Z,87
2010-01-15T14:30:00Z,108
2010-01-22T14:30:00Z,140
2010-01-29T14:30:00Z,116
2010-02-05T14:30:00Z,109
2010-02-12T14:30:00Z,64
2010-02-19T14:30:00Z,102
2010-02-26T14:30:00Z,61
2010-03-05T14:30:00Z,99
2010-03-12T14:30:00Z,20
2010-03-19T14:30:00Z,77
2010-03-26T14:30:00Z,92
2010-04-02T14:30:00Z,55
2010-04-09T14:30:00Z,86
2010-04-16T14:30:00Z,99
2010-04-23T14:30:00Z,91
2010-04-30T14:30:00Z,128
2010-05-07T14:30:00Z,67
2010-05-14T14:30:00Z,36
2010-05-21T14:30:00Z,67
2010-05-28T14:30:00Z,86
2010-06-04T14:30:00Z,64
2010-06-11T14:30:00Z,62
2010-06-18T14:30:00Z,51
2010-06-25T14:30:00Z,54
2010-07-02T14:30:00Z,118
2010-07-09T14:30:00Z,59
2010-07-16T14:30:00Z,78
2010-07-23T14:30:00Z,86
2010-07-30T14:30:00Z,65
2010-08-06T14:30:00Z,70
2010-08-13T14:30:00Z,77
2010-08-20T14:30:00Z,93
2010-08-27T14:30:00Z,69
2010-09-03T14:30:00Z,94
2010-09-10T14:30:00Z,136
2010-09-17T14:30:00Z,98
2010-09-24T14:30:00Z,120
2010-10-01T14:30:00Z,28
2010-10-08T14:30:00Z,64
2010-10-15T14:30:00Z,80
2010-10-22T14:30:00Z,37
2010-10-29T14:30:00Z,74
2010-11-05T14:30:00Z,53
2010-11-12T14:30:00Z,31
2010-11-19T14:30:00Z,113
2010-11-26T14:30:00Z,35
2010-12-03T14:30:00Z,130
2010-12-10T14:30:00Z,29
2010-12-17T14:30:00Z,60
2010-12-24T14:30:00Z,41
2010-12-31T14:30:00Z,81
2011-01-07T14:30:00Z,79
2011-01-14T14:30:00Z,63
2011-01-21T14:30:00Z,16
2011-01-28T14:30:00Z,127
2011-02-04T14:30:00Z,61
2011-02-11T14:30:00Z,61
2011-02-18T14:30:00Z,24
2011-02-25T14:30:00Z,51
2011-03-04T14:30:00Z,16
2011-03-11T14:30:00Z,14
2011-03-18T14:30:00Z,27
2011-03-25T14:30:00Z,101
2011-04-01T14:30:00Z,64
2011-04-08T14:30:00Z,68
2011-04-15T14:30:00Z,79
2011-04-22T14:30:00Z,128
2011-04-29T14:30:00Z,54
2011-05-06T14:30:00Z,72
2011-05-13T14:30:00Z,102
2011-05-20T14:30:00Z,73
2011-05-27T14:30:00Z,63
2011-06-03T14:30:00Z,98
2011-06-10T14:30:00Z,86
2011-06-17T14:30:00Z,72
2011-06-24T14:30:00Z,53
2011-07-01T14:30:00Z,53
2011-07-08T14:30:00Z,73
2011-07-15T14:30:00Z,114
2011-07-22T14:30:00Z,80
2011-07-29T14:30:00Z,108
2011-08-05T14:30:00Z,75
2011-08-12T14:30:00Z,18
2011-08-19T14:30:00Z,18
2011-08-26T14:30:00Z,39
2011-09-02T14:30:00Z,15
2011-09-09T14:30:00Z,4
2011-09-16T14:30:00Z,14
2011-09-23T14:30:00Z,55
2011-09-30T14:30:00Z,7
2011-10-07T14:30:00Z,86
2011-10-14T14:30:00Z,48
2011-10-21T14:30:00Z,45
2011-10-28T14:30:00Z,32
2011-11-04T14:30:00Z,116
2011-11-11T14:30:00Z,58
2011-11-18T14:30:00Z,49
2011-11-25T14:30:00Z,79
2011-12-02T14:30:00Z,29
2011-12-09T14:30:00Z,10
2011-12-16T14:30:00Z,9
2011-12-23T14:30:00Z,39
2011-12-30T14:30:00Z,36
2012-01-06T14:30:00Z,7
2012-01-13T14:30:00Z,1
2012-01-20T14:30:00Z,4
2012-01-27T14:30:00Z,7
2012-02-03T14:30:00Z,5
2012-02-10T14:30:00Z,87
2012-02-17T14:30:00Z,28
2012-02-24T14:30:00Z,52
2012-03-02T14:30:00Z,34
2012-03-09T14:30:00Z,4
2012-03-16T14:30:00Z,3
2012-03-23T14:30:00Z,7
2012-03-30T14:30:00Z,55
2012-04-06T14:30:00Z,11
2012-04-13T14:30:00Z,98
2012-04-20T14:30:00Z,11
2012-04-27T14:30:00Z,10
2012-05-04T14:30:00Z,5
2012-05-11T14:30:00Z,36
2012-05-18T14:30:00Z,93
2012-05-25T14:30:00Z,56
2012-06-01T14:30:00Z,3
2012-06-08T14:30:00Z,57
2012-06-15T14:30:00Z,4
2012-06-22T14:30:00Z,4
2012-06-29T14:30:00Z,0
2012-07-06T14:30:00Z,3
2012-07-13T14:30:00Z,2
2012-07-20T14:30:00Z,52
2012-07-27T14:30:00Z,59
2012-08-03T14:30:00Z,33
2012-08-10T14:30:00Z,57
2012-08-17T14:30:00Z,33
2012-08-24T14:30:00Z,105
2012-08-31T14:30:00Z,95
2012-09-07T14:30:00Z,73
2012-09-14T14:30:00Z,142
2012-09-21T14:30:00Z,35
2012-09-28T14:30:00Z,113
2012-10-05T14:30:00Z,16
2012-10-12T14:30:00Z,111
2012-10-19T14:30:00Z,153
2012-10-26T14:30:00Z,136
2012-11-02T14:30:00Z,16
2012-11-09T14:30:00Z,51
2012-11-16T14:30:00Z,5
2012-11-23T14:30:00Z,25
2012-11-30T14:30:00Z,26
2012-12-07T14:30:00Z,53
2012-12-14T14:30:00Z,25
2012-12-21T14:30:00Z,0
2012-12-28T14:30:00Z,0
2013-01-04T14:30:00Z,63
2013-01-11T14:30:00Z,0
2013-01-18T14:30:00Z,2
2013-01-25T14:30:00Z,96
2013-02-01T14:30:00Z,54
2013-02-08T14:30:00Z,47
2013-02-15T14:30:00Z,45
2013-02-22T14:30:00Z,77
2013-03-01T14:30:00Z,23
2013-03-08T14:30:00Z,34
2013-03-15T14:30:00Z,44
2013-03-22T14:30:00Z,4
2013-03-29T14:30:00Z,0
2013-04-05T14:30:00Z,0
2013-04-12T14:30:00Z,83
2013-04-19T14:30:00Z,37
2013-04-26T14:30:00Z,0
2013-05-03T14:30:00Z,21
2013-05-10T14:30:00Z,35
2013-05-17T14:30:00Z,35
2013-05-24T14:30:00Z,46
2013-05-31T14:30:00Z,136
2013-06-07T14:30:00Z,76
2013-06-14T14:30:00Z,70
2013-06-21T14:30:00Z,108
2013-06-28T14:30:00Z,73
2013-07-05T14:30:00Z,47
2013-07-12T14:30:00Z,99
2013-07-19T14:30:00Z,46
2013-07-26T14:30:00Z,6
2013-08-02T14:30:00Z,63
2013-08-09T14:30:00Z,193
2013-08-16T14:30:00Z,55
2013-08-23T14:30:00Z,117
2013-08-30T14:30:00Z,148
2013-09-06T14:30:00Z,85
2013-09-13T14:30:00Z,67
2013-09-20T14:30:00Z,96
2013-09-27T14:30:00Z,73
2013-10-04T14:30:00Z,45
2013-10-11T14:30:00Z,50
2013-10-18T14:30:00Z,52
2013-10-25T14:30:00Z,80
2013-11-01T14:30:00Z,53
2013-11-08T14:30:00Z,55
2013-11-15T14:30:00Z,77
2013-11-22T14:30:00Z,123
2013-11-29T14:30:00Z,18
2013-12-06T14:30:00Z,25
2013-12-13T14:30:00Z,63
2013-12-20T14:30:00Z,46
2013-12-27T14:30:00Z,31
2014-01-03T14:30:00Z,61
2014-01-10T14:30:00Z,48
2014-01-17T14:30:00Z,59
2014-01-24T14:30:00Z,77
2014-01-31T14:30:00Z,16
2014-02-07T14:30:00Z,98
2014-02-14T14:30:00Z,94
2014-02-21T14:30:00Z,58
2014-02-28T14:30:00Z,10
2014-03-07T14:30:00Z,84
2014-03-14T14:30:00Z,8
2014-03-21T14:30:00Z,96
2014-03-28T14:30:00Z,107
2014-04-04T14:30:00Z,129
2014-04-11T14:30:00Z,218
2014-04-18T14:30:00Z,130
2014-04-25T14:30:00Z,15
2014-05-02T14:30:00Z,124
2014-05-09T14:30:00Z,73
2014-05-16T14:30:00Z,78
2014-05-23T14:30:00Z,137
2014-05-30T14:30:00Z,34
2014-06-06T14:30:00Z,92
2014-06-13T14:30:00Z,28
2014-06-20T14:30:00Z,196
2014-06-27T14:30:00Z,154
2014-07-04T14:30:00Z,103
2014-07-11T14:30:00Z,71
2014-07-18T14:30:00Z,122
2014-07-25T14:30:00Z,26
2014-08-01T14:30:00Z,6
2014-08-08T14:30:00Z,79
2014-08-15T14:30:00Z,29
2014-08-22T14:30:00Z,34
2014-08-29T14:30:00Z,44
2014-09-05T14:30:00Z,106
2014-09-12T14:30:00Z,293
2014-09-19T14:30:00Z,103
2014-09-26T14:30:00Z,19
2014-10-03T14:30:00Z,57
2014-10-10T14:30:00Z,92
2014-10-17T14:30:00Z,102
2014-10-24T14:30:00Z,31
2014-10-31T14:30:00Z,100
2014-11-07T14:30:00Z,45
2014-11-14T14:30:00Z,122
2014-11-21T14:30:00Z,74
2014-11-28T14:30:00Z,47
2014-12-05T14:30:00Z,73
2014-12-12T14:30:00Z,47
2014-12-19T14:30:00Z,143
2014-12-26T14:30:00Z,129
2015-01-02T14:30:00Z,150
2015-01-09T14:30:00Z,118
2015-01-16T14:30:00Z,154
2015-01-23T14:30:00Z,82
2015-01-30T14:30:00Z,124
2015-02-06T14:30:00Z,117
2015-02-13T14:30:00Z,178
2015-02-20T14:30:00Z,77
2015-02-27T14:30:00Z,138
2015-03-06T14:30:00Z,46
2015-03-13T14:30:00Z,211
2015-03-20T14:30:00Z,118
2015-03-27T14:30:00Z,69
2015-04-03T14:30:00Z,174
2015-04-10T14:30:00Z,198
2015-04-17T14:30:00Z,77
2015-04-24T14:30:00Z,197
2015-05-01T14:30:00Z,80
2015-05-08T14:30:00Z,170
2015-05-15T14:30:00Z,229
2015-05-22T14:30:00Z,156
2015-05-29T14:30:00Z,178
2015-06-05T14:30:00Z,172
2015-06-12T14:30:00Z,142
2015-06-19T14:30:00Z,109
2015-06-26T14:30:00Z,284
2015-07-03T14:30:00Z,137
2015-07-10T14:30:00Z,167
2015-07-17T14:30:00Z,221
2015-07-24T14:30:00Z,138
2015-07-31T14:30:00Z,155
2015-08-07T14:30:00Z,27
2015-08-14T14:30:00Z,144
2015-08-21T14:30:00Z,135
2015-08-28T14:30:00Z,179
2015-09-04T14:30:00Z,176
2015-09-11T14:30:00Z,45
2015-09-18T14:30:00Z,51
2015-09-25T14:30:00Z,27
2015-10-02T14:30:00Z,45
2015-10-09T14:30:00Z,123
2015-10-16T14:30:00Z,27
2015-10-23T14:30:00Z,181
2015-10-30T14:30:00Z,15
2015-11-06T14:30:00Z,109
2015-11-13T14:30:00Z,56
2015-11-20T14:30:00Z,151
2015-11-27T14:30:00Z,48
2015-12-04T14:30:00Z,107
2015-12-11T14:30:00Z,198
2015-12-18T14:30:00Z,65
2015-12-25T14:30:00Z,34
2016-01-01T14:30:00Z,76
2016-01-08T14:30:00Z,63
2016-01-15T14:30:00Z,266
2016-01-22T14:30:00Z,392
2016-01-29T14:30:00Z,31
2016-02-05T14:30:00Z,110
2016-02-12T14:30:00Z,98
2016-02-19T14:30:00Z,115
2016-02-26T14:30:00Z,241
2016-03-04T14:30:00Z,183
2016-03-11T14:30:00Z,191
2016-03-18T14:30:00Z,162
2016-03-25T14:30:00Z,83
2016-04-01T14:30:00Z,91
2016-04-08T14:30:00Z,284
2016-04-15T14:30:00Z,31
2016-04-22T14:30:00Z,103
2016-04-29T14:30:00Z,92
2016-05-06T14:30:00Z,150
2016-05-13T14:30:00Z,275
2016-05-20T14:30:00Z,130
2016-05-27T14:30:00Z,203
2016-06-03T14:30:00Z,135
2016-06-10T14:30:00Z,162
2016-06-17T14:30:00Z,80
2016-06-24T14:30:00Z,197
2016-07-01T14:30:00Z,25
2016-07-08T14:30:00Z,95
2016-07-15T14:30:00Z,326
2016-07-22T14:30:00Z,192
2016-07-29T14:30:00Z,98
2016-08-05T14:30:00Z,78
2016-08-12T14:30:00Z,182
2016-08-19T14:30:00Z,44
2016-08-26T14:30:00Z,218
2016-09-02T14:30:00Z,64
2016-09-09T14:30:00Z,178
2016-09-16T14:30:00Z,148
2016-09-23T14:30:00Z,87
2016-09-30T14:30:00Z,200
2016-10-07T14:30:00Z,52
2016-10-14T14:30:00Z,228
2016-10-21T14:30:00Z,90
2016-10-28T14:30:00Z,93
2016-11-04T14:30:00Z,222
2016-11-11T14:30:00Z,100
2016-11-18T14:30:00Z,143
2016-11-25T14:30:00Z,155
2016-12-02T14:30:00Z,314
2016-12-09T14:30:00Z,179
2016-12-16T14:30:00Z,186
2016-12-23T14:30:00Z,26
2016-12-30T14:30:00Z,119
2017-01-06T14:30:00Z,162
2017-01-13T14:30:00Z,230
2017-01-20T14:30:00Z,167
2017-01-27T14:30:00Z,19
2017-02-03T14:30:00Z,207
2017-02-10T14:30:00Z,86
2017-02-17T14:30:00Z,138
2017-02-24T14:30:00Z,156
2017-03-03T14:30:00Z,139
2017-03-10T14:30:00Z,126
2017-03-17T14:30:00Z,104
2017-03-24T14:30:00Z,176
2017-03-31T14:30:00Z,138
2017-04-07T14:30:00Z,80
2017-04-14T14:30:00Z,258
2017-04-21T14:30:00Z,94
2017-04-28T14:30:00Z,173
2017-05-05T14:30:00Z,225
2017-05-12T14:30:00Z,158
2017-05-19T14:30:00Z,169
2017-05-26T14:30:00Z,137
2017-06-02T14:30:00Z,54
2017-06-09T14:30:00Z,120
2017-06-16T14:30:00Z,99
2017-06-23T14:30:00Z,108
2017-06-30T14:30:00Z,125
2017-07-07T14:30:00Z,193
2017-07-14T14:30:00Z,130
2017-07-21T14:30:00Z,253
2017-07-28T14:30:00Z,154
2017-08-04T14:30:00Z,109
2017-08-11T14:30:00Z,94
2017-08-18T14:30:00Z,190
2017-08-25T14:30:00Z,259
2017-09-01T14:30:00Z,46
2017-09-08T14:30:00Z,115
2017-09-15T14:30:00Z,173
2017-09-22T14:30:00Z,292
2017-09-29T14:30:00Z,277
2017-10-06T14:30:00Z,89
2017-10-13T14:30:00Z,72
2017-10-20T14:30:00Z,326
2017-10-27T14:30:00Z,248
2017-11-03T14:30:00Z,213
2017-11-10T14:30:00Z,309
2017-11-17T14:30:00Z,162
2017-11-24T14:30:00Z,82
2017-12-01T14:30:00Z,157
2017-12-08T14:30:00Z,69
2017-12-15T14:30:00Z,315
2017-12-22T14:30:00Z,132
2017-12-29T14:30:00Z,289
2018-01-05T14:30:00Z,134
2018-01-12T14:30:00Z,77
2018-01-19T14:30:00Z,97
2018-01-26T14:30:00Z,197
2018-02-02T14:30:00Z,127
2018-02-09T14:30:00Z,102
2018-02-16T14:30:00Z,77
2018-02-23T14:30:00Z,59
2018-03-02T14:30:00Z,274
2018-03-09T14:30:00Z,99
2018-03-16T14:30:00Z,51
2018-03-23T14:30:00Z,147
2018-03-30T14:30:00Z,138
2018-04-06T14:30:00Z,32
2018-04-13T14:30:00Z,154
2018-04-20T14:30:00Z,60
2018-04-27T14:30:00Z,205
2018-05-04T14:30:00Z,74
2018-05-11T14:30:00Z,137
2018-05-18T14:30:00Z,150
2018-05-25T14:30:00Z,115
2018-06-01T14:30:00Z,150
2018-06-08T14:30:00Z,159
2018-06-15T14:30:00Z,230
2018-06-22T14:30:00Z,51
2018-06-29T14:30:00Z,126
2018-07-06T14:30:00Z,119
2018-07-13T14:30:00Z,171
2018-07-20T14:30:00Z,130
2018-07-27T14:30:00Z,123
2018-08-03T14:30:00Z,109
2018-08-10T14:30:00Z,158
2018-08-17T14:30:00Z,188
2018-08-24T14:30:00Z,197
2018-08-31T14:30:00Z,129
2018-09-07T14:30:00Z,194
2018-09-14T14:30:00Z,275
2018-09-21T14:30:00Z,199
2018-09-28T14:30:00Z,165
2018-10-05T14:30:00Z,166
2018-10-12T14:30:00Z,83
2018-10-19T14:30:00Z,89
