Timestamp,Imports in thousands
2004-04-09T14:30:00Z,65
2004-04-16T14:30:00Z,123
2004-04-23T14:30:00Z,38
2004-04-30T14:30:00Z,114
2004-05-07T14:30:00Z,62
2004-05-14T14:30:00Z,75
2004-05-21T14:30:00Z,43
2004-05-28T14:30:00Z,74
2004-06-04T14:30:00Z,52
2004-06-11T14:30:00Z,45
2004-06-18T14:30:00Z,74
2004-06-25T14:30:00Z,103
2004-07-02T14:30:00Z,108
2004-07-09T14:30:00Z,80
2004-07-16T14:30:00Z,134
2004-07-23T14:30:00Z,38
2004-07-30T14:30:00Z,111
2004-08-06T14:30:00Z,161
2004-08-13T14:30:00Z,60
2004-08-20T14:30:00Z,72
2004-08-27T14:30:00Z,116
2004-09-03T14:30:00Z,82
2004-09-10T14:30:00Z,76
2004-09-17T14:30:00Z,42
2004-09-24T14:30:00Z,74
2004-10-01T14:30:00Z,109
2004-10-08T14:30:00Z,66
2004-10-15T14:30:00Z,31
2004-10-22T14:30:00Z,90
2004-10-29T14:30:00Z,109
2004-11-05T14:30:00Z,42
2004-11-12T14:30:00Z,35
2004-11-19T14:30:00Z,112
2004-11-26T14:30:00Z,155
2004-12-03T14:30:00Z,52
2004-12-10T14:30:00Z,122
2004-12-17T14:30:00Z,126
2004-12-24T14:30:00Z,74
2004-12-31T14:30:00Z,182
2005-01-07T14:30:00Z,67
2005-01-14T14:30:00Z,134
2005-01-21T14:30:00Z,319
2005-01-28T14:30:00Z,127
2005-02-04T14:30:00Z,57
2005-02-11T14:30:00Z,40
2005-02-18T14:30:00Z,151
2005-02-25T14:30:00Z,82
2005-03-04T14:30:00Z,71
2005-03-11T14:30:00Z,38
2005-03-18T14:30:00Z,144
2005-03-25T14:30:00Z,65
2005-04-01T14:30:00Z,98
2005-04-08T14:30:00Z,145
2005-04-15T14:30:00Z,194
2005-04-22T14:30:00Z,87
2005-04-29T14:30:00Z,201
2005-05-06T14:30:00Z,125
2005-05-13T14:30:00Z,106
2005-05-20T14:30:00Z,40
2005-05-27T14:30:00Z,109
2005-06-03T14:30:00Z,86
2005-06-10T14:30:00Z,151
2005-06-17T14:30:00Z,98
2005-06-24T14:30:00Z,60
2005-07-01T14:30:00Z,75
2005-07-08T14:30:00Z,166
2005-07-15T14:30:00Z,78
2005-07-22T14:30:00Z,113
2005-07-29T14:30:00Z,119
2005-08-05T14:30:00Z,61
2005-08-12T14:30:00Z,61
2005-08-19T14:30:00Z,72
2005-08-26T14:30:00Z,87
2005-09-02T14:30:00Z,82
2005-09-09T14:30:00Z,60
2005-09-16T14:30:00Z,55
2005-09-23T14:30:00Z,89
2005-09-30T14:30:00Z,121
2005-10-07T14:30:00Z,82
2005-10-14T14:30:00Z,58
2005-10-21T14:30:00Z,139
2005-10-28T14:30:00Z,127
2005-11-04T14:30:00Z,192
2005-11-11T14:30:00Z,131
2005-11-18T14:30:00Z,190
2005-11-25T14:30:00Z,113
2005-12-02T14:30:00Z,177
2005-12-09T14:30:00Z,137
2005-12-16T14:30:00Z,154
2005-12-23T14:30:00Z,114
2005-12-30T14:30:00Z,120
2006-01-06T14:30:00Z,316
2006-01-13T14:30:00Z,151
2006-01-20T14:30:00Z,479
2006-01-27T14:30:00Z,168
2006-02-03T14:30:00Z,223
2006-02-10T14:30:00Z,458
2006-02-17T14:30:00Z,194
2006-02-24T14:30:00Z,131
2006-03-03T14:30:00Z,113
2006-03-10T14:30:00Z,136
2006-03-17T14:30:00Z,51
2006-03-24T14:30:00Z,47
2006-03-31T14:30:00Z,41
2006-04-07T14:30:00Z,65
2006-04-14T14:30:00Z,26
2006-04-21T14:30:00Z,101
2006-04-28T14:30:00Z,107
2006-05-05T14:30:00Z,120
2006-05-12T14:30:00Z,145
2006-05-19T14:30:00Z,155
2006-05-26T14:30:00Z,127
2006-06-02T14:30:00Z,75
2006-06-09T14:30:00Z,116
2006-06-16T14:30:00Z,74
2006-06-23T14:30:00Z,75
2006-06-30T14:30:00Z,28
2006-07-07T14:30:00Z,64
2006-07-14T14:30:00Z,57
2006-07-21T14:30:00Z,101
2006-07-28T14:30:00Z,180
2006-08-04T14:30:00Z,101
2006-08-11T14:30:00Z,91
2006-08-18T14:30:00Z,130
2006-08-25T14:30:00Z,90
2006-09-01T14:30:00Z,69
2006-09-08T14:30:00Z,36
2006-09-15T14:30:00Z,98
2006-09-22T14:30:00Z,100
2006-09-29T14:30:00Z,95
2006-10-06T14:30:00Z,90
2006-10-13T14:30:00Z,133
2006-10-20T14:30:00Z,83
2006-10-27T14:30:00Z,48
2006-11-03T14:30:00Z,94
2006-11-10T14:30:00Z,118
2006-11-17T14:30:00Z,22
2006-11-24T14:30:00Z,139
2006-12-01T14:30:00Z,96
2006-12-08T14:30:00Z,212
2006-12-15T14:30:00Z,211
2006-12-22T14:30:00Z,90
2006-12-29T14:30:00Z,177
2007-01-05T14:30:00Z,105
2007-01-12T14:30:00Z,86
2007-01-19T14:30:00Z,158
2007-01-26T14:30:00Z,122
2007-02-02T14:30:00Z,83
2007-02-09T14:30:00Z,143
2007-02-16T14:30:00Z,88
2007-02-23T14:30:00Z,83
2007-03-02T14:30:00Z,86
2007-03-09T14:30:00Z,35
2007-03-16T14:30:00Z,67
2007-03-23T14:30:00Z,77
2007-03-30T14:30:00Z,122
2007-04-06T14:30:00Z,62
2007-04-13T14:30:00Z,66
2007-04-20T14:30:00Z,41
2007-04-27T14:30:00Z,12
2007-05-04T14:30:00Z,56
2007-05-11T14:30:00Z,43
2007-05-18T14:30:00Z,35
2007-05-25T14:30:00Z,13
2007-06-01T14:30:00Z,4
2007-06-08T14:30:00Z,50
2007-06-15T14:30:00Z,61
2007-06-22T14:30:00Z,50
2007-06-29T14:30:00Z,50
2007-07-06T14:30:00Z,32
2007-07-13T14:30:00Z,74
2007-07-20T14:30:00Z,49
2007-07-27T14:30:00Z,79
2007-08-03T14:30:00Z,76
2007-08-10T14:30:00Z,49
2007-08-17T14:30:00Z,162
2007-08-24T14:30:00Z,51
2007-08-31T14:30:00Z,127
2007-09-07T14:30:00Z,149
2007-09-14T14:30:00Z,169
2007-09-21T14:30:00Z,78
2007-09-28T14:30:00Z,47
2007-10-05T14:30:00Z,174
2007-10-12T14:30:00Z,101
2007-10-19T14:30:00Z,49
2007-10-26T14:30:00Z,43
2007-11-02T14:30:00Z,65
2007-11-09T14:30:00Z,47
2007-11-16T14:30:00Z,32
2007-11-23T14:30:00Z,51
2007-11-30T14:30:00Z,90
2007-12-07T14:30:00Z,60
2007-12-14T14:30:00Z,91
2007-12-21T14:30:00Z,65
2007-12-28T14:30:00Z,178
2008-01-04T14:30:00Z,46
2008-01-11T14:30:00Z,160
2008-01-18T14:30:00Z,63
2008-01-25T14:30:00Z,151
2008-02-01T14:30:00Z,188
2008-02-08T14:30:00Z,96
2008-02-15T14:30:00Z,145
2008-02-22T14:30:00Z,77
2008-02-29T14:30:00Z,97
2008-03-07T14:30:00Z,7
2008-03-14T14:30:00Z,30
2008-03-21T14:30:00Z,114
2008-03-28T14:30:00Z,192
2008-04-04T14:30:00Z,12
2008-04-11T14:30:00Z,135
2008-04-18T14:30:00Z,139
2008-04-25T14:30:00Z,56
2008-05-02T14:30:00Z,70
2008-05-09T14:30:00Z,79
2008-05-16T14:30:00Z,58
2008-05-23T14:30:00Z,66
2008-05-30T14:30:00Z,44
2008-06-06T14:30:00Z,31
2008-06-13T14:30:00Z,124
2008-06-20T14:30:00Z,35
2008-06-27T14:30:00Z,19
2008-07-04T14:30:00Z,66
2008-07-11T14:30:00Z,31
2008-07-18T14:30:00Z,27
2008-07-25T14:30:00Z,17
2008-08-01T14:30:00Z,105
2008-08-08T14:30:00Z,36
2008-08-15T14:30:00Z,0
2008-08-22T14:30:00Z,13
2008-08-29T14:30:00Z,10
2008-09-05T14:30:00Z,31
2008-09-12T14:30:00Z,25
2008-09-19T14:30:00Z,48
2008-09-26T14:30:00Z,25
2008-10-03T14:30:00Z,38
2008-10-10T14:30:00Z,32
2008-10-17T14:30:00Z,46
2008-10-24T14:30:00Z,21
2008-10-31T14:30:00Z,9
2008-11-07T14:30:00Z,14
2008-11-14T14:30:00Z,11
2008-11-21T14:30:00Z,67
2008-11-28T14:30:00Z,0
2008-12-05T14:30:00Z,0
2008-12-12T14:30:00Z,28
2008-12-19T14:30:00Z,88
2008-12-26T14:30:00Z,66
2009-01-02T14:30:00Z,94
2009-01-09T14:30:00Z,40
2009-01-16T14:30:00Z,209
2009-01-23T14:30:00Z,73
2009-01-30T14:30:00Z,43
2009-02-06T14:30:00Z,44
2009-02-13T14:30:00Z,208
2009-02-20T14:30:00Z,21
2009-02-27T14:30:00Z,118
2009-03-06T14:30:00Z,90
2009-03-13T14:30:00Z,26
2009-03-20T14:30:00Z,122
2009-03-27T14:30:00Z,74
2009-04-03T14:30:00Z,40
2009-04-10T14:30:00Z,10
2009-04-17T14:30:00Z,54
2009-04-24T14:30:00Z,31
2009-05-01T14:30:00Z,22
2009-05-08T14:30:00Z,90
2009-05-15T14:30:00Z,16
2009-05-22T14:30:00Z,25
2009-05-29T14:30:00Z,23
2009-06-05T14:30:00Z,46
2009-06-12T14:30:00Z,54
2009-06-19T14:30:00Z,73
2009-06-26T14:30:00Z,34
2009-07-03T14:30:00Z,16
2009-07-10T14:30:00Z,17
2009-07-17T14:30:00Z,67
2009-07-24T14:30:00Z,66
2009-07-31T14:30:00Z,22
2009-08-07T14:30:00Z,21
2009-08-14T14:30:00Z,20
2009-08-21T14:30:00Z,35
2009-08-28T14:30:00Z,14
2009-09-04T14:30:00Z,38
2009-09-11T14:30:00Z,29
2009-09-18T14:30:00Z,32
2009-09-25T14:30:00Z,15
2009-10-02T14:30:00Z,102
2009-10-09T14:30:00Z,74
2009-10-16T14:30:00Z,53
2009-10-23T14:30:00Z,81
2009-10-30T14:30:00Z,66
2009-11-06T14:30:00Z,49
2009-11-13T14:30:00Z,20
2009-11-20T14:30:00Z,106
2009-11-27T14:30:00Z,18
2009-12-04T14:30:00Z,64
2009-12-11T14:30:00Z,81
2009-12-18T14:30:00Z,87
2009-12-25T14:30:00Z,57
2010-01-01T14:30:00Z,168
2010-01-08T14:30:00Z,317
2010-01-15T14:30:00Z,128
2010-01-22T14:30:00Z,195
2010-01-29T14:30:00Z,225
2010-02-05T14:30:00Z,156
2010-02-12T14:30:00Z,106
2010-02-19T14:30:00Z,204
2010-02-26T14:30:00Z,127
2010-03-05T14:30:00Z,24
2010-03-12T14:30:00Z,23
2010-03-19T14:30:00Z,42
2010-03-26T14:30:00Z,67
2010-04-02T14:30:00Z,75
2010-04-09T14:30:00Z,77
2010-04-16T14:30:00Z,15
2010-04-23T14:30:00Z,127
2010-04-30T14:30:00Z,91
2010-05-07T14:30:00Z,66
2010-05-14T14:30:00Z,21
2010-05-21T14:30:00Z,65
2010-05-28T14:30:00Z,78
2010-06-04T14:30:00Z,118
2010-06-11T14:30:00Z,45
2010-06-18T14:30:00Z,62
2010-06-25T14:30:00Z,27
2010-07-02T14:30:00Z,155
2010-07-09T14:30:00Z,15
2010-07-16T14:30:00Z,63
2010-07-23T14:30:00Z,70
2010-07-30T14:30:00Z,41
2010-08-06T14:30:00Z,15
2010-08-13T14:30:00Z,39
2010-08-20T14:30:00Z,35
2010-08-27T14:30:00Z,65
2010-09-03T14:30:00Z,62
2010-09-10T14:30:00Z,26
2010-09-17T14:30:00Z,33
2010-09-24T14:30:00Z,23
2010-10-01T14:30:00Z,73
2010-10-08T14:30:00Z,47
2010-10-15T14:30:00Z,33
2010-10-22T14:30:00Z,54
2010-10-29T14:30:00Z,11
2010-11-05T14:30:00Z,42
2010-11-12T14:30:00Z,11
2010-11-19T14:30:00Z,42
2010-11-26T14:30:00Z,39
2010-12-03T14:30:00Z,45
2010-12-10T14:30:00Z,57
2010-12-17T14:30:00Z,78
2010-12-24T14:30:00Z,133
2010-12-31T14:30:00Z,28
2011-01-07T14:30:00Z,133
2011-01-14T14:30:00Z,89
2011-01-21T14:30:00Z,115
2011-01-28T14:30:00Z,65
2011-02-04T14:30:00Z,60
2011-02-11T14:30:00Z,68
2011-02-18T14:30:00Z,71
2011-02-25T14:30:00Z,42
2011-03-04T14:30:00Z,51
2011-03-11T14:30:00Z,46
2011-03-18T14:30:00Z,43
2011-03-25T14:30:00Z,50
2011-04-01T14:30:00Z,30
2011-04-08T14:30:00Z,41
2011-04-15T14:30:00Z,82
2011-04-22T14:30:00Z,49
2011-04-29T14:30:00Z,104
2011-05-06T14:30:00Z,30
2011-05-13T14:30:00Z,42
2011-05-20T14:30:00Z,48
2011-05-27T14:30:00Z,34
2011-06-03T14:30:00Z,33
2011-06-10T14:30:00Z,6
2011-06-17T14:30:00Z,50
2011-06-24T14:30:00Z,3
2011-07-01T14:30:00Z,17
2011-07-08T14:30:00Z,28
2011-07-15T14:30:00Z,5
2011-07-22T14:30:00Z,17
2011-07-29T14:30:00Z,43
2011-08-05T14:30:00Z,3
2011-08-12T14:30:00Z,34
2011-08-19T14:30:00Z,50
2011-08-26T14:30:00Z,25
2011-09-02T14:30:00Z,35
2011-09-09T14:30:00Z,32
2011-09-16T14:30:00Z,11
2011-09-23T14:30:00Z,20
2011-09-30T14:30:00Z,62
2011-10-07T14:30:00Z,65
2011-10-14T14:30:00Z,12
2011-10-21T14:30:00Z,64
2011-10-28T14:30:00Z,49
2011-11-04T14:30:00Z,28
2011-11-11T14:30:00Z,25
2011-11-18T14:30:00Z,59
2011-11-25T14:30:00Z,7
2011-12-02T14:30:00Z,43
2011-12-09T14:30:00Z,75
2011-12-16T14:30:00Z,40
2011-12-23T14:30:00Z,87
2011-12-30T14:30:00Z,128
2012-01-06T14:30:00Z,65
2012-01-13T14:30:00Z,77
2012-01-20T14:30:00Z,74
2012-01-27T14:30:00Z,75
2012-02-03T14:30:00Z,69
2012-02-10T14:30:00Z,79
2012-02-17T14:30:00Z,72
2012-02-24T14:30:00Z,63
2012-03-02T14:30:00Z,87
2012-03-09T14:30:00Z,52
2012-03-16T14:30:00Z,62
2012-03-23T14:30:00Z,44
2012-03-30T14:30:00Z,18
2012-04-06T14:30:00Z,6
2012-04-13T14:30:00Z,20
2012-04-20T14:30:00Z,13
2012-04-27T14:30:00Z,5
2012-05-04T14:30:00Z,5
2012-05-11T14:30:00Z,16
2012-05-18T14:30:00Z,16
2012-05-25T14:30:00Z,3
2012-06-01T14:30:00Z,0
2012-06-08T14:30:00Z,17
2012-06-15T14:30:00Z,33
2012-06-22T14:30:00Z,0
2012-06-29T14:30:00Z,0
2012-07-06T14:30:00Z,0
2012-07-13T14:30:00Z,12
2012-07-20T14:30:00Z,12
2012-07-27T14:30:00Z,0
2012-08-03T14:30:00Z,13
2012-08-10T14:30:00Z,5
2012-08-17T14:30:00Z,0
2012-08-24T14:30:00Z,21
2012-08-31T14:30:00Z,43
2012-09-07T14:30:00Z,17
2012-09-14T14:30:00Z,26
2012-09-21T14:30:00Z,0
2012-09-28T14:30:00Z,6
2012-10-05T14:30:00Z,0
2012-10-12T14:30:00Z,0
2012-10-19T14:30:00Z,18
2012-10-26T14:30:00Z,0
2012-11-02T14:30:00Z,19
2012-11-09T14:30:00Z,46
2012-11-16T14:30:00Z,49
2012-11-23T14:30:00Z,105
2012-11-30T14:30:00Z,36
2012-12-07T14:30:00Z,55
2012-12-14T14:30:00Z,75
2012-12-21T14:30:00Z,55
2012-12-28T14:30:00Z,31
2013-01-04T14:30:00Z,97
2013-01-11T14:30:00Z,18
2013-01-18T14:30:00Z,136
2013-01-25T14:30:00Z,49
2013-02-01T14:30:00Z,19
2013-02-08T14:30:00Z,83
2013-02-15T14:30:00Z,90
2013-02-22T14:30:00Z,92
2013-03-01T14:30:00Z,31
2013-03-08T14:30:00Z,102
2013-03-15T14:30:00Z,25
2013-03-22T14:30:00Z,137
2013-03-29T14:30:00Z,24
2013-04-05T14:30:00Z,58
2013-04-12T14:30:00Z,154
2013-04-19T14:30:00Z,48
2013-04-26T14:30:00Z,101
2013-05-03T14:30:00Z,133
2013-05-10T14:30:00Z,14
2013-05-17T14:30:00Z,0
2013-05-24T14:30:00Z,38
2013-05-31T14:30:00Z,53
2013-06-07T14:30:00Z,11
2013-06-14T14:30:00Z,28
2013-06-21T14:30:00Z,4
2013-06-28T14:30:00Z,36
2013-07-05T14:30:00Z,4
2013-07-12T14:30:00Z,1
2013-07-19T14:30:00Z,21
2013-07-26T14:30:00Z,58
2013-08-02T14:30:00Z,1
2013-08-09T14:30:00Z,3
2013-08-16T14:30:00Z,41
2013-08-23T14:30:00Z,53
2013-08-30T14:30:00Z,2
2013-09-06T14:30:00Z,2
2013-09-13T14:30:00Z,2
2013-09-20T14:30:00Z,24
2013-09-27T14:30:00Z,3
2013-10-04T14:30:00Z,9
2013-10-11T14:30:00Z,1
2013-10-18T14:30:00Z,17
2013-10-25T14:30:00Z,49
2013-11-01T14:30:00Z,64
2013-11-08T14:30:00Z,73
2013-11-15T14:30:00Z,10
2013-11-22T14:30:00Z,30
2013-11-29T14:30:00Z,2
2013-12-06T14:30:00Z,1
2013-12-13T14:30:00Z,115
2013-12-20T14:30:00Z,105
2013-12-27T14:30:00Z,39
2014-01-03T14:30:00Z,65
2014-01-10T14:30:00Z,106
2014-01-17T14:30:00Z,58
2014-01-24T14:30:00Z,110
2014-01-31T14:30:00Z,103
2014-02-07T14:30:00Z,15
2014-02-14T14:30:00Z,70
2014-02-21T14:30:00Z,125
2014-02-28T14:30:00Z,111
2014-03-07T14:30:00Z,109
2014-03-14T14:30:00Z,23
2014-03-21T14:30:00Z,62
2014-03-28T14:30:00Z,88
2014-04-04T14:30:00Z,15
2014-04-11T14:30:00Z,168
2014-04-18T14:30:00Z,69
2014-04-25T14:30:00Z,29
2014-05-02T14:30:00Z,27
2014-05-09T14:30:00Z,14
2014-05-16T14:30:00Z,102
2014-05-23T14:30:00Z,92
2014-05-30T14:30:00Z,38
2014-06-06T14:30:00Z,43
2014-06-13T14:30:00Z,25
2014-06-20T14:30:00Z,16
2014-06-27T14:30:00Z,21
2014-07-04T14:30:00Z,12
2014-07-11T14:30:00Z,13
2014-07-18T14:30:00Z,30
2014-07-25T14:30:00Z,26
2014-08-01T14:30:00Z,24
2014-08-08T14:30:00Z,74
2014-08-15T14:30:00Z,28
2014-08-22T14:30:00Z,18
2014-08-29T14:30:00Z,36
2014-09-05T14:30:00Z,25
2014-09-12T14:30:00Z,85
2014-09-19T14:30:00Z,94
2014-09-26T14:30:00Z,4
2014-10-03T14:30:00Z,14
2014-10-10T14:30:00Z,58
2014-10-17T14:30:00Z,48
2014-10-24T14:30:00Z,7
2014-10-31T14:30:00Z,54
2014-11-07T14:30:00Z,15
2014-11-14T14:30:00Z,0
2014-11-21T14:30:00Z,55
2014-11-28T14:30:00Z,48
2014-12-05T14:30:00Z,20
2014-12-12T14:30:00Z,92
2014-12-19T14:30:00Z,120
2014-12-26T14:30:00Z,46
2015-01-02T14:30:00Z,59
2015-01-09T14:30:00Z,54
2015-01-16T14:30:00Z,123
2015-01-23T14:30:00Z,78
2015-01-30T14:30:00Z,99
2015-02-06T14:30:00Z,48
2015-02-13T14:30:00Z,40
2015-02-20T14:30:00Z,96
2015-02-27T14:30:00Z,126
2015-03-06T14:30:00Z,116
2015-03-13T14:30:00Z,30
2015-03-20T14:30:00Z,120
2015-03-27T14:30:00Z,40
2015-04-03T14:30:00Z,141
2015-04-10T14:30:00Z,41
2015-04-17T14:30:00Z,48
2015-04-24T14:30:00Z,19
2015-05-01T14:30:00Z,21
2015-05-08T14:30:00Z,81
2015-05-15T14:30:00Z,20
2015-05-22T14:30:00Z,26
2015-05-29T14:30:00Z,18
2015-06-05T14:30:00Z,30
2015-06-12T14:30:00Z,51
2015-06-19T14:30:00Z,13
2015-06-26T14:30:00Z,47
2015-07-03T14:30:00Z,23
2015-07-10T14:30:00Z,43
2015-07-17T14:30:00Z,37
2015-07-24T14:30:00Z,11
2015-07-31T14:30:00Z,61
2015-08-07T14:30:00Z,2
2015-08-14T14:30:00Z,92
2015-08-21T14:30:00Z,17
2015-08-28T14:30:00Z,34
2015-09-04T14:30:00Z,7
2015-09-11T14:30:00Z,20
2015-09-18T14:30:00Z,68
2015-09-25T14:30:00Z,19
2015-10-02T14:30:00Z,18
2015-10-09T14:30:00Z,2
2015-10-16T14:30:00Z,12
2015-10-23T14:30:00Z,18
2015-10-30T14:30:00Z,24
2015-11-06T14:30:00Z,56
2015-11-13T14:30:00Z,63
2015-11-20T14:30:00Z,46
2015-11-27T14:30:00Z,44
2015-12-04T14:30:00Z,3
2015-12-11T14:30:00Z,19
2015-12-18T14:30:00Z,99
2015-12-25T14:30:00Z,70
2016-01-01T14:30:00Z,58
2016-01-08T14:30:00Z,60
2016-01-15T14:30:00Z,89
2016-01-22T14:30:00Z,59
2016-01-29T14:30:00Z,69
2016-02-05T14:30:00Z,102
2016-02-12T14:30:00Z,50
2016-02-19T14:30:00Z,94
2016-02-26T14:30:00Z,117
2016-03-04T14:30:00Z,49
2016-03-11T14:30:00Z,175
2016-03-18T14:30:00Z,25
2016-03-25T14:30:00Z,43
2016-04-01T14:30:00Z,7
2016-04-08T14:30:00Z,70
2016-04-15T14:30:00Z,43
2016-04-22T14:30:00Z,6
2016-04-29T14:30:00Z,43
2016-05-06T14:30:00Z,41
2016-05-13T14:30:00Z,0
2016-05-20T14:30:00Z,117
2016-05-27T14:30:00Z,5
2016-06-03T14:30:00Z,46
2016-06-10T14:30:00Z,36
2016-06-17T14:30:00Z,6
2016-06-24T14:30:00Z,6
2016-07-01T14:30:00Z,26
2016-07-08T14:30:00Z,9
2016-07-15T14:30:00Z,90
2016-07-22T14:30:00Z,12
2016-07-29T14:30:00Z,9
2016-08-05T14:30:00Z,0
2016-08-12T14:30:00Z,36
2016-08-19T14:30:00Z,34
2016-08-26T14:30:00Z,41
2016-09-02T14:30:00Z,63
2016-09-09T14:30:00Z,30
2016-09-16T14:30:00Z,12
2016-09-23T14:30:00Z,12
2016-09-30T14:30:00Z,59
2016-10-07T14:30:00Z,49
2016-10-14T14:30:00Z,2
2016-10-21T14:30:00Z,19
2016-10-28T14:30:00Z,18
2016-11-04T14:30:00Z,24
2016-11-11T14:30:00Z,63
2016-11-18T14:30:00Z,36
2016-11-25T14:30:00Z,24
2016-12-02T14:30:00Z,29
2016-12-09T14:30:00Z,3
2016-12-16T14:30:00Z,21
2016-12-23T14:30:00Z,68
2016-12-30T14:30:00Z,19
2017-01-06T14:30:00Z,25
2017-01-13T14:30:00Z,13
2017-01-20T14:30:00Z,74
2017-01-27T14:30:00Z,55
2017-02-03T14:30:00Z,131
2017-02-10T14:30:00Z,48
2017-02-17T14:30:00Z,77
2017-02-24T14:30:00Z,45
2017-03-03T14:30:00Z,51
2017-03-10T14:30:00Z,23
2017-03-17T14:30:00Z,7
2017-03-24T14:30:00Z,19
2017-03-31T14:30:00Z,32
2017-04-07T14:30:00Z,26
2017-04-14T14:30:00Z,61
2017-04-21T14:30:00Z,0
2017-04-28T14:30:00Z,66
2017-05-05T14:30:00Z,55
2017-05-12T14:30:00Z,53
2017-05-19T14:30:00Z,6
2017-05-26T14:30:00Z,6
2017-06-02T14:30:00Z,70
2017-06-09T14:30:00Z,21
2017-06-16T14:30:00Z,6
2017-06-23T14:30:00Z,13
2017-06-30T14:30:00Z,46
2017-07-07T14:30:00Z,54
2017-07-14T14:30:00Z,32
2017-07-21T14:30:00Z,35
2017-07-28T14:30:00Z,43
2017-08-04T14:30:00Z,0
2017-08-11T14:30:00Z,105
2017-08-18T14:30:00Z,95
2017-08-25T14:30:00Z,0
2017-09-01T14:30:00Z,68
2017-09-08T14:30:00Z,18
2017-09-15T14:30:00Z,23
2017-09-22T14:30:00Z,5
2017-09-29T14:30:00Z,41
2017-10-06T14:30:00Z,23
2017-10-13T14:30:00Z,0
2017-10-20T14:30:00Z,7
2017-10-27T14:30:00Z,41
2017-11-03T14:30:00Z,0
2017-11-10T14:30:00Z,102
2017-11-17T14:30:00Z,6
2017-11-24T14:30:00Z,80
2017-12-01T14:30:00Z,28
2017-12-08T14:30:00Z,33
2017-12-15T14:30:00Z,102
2017-12-22T14:30:00Z,21
2017-12-29T14:30:00Z,56
2018-01-05T14:30:00Z,66
2018-01-12T14:30:00Z,70
2018-01-19T14:30:00Z,36
2018-01-26T14:30:00Z,42
2018-02-02T14:30:00Z,51
2018-02-09T14:30:00Z,18
2018-02-16T14:30:00Z,44
2018-02-23T14:30:00Z,13
2018-03-02T14:30:00Z,1
2018-03-09T14:30:00Z,31
2018-03-16T14:30:00Z,7
2018-03-23T14:30:00Z,21
2018-03-30T14:30:00Z,37
2018-04-06T14:30:00Z,20
2018-04-13T14:30:00Z,22
2018-04-20T14:30:00Z,2
2018-04-27T14:30:00Z,7
2018-05-04T14:30:00Z,58
2018-05-11T14:30:00Z,0
2018-05-18T14:30:00Z,1
2018-05-25T14:30:00Z,10
2018-06-01T14:30:00Z,5
2018-06-08T14:30:00Z,11
2018-06-15T14:30:00Z,4
2018-06-22T14:30:00Z,11
2018-06-29T14:30:00Z,5
2018-07-06T14:30:00Z,10
2018-07-13T14:30:00Z,6
2018-07-20T14:30:00Z,47
2018-07-27T14:30:00Z,4
2018-08-03T14:30:00Z,1
2018-08-10T14:30:00Z,25
2018-08-17T14:30:00Z,23
2018-08-24T14:30:00Z,8
2018-08-31T14:30:00Z,4
2018-09-07T14:30:00Z,6
2018-09-14T14:30:00Z,10
2018-09-21T14:30:00Z,8
2018-09-28T14:30:00Z,39
2018-10-05T14:30:00Z,8
2018-10-12T14:30:00Z,1
2018-10-19T14:30:00Z,3
