javascript : 12
java : 9
json : 7
python : 7
c# : 6
c++ : 6
php : 5
android : 5
jquery : 3
python-3.x : 3
swift : 3
sql : 3
sql-server : 2
docker : 2
google-sheets : 2
vue.js : 2
date : 2
automated-tests : 2
android-notifications : 2
function : 2
macos : 2
broadcastreceiver : 2
for-loop : 2
mysql : 2
html : 2
kotlin : 2
react-native : 2
vba : 2
nginx : 2
arrays : 2
android-8.0-oreo : 2
linq : 2
flutter : 2
excel : 2
json.net : 2
react-native-firebase : 2
machine-learning : 2
ios : 2
laravel : 2
spring-boot : 2
eclipse : 1
json-schema-validator : 1
uiviewanimation : 1
data-structures : 1
ios-statusbar : 1
printing : 1
upgrade : 1
firefox-quantum : 1
inno-setup : 1
testng : 1
k-means : 1
schema : 1
klocwork : 1
leakcanary : 1
qlikview : 1
selenium : 1
android-studio : 1
jenkins : 1
azure-logic-apps : 1
matrix : 1
string : 1
normalization : 1
jquery-select2 : 1
scikit-learn : 1
amazon-web-services : 1
utf-8 : 1
hyper-v : 1
apache-camel : 1
node.js : 1
pygame : 1
extjs : 1
arm-template : 1
named-pipes : 1
activeadmin : 1
fasttext : 1
class : 1
powershell : 1
vuejs2 : 1
ruby-on-rails : 1
virtualization : 1
google-cloud-platform : 1
excel-vba : 1
bash : 1
listview : 1
qml : 1
css : 1
trie : 1
unsafemutablepointer : 1
visualforce : 1
fullpage.js : 1
push : 1
javamail : 1
entity-framework-4 : 1
couchbase : 1
npm : 1
dockerfile : 1
codeigniter : 1
gerrit : 1
pop : 1
gitlab : 1
reactjs : 1
spyder : 1
semantic-versioning : 1
word2vec : 1
ora-hash : 1
swt : 1
xamarin : 1
memory-leaks : 1
matplotlib : 1
anaconda : 1
dbms-crypto : 1
laravel-5.4 : 1
while-loop : 1
transformation : 1
tensorflow : 1
searchview : 1
xslt : 1
date-formatting : 1
binary-tree : 1
tomcat : 1
api : 1
classpath : 1
build : 1
google-cloud-storage : 1
vb.net : 1
python-idle : 1
qsqlquery : 1
buildpath : 1
dax : 1
hash : 1
package : 1
unicode : 1
android-recyclerview : 1
linux : 1
web-api-testing : 1
frameworks : 1
pointers : 1
testing : 1
frontend : 1
peek : 1
qt : 1
icons : 1
cocoapods : 1
azure : 1
crud : 1
listener : 1
textfield : 1
asp.net-core : 1
entity-framework : 1
instance : 1
firefox : 1
laravel-5.6 : 1
pundit : 1
entity-framework-core : 1
3d : 1
linked-list : 1
iteration : 1
bad-request : 1
powerbi : 1
email : 1
md5 : 1
