Date,Debt
2010-02-01T14:30:00Z,12349463585067.40
2010-02-02T14:30:00Z,12360943989345.40
2010-02-03T14:30:00Z,12354041054846.90
2010-02-04T14:30:00Z,12346427470024.00
2010-02-05T14:30:00Z,12345510656150.00
2010-02-08T14:30:00Z,12347902954531.70
2010-02-09T14:30:00Z,12349467132738.40
2010-02-10T14:30:00Z,12340570199406.30
2010-02-11T14:30:00Z,12349324464284.20
2010-02-12T14:30:00Z,12351624191901.00
2010-02-16T14:30:00Z,12384358013736.30
2010-02-17T14:30:00Z,12386495535882.20
2010-02-18T14:30:00Z,12401448666808.30
2010-02-19T14:30:00Z,12402054835588.60
2010-02-22T14:30:00Z,12403027179655.20
2010-02-23T14:30:00Z,12409374679862.00
2010-02-24T14:30:00Z,12401781166870.00
2010-02-25T14:30:00Z,12433661592275.40
2010-02-26T14:30:00Z,12440068020714.40
2010-03-01T14:30:00Z,12507536462861.00
2010-03-02T14:30:00Z,12519423725485.30
2010-03-03T14:30:00Z,12508944297560.50
2010-03-04T14:30:00Z,12545490013032.20
2010-03-05T14:30:00Z,12544703929352.50
2010-03-08T14:30:00Z,12546372001879.70
2010-03-09T14:30:00Z,12552703515296.80
2010-03-10T14:30:00Z,12544389439808.40
2010-03-11T14:30:00Z,12575479490348.40
2010-03-12T14:30:00Z,12575678862901.60
2010-03-15T14:30:00Z,12636662956140.00
2010-03-16T14:30:00Z,12643701402529.50
2010-03-17T14:30:00Z,12639779478641.80
2010-03-18T14:30:00Z,12661296056307.20
2010-03-19T14:30:00Z,12661039727506.60
2010-03-22T14:30:00Z,12663372436835.10
2010-03-23T14:30:00Z,12670895780689.20
2010-03-24T14:30:00Z,12662466657519.80
2010-03-25T14:30:00Z,12687570153023.90
2010-03-26T14:30:00Z,12685893723805.70
2010-03-29T14:30:00Z,12686249797715.00
2010-03-30T14:30:00Z,12684570896780.80
2010-03-31T14:30:00Z,12773123096139.40
2010-04-01T14:30:00Z,12764878911618.10
2010-04-02T14:30:00Z,12762747199516.70
2010-04-05T14:30:00Z,12786559060352.50
2010-04-06T14:30:00Z,12792967119405.50
2010-04-07T14:30:00Z,12791874548454.10
2010-04-08T14:30:00Z,12826031306447.90
2010-04-09T14:30:00Z,12825687391205.70
2010-04-12T14:30:00Z,12826379456286.80
2010-04-13T14:30:00Z,12831193383690.60
2010-04-14T14:30:00Z,12823492436215.10
2010-04-15T14:30:00Z,12874618766079.20
2010-04-16T14:30:00Z,12877714305798.80
2010-04-19T14:30:00Z,12863049415216.30
2010-04-20T14:30:00Z,12871255665556.80
2010-04-21T14:30:00Z,12865514120486.80
2010-04-22T14:30:00Z,12872601270864.40
2010-04-23T14:30:00Z,12877195922374.90
2010-04-26T14:30:00Z,12880364008405.90
2010-04-27T14:30:00Z,12886315749582.90
2010-04-28T14:30:00Z,12876734073745.70
2010-04-29T14:30:00Z,12853100126888.40
2010-04-30T14:30:00Z,12948738915856.80
2010-05-03T14:30:00Z,12927020546327.10
2010-05-04T14:30:00Z,12940953934792.90
2010-05-05T14:30:00Z,12943495066136.10
2010-05-06T14:30:00Z,12932913325200.60
2010-05-07T14:30:00Z,12928941224629.50
2010-05-10T14:30:00Z,12926785477772.90
2010-05-11T14:30:00Z,12931157737293.40
2010-05-12T14:30:00Z,12923161977864.20
2010-05-13T14:30:00Z,12927411267929.20
2010-05-14T14:30:00Z,12926689780236.60
2010-05-17T14:30:00Z,12974895930216.50
2010-05-18T14:30:00Z,12984666665110.50
2010-05-19T14:30:00Z,12975292327567.90
2010-05-20T14:30:00Z,12987822672429.00
2010-05-21T14:30:00Z,12987796841336.50
2010-05-24T14:30:00Z,12989095409531.00
2010-05-25T14:30:00Z,12995779490444.50
2010-05-26T14:30:00Z,12987274122710.70
2010-05-27T14:30:00Z,12987916782708.50
2010-05-28T14:30:00Z,12992539130957.20
2010-06-01T14:30:00Z,13050826460886.90
2010-06-02T14:30:00Z,13058289851171.50
2010-06-03T14:30:00Z,13056249966400.10
2010-06-04T14:30:00Z,13050588009652.60
2010-06-07T14:30:00Z,13052204878286.70
2010-06-08T14:30:00Z,13056957049453.40
2010-06-09T14:30:00Z,13046148615770.70
2010-06-10T14:30:00Z,13041405343973.40
2010-06-11T14:30:00Z,13041208520697.10
2010-06-14T14:30:00Z,13043148269336.40
2010-06-15T14:30:00Z,13078420280010.60
2010-06-16T14:30:00Z,13073000699429.70
2010-06-17T14:30:00Z,13038877263966.70
2010-06-18T14:30:00Z,13038455716111.80
2010-06-21T14:30:00Z,13040053515762.10
2010-06-22T14:30:00Z,13046652647591.80
2010-06-23T14:30:00Z,13041849923645.90
2010-06-24T14:30:00Z,13038079983718.30
2010-06-25T14:30:00Z,13038305786811.20
2010-06-28T14:30:00Z,13038916836943.40
2010-06-29T14:30:00Z,13037542715703.80
2010-06-30T14:30:00Z,13203473753968.10
2010-07-01T14:30:00Z,13178317356215.70
2010-07-02T14:30:00Z,13175330731664.70
2010-07-06T14:30:00Z,13177644774581.60
2010-07-07T14:30:00Z,13181991714131.10
2010-07-08T14:30:00Z,13192234850314.20
2010-07-09T14:30:00Z,13193854880648.00
2010-07-12T14:30:00Z,13194523014378.20
2010-07-13T14:30:00Z,13199290856204.30
2010-07-14T14:30:00Z,13189505566215.80
2010-07-15T14:30:00Z,13240228521494.80
2010-07-16T14:30:00Z,13239903754450.70
2010-07-19T14:30:00Z,13242893842328.70
2010-07-20T14:30:00Z,13245998461216.30
2010-07-21T14:30:00Z,13237494446894.50
2010-07-22T14:30:00Z,13249153625870.30
2010-07-23T14:30:00Z,13248524997009.90
2010-07-26T14:30:00Z,13252030092034.00
2010-07-27T14:30:00Z,13258280104675.60
2010-07-28T14:30:00Z,13247793649102.80
2010-07-29T14:30:00Z,13246508860572.00
2010-07-30T14:30:00Z,13237726976890.00
2010-08-02T14:30:00Z,13296826659389.50
2010-08-03T14:30:00Z,13301637817150.90
2010-08-04T14:30:00Z,13302301677300.10
2010-08-05T14:30:00Z,13310887351665.80
2010-08-06T14:30:00Z,13310114269532.30
2010-08-09T14:30:00Z,13311250227462.80
2010-08-10T14:30:00Z,13319830936991.00
2010-08-11T14:30:00Z,13307871897992.90
2010-08-12T14:30:00Z,13317048837517.10
2010-08-13T14:30:00Z,13315417951875.00
2010-08-16T14:30:00Z,13356994188341.40
2010-08-17T14:30:00Z,13364739861340.50
2010-08-18T14:30:00Z,13353801011553.90
2010-08-19T14:30:00Z,13363227573941.60
2010-08-20T14:30:00Z,13361739911386.50
2010-08-23T14:30:00Z,13363278285831.30
2010-08-24T14:30:00Z,13371301700295.20
2010-08-25T14:30:00Z,13361354442247.90
2010-08-26T14:30:00Z,13376189739693.60
2010-08-27T14:30:00Z,13375222710985.00
2010-08-30T14:30:00Z,13369841967694.30
2010-08-31T14:30:00Z,13449652537035.00
2010-09-01T14:30:00Z,13426803373412.00
2010-09-02T14:30:00Z,13442057367029.20
2010-09-03T14:30:00Z,13435343171187.80
2010-09-07T14:30:00Z,13438770879030.70
2010-09-08T14:30:00Z,13435355520330.40
2010-09-09T14:30:00Z,13444496046138.40
2010-09-10T14:30:00Z,13441762397157.20
2010-09-13T14:30:00Z,13443442988893.40
2010-09-14T14:30:00Z,13440225498627.40
2010-09-15T14:30:00Z,13498026949136.50
2010-09-16T14:30:00Z,13464896653374.10
2010-09-17T14:30:00Z,13467745270382.70
2010-09-20T14:30:00Z,13469342458134.10
2010-09-21T14:30:00Z,13476661616652.10
2010-09-22T14:30:00Z,13471094170316.20
2010-09-23T14:30:00Z,13463477025087.50
2010-09-24T14:30:00Z,13466818283723.40
2010-09-27T14:30:00Z,13468173874830.00
2010-09-28T14:30:00Z,13472761083757.80
2010-09-29T14:30:00Z,13466272411365.60
2010-09-30T14:30:00Z,13561623030891.70
2010-10-01T14:30:00Z,13610847585810.00
2010-10-04T14:30:00Z,13617255556356.00
2010-10-05T14:30:00Z,13624352674172.70
2010-10-06T14:30:00Z,13624678196435.00
2010-10-07T14:30:00Z,13615674949267.90
2010-10-08T14:30:00Z,13614052490714.70
2010-10-12T14:30:00Z,13612664732574.90
2010-10-13T14:30:00Z,13612299748993.30
2010-10-14T14:30:00Z,13606947094101.90
2010-10-15T14:30:00Z,13665926643255.90
2010-10-18T14:30:00Z,13668894473093.40
2010-10-19T14:30:00Z,13676109536322.00
2010-10-20T14:30:00Z,13667947376827.80
2010-10-21T14:30:00Z,13667983325978.30
2010-10-22T14:30:00Z,13667624992210.90
2010-10-25T14:30:00Z,13669359903495.60
2010-10-26T14:30:00Z,13673749566734.10
2010-10-27T14:30:00Z,13663891267223.30
2010-10-28T14:30:00Z,13658812457389.50
2010-10-29T14:30:00Z,13668825497341.30
2010-11-01T14:30:00Z,13713087906377.30
2010-11-02T14:30:00Z,13723974060859.20
2010-11-03T14:30:00Z,13718711829904.30
2010-11-04T14:30:00Z,13723439668440.10
2010-11-05T14:30:00Z,13723330060510.50
2010-11-08T14:30:00Z,13725166759183.40
2010-11-09T14:30:00Z,13727147399038.50
2010-11-10T14:30:00Z,13719547683746.40
2010-11-12T14:30:00Z,13721979465685.30
2010-11-15T14:30:00Z,13789013561493.70
2010-11-16T14:30:00Z,13795134710938.40
2010-11-17T14:30:00Z,13789278919702.60
2010-11-18T14:30:00Z,13788455142118.00
2010-11-19T14:30:00Z,13789699194529.30
2010-11-22T14:30:00Z,13794645743594.50
2010-11-23T14:30:00Z,13797004450927.60
2010-11-24T14:30:00Z,13788289275079.90
2010-11-26T14:30:00Z,13794243004364.80
2010-11-29T14:30:00Z,13790302153225.80
2010-11-30T14:30:00Z,13860773759018.40
2010-12-01T14:30:00Z,13834918581977.00
2010-12-02T14:30:00Z,13840966239053.10
2010-12-03T14:30:00Z,13833511738992.20
2010-12-06T14:30:00Z,13834824737060.60
2010-12-07T14:30:00Z,13838490314497.60
2010-12-08T14:30:00Z,13847884133109.60
2010-12-09T14:30:00Z,13846494847569.80
2010-12-10T14:30:00Z,13846685751077.10
2010-12-13T14:30:00Z,13848017156749.00
2010-12-14T14:30:00Z,13852589330911.80
2010-12-15T14:30:00Z,13879785054580.10
2010-12-16T14:30:00Z,13878837351150.60
2010-12-17T14:30:00Z,13883400070159.80
2010-12-20T14:30:00Z,13868461288845.80
2010-12-21T14:30:00Z,13867477082973.70
2010-12-22T14:30:00Z,13858529371601.00
2010-12-23T14:30:00Z,13865176563186.30
2010-12-24T14:30:00Z,13866145290604.60
2010-12-27T14:30:00Z,13874000269245.60
2010-12-28T14:30:00Z,13877230355933.00
2010-12-29T14:30:00Z,13870949681979.40
2010-12-30T14:30:00Z,13871130353817.40
2010-12-31T14:30:00Z,14025215218708.50
2011-01-03T14:30:00Z,13997932781828.80
2011-01-04T14:30:00Z,14014049043294.40
2011-01-05T14:30:00Z,14011526727895.80
2011-01-06T14:30:00Z,14011793170981.70
2011-01-07T14:30:00Z,14009422364546.00
2011-01-10T14:30:00Z,14014345009018.60
2011-01-11T14:30:00Z,14019559567587.80
2011-01-12T14:30:00Z,14010389488111.50
2011-01-13T14:30:00Z,14007216975377.50
2011-01-14T14:30:00Z,14007943536871.10
2011-01-18T14:30:00Z,14052380830542.80
2011-01-19T14:30:00Z,14053512150448.40
2011-01-20T14:30:00Z,14056313474932.50
2011-01-21T14:30:00Z,14060136959466.50
2011-01-24T14:30:00Z,14062239904820.60
2011-01-25T14:30:00Z,14067472135118.60
2011-01-26T14:30:00Z,14060011229556.30
2011-01-27T14:30:00Z,14059409159678.40
2011-01-28T14:30:00Z,14056512363629.30
2011-01-31T14:30:00Z,14131051056010.80
2011-02-01T14:30:00Z,14109842878903.50
2011-02-02T14:30:00Z,14116512433408.60
2011-02-03T14:30:00Z,14100427020880.90
2011-02-04T14:30:00Z,14099823671305.00
2011-02-07T14:30:00Z,14104021737251.50
2011-02-08T14:30:00Z,14110420810062.20
2011-02-09T14:30:00Z,14098789113781.30
2011-02-10T14:30:00Z,14083345766082.10
2011-02-11T14:30:00Z,14082712722334.90
2011-02-14T14:30:00Z,14081561324681.80
2011-02-15T14:30:00Z,14138085120211.60
2011-02-16T14:30:00Z,14129889690377.50
2011-02-17T14:30:00Z,14123589307190.50
2011-02-18T14:30:00Z,14124831879791.30
2011-02-22T14:30:00Z,14128556647662.60
2011-02-23T14:30:00Z,14125462676307.50
2011-02-24T14:30:00Z,14119807822019.40
2011-02-25T14:30:00Z,14137541098872.70
2011-02-28T14:30:00Z,14194764339462.60
2011-03-01T14:30:00Z,14172957589856.60
2011-03-02T14:30:00Z,14178525108267.60
2011-03-03T14:30:00Z,14182086199057.00
2011-03-04T14:30:00Z,14182627184881.00
2011-03-07T14:30:00Z,14186168803680.40
2011-03-08T14:30:00Z,14193176753471.60
2011-03-09T14:30:00Z,14182663848364.00
2011-03-10T14:30:00Z,14163433071135.20
2011-03-11T14:30:00Z,14164360361278.80
2011-03-14T14:30:00Z,14166030787779.80
2011-03-15T14:30:00Z,14237952276898.60
2011-03-16T14:30:00Z,14232849993955.10
2011-03-17T14:30:00Z,14223730274180.80
2011-03-18T14:30:00Z,14224862420919.30
2011-03-21T14:30:00Z,14228193126138.70
2011-03-22T14:30:00Z,14233559283692.40
2011-03-23T14:30:00Z,14224998096211.70
2011-03-24T14:30:00Z,14210071848853.10
2011-03-25T14:30:00Z,14211533551640.90
2011-03-28T14:30:00Z,14211567662931.20
2011-03-29T14:30:00Z,14215744197688.20
2011-03-30T14:30:00Z,14210139988236.70
2011-03-31T14:30:00Z,14270114530800.30
2011-04-01T14:30:00Z,14251174516308.40
2011-04-04T14:30:00Z,14243931564216.50
2011-04-05T14:30:00Z,14262144462897.90
2011-04-06T14:30:00Z,14259761986879.60
2011-04-07T14:30:00Z,14264245526311.50
2011-04-08T14:30:00Z,14265383134019.50
2011-04-11T14:30:00Z,14267760539191.80
2011-04-12T14:30:00Z,14272993603617.40
2011-04-13T14:30:00Z,14264147359046.20
2011-04-14T14:30:00Z,14270792119184.80
2011-04-15T14:30:00Z,14305336580992.10
2011-04-18T14:30:00Z,14309159097877.60
2011-04-19T14:30:00Z,14320468555091.60
2011-04-20T14:30:00Z,14314796837035.70
2011-04-21T14:30:00Z,14290788661250.50
2011-04-22T14:30:00Z,14293242770354.80
2011-04-25T14:30:00Z,14298930020698.50
2011-04-26T14:30:00Z,14304410507726.10
2011-04-27T14:30:00Z,14295127825809.10
2011-04-28T14:30:00Z,14282598097540.70
2011-04-29T14:30:00Z,14287630052323.10
2011-05-02T14:30:00Z,14320649656092.60
2011-05-03T14:30:00Z,14331792440897.70
2011-05-04T14:30:00Z,14333813490636.00
2011-05-05T14:30:00Z,14321667187751.50
2011-05-06T14:30:00Z,14322686905560.00
2011-05-09T14:30:00Z,14325784545788.30
2011-05-10T14:30:00Z,14331522797881.60
2011-05-11T14:30:00Z,14322057756517.10
2011-05-12T14:30:00Z,14307799341563.80
2011-05-13T14:30:00Z,14308385181650.10
2011-05-16T14:30:00Z,14345537505802.40
2011-05-17T14:30:00Z,14345524862360.00
2011-05-18T14:30:00Z,14345512216989.00
2011-05-19T14:30:00Z,14345510847235.20
2011-05-20T14:30:00Z,14345498402738.70
2011-05-23T14:30:00Z,14345461067006.00
2011-05-24T14:30:00Z,14345448620741.80
2011-05-25T14:30:00Z,14345436174196.40
2011-05-26T14:30:00Z,14345440513979.30
2011-05-27T14:30:00Z,14345428204844.10
2011-05-31T14:30:00Z,14344668281211.00
2011-06-01T14:30:00Z,14344655966314.30
2011-06-02T14:30:00Z,14344706437041.50
2011-06-03T14:30:00Z,14344694392217.20
2011-06-06T14:30:00Z,14344658255226.80
2011-06-07T14:30:00Z,14344646208741.80
2011-06-08T14:30:00Z,14344634161864.90
2011-06-09T14:30:00Z,14344638149810.40
2011-06-10T14:30:00Z,14344626232128.90
2011-06-13T14:30:00Z,14344590476192.30
2011-06-14T14:30:00Z,14344578556731.90
2011-06-15T14:30:00Z,14344566636826.20
2011-06-16T14:30:00Z,14344571286149.80
2011-06-17T14:30:00Z,14344559511924.90
2011-06-20T14:30:00Z,14344524186068.10
2011-06-21T14:30:00Z,14344512410044.10
2011-06-22T14:30:00Z,14344500633576.20
2011-06-23T14:30:00Z,14344503407708.90
2011-06-24T14:30:00Z,14344491791132.70
2011-06-27T14:30:00Z,14344456938174.10
2011-06-28T14:30:00Z,14344445319806.30
2011-06-29T14:30:00Z,14344433700892.40
2011-06-30T14:30:00Z,14343087640008.40
2011-07-01T14:30:00Z,14343079266117.10
2011-07-05T14:30:00Z,14343033186678.50
2011-07-06T14:30:00Z,14343021848987.20
2011-07-07T14:30:00Z,14343021925343.10
2011-07-08T14:30:00Z,14343010710537.50
2011-07-11T14:30:00Z,14342977065892.70
2011-07-12T14:30:00Z,14342965850128.20
2011-07-13T14:30:00Z,14342954633916.40
2011-07-14T14:30:00Z,14342953885641.90
2011-07-15T14:30:00Z,14342942873692.80
2011-07-18T14:30:00Z,14342909569328.70
2011-07-19T14:30:00Z,14342898467069.00
2011-07-20T14:30:00Z,14342887364361.80
2011-07-21T14:30:00Z,14342884944996.20
2011-07-22T14:30:00Z,14342873980042.90
2011-07-25T14:30:00Z,14342841083049.60
2011-07-26T14:30:00Z,14342830116551.20
2011-07-27T14:30:00Z,14342819149604.70
2011-07-28T14:30:00Z,14342865885306.40
2011-07-29T14:30:00Z,14342369286195.60
2011-08-01T14:30:00Z,14342358440969.10
2011-08-02T14:30:00Z,14580704743080.90
2011-08-03T14:30:00Z,14574607940062.20
2011-08-04T14:30:00Z,14564970167709.30
2011-08-05T14:30:00Z,14584500839325.80
2011-08-08T14:30:00Z,14587727605443.40
2011-08-09T14:30:00Z,14591991499526.00
2011-08-10T14:30:00Z,14581957381309.70
2011-08-11T14:30:00Z,14587911305995.90
2011-08-12T14:30:00Z,14587192870422.60
2011-08-15T14:30:00Z,14615567348203.70
2011-08-16T14:30:00Z,14592242215641.90
2011-08-17T14:30:00Z,14613193161764.30
2011-08-18T14:30:00Z,14620196583424.20
2011-08-19T14:30:00Z,14639239567874.30
2011-08-22T14:30:00Z,14612435498338.60
2011-08-23T14:30:00Z,14649289670347.80
2011-08-24T14:30:00Z,14639107253101.10
2011-08-25T14:30:00Z,14653547886356.10
2011-08-26T14:30:00Z,14653828192917.30
2011-08-29T14:30:00Z,14624792689793.80
2011-08-30T14:30:00Z,14622644937576.90
2011-08-31T14:30:00Z,14684292994743.90
2011-09-01T14:30:00Z,14697414789563.40
2011-09-02T14:30:00Z,14694862366160.90
2011-09-06T14:30:00Z,14698625550307.30
2011-09-07T14:30:00Z,14717757015045.80
2011-09-08T14:30:00Z,14685550385913.10
2011-09-09T14:30:00Z,14711737198477.90
2011-09-12T14:30:00Z,14688259374281.20
2011-09-13T14:30:00Z,14717868058346.20
2011-09-14T14:30:00Z,14683910471705.90
2011-09-15T14:30:00Z,14696963569782.70
2011-09-16T14:30:00Z,14699021631213.00
2011-09-19T14:30:00Z,14729488947751.80
2011-09-20T14:30:00Z,14711870126618.40
2011-09-21T14:30:00Z,14705188086992.00
2011-09-22T14:30:00Z,14726790407953.70
2011-09-23T14:30:00Z,14700040072613.70
2011-09-26T14:30:00Z,14704006072461.80
2011-09-27T14:30:00Z,14707406820591.80
2011-09-28T14:30:00Z,14701883169793.20
2011-09-29T14:30:00Z,14695102108238.00
2011-09-30T14:30:00Z,14790340328557.10
2011-10-03T14:30:00Z,14837099271196.70
2011-10-04T14:30:00Z,14856859498405.70
2011-10-05T14:30:00Z,14858050692069.50
2011-10-06T14:30:00Z,14836776365856.50
2011-10-07T14:30:00Z,14860324039615.00
2011-10-11T14:30:00Z,14863312407851.30
2011-10-12T14:30:00Z,14868218296426.00
2011-10-13T14:30:00Z,14873884337768.90
2011-10-14T14:30:00Z,14874045668291.30
2011-10-17T14:30:00Z,14936592327091.30
2011-10-18T14:30:00Z,14942750688961.00
2011-10-19T14:30:00Z,14931296186933.20
2011-10-20T14:30:00Z,14940365910718.10
2011-10-21T14:30:00Z,14939232547985.00
2011-10-24T14:30:00Z,14940671706465.70
2011-10-25T14:30:00Z,14943613298774.70
2011-10-26T14:30:00Z,14937008744814.40
2011-10-27T14:30:00Z,14939575648588.50
2011-10-28T14:30:00Z,14937858721060.00
2011-10-31T14:30:00Z,14993709044140.70
2011-11-01T14:30:00Z,14971831021178.30
2011-11-02T14:30:00Z,14977962674363.80
2011-11-03T14:30:00Z,14973228608405.00
2011-11-04T14:30:00Z,14972665280820.90
2011-11-07T14:30:00Z,14976508611373.80
2011-11-08T14:30:00Z,14982443553379.40
2011-11-09T14:30:00Z,14973303402570.90
2011-11-10T14:30:00Z,14979610349742.60
2011-11-14T14:30:00Z,14977884880834.30
2011-11-15T14:30:00Z,15033607255920.30
2011-11-16T14:30:00Z,15026993847879.10
2011-11-17T14:30:00Z,15039350324589.20
2011-11-18T14:30:00Z,15040208108195.30
2011-11-21T14:30:00Z,15042288403018.40
2011-11-22T14:30:00Z,15047991504929.30
2011-11-23T14:30:00Z,15035881015969.20
2011-11-25T14:30:00Z,15048875933765.90
2011-11-28T14:30:00Z,15051673595197.90
2011-11-29T14:30:00Z,15054163621371.20
2011-11-30T14:30:00Z,15110498560876.70
2011-12-01T14:30:00Z,15088441787407.60
2011-12-02T14:30:00Z,15073380701589.50
2011-12-05T14:30:00Z,15068133903969.10
2011-12-06T14:30:00Z,15071624794970.60
2011-12-07T14:30:00Z,15046397725405.10
2011-12-08T14:30:00Z,15051160989938.20
2011-12-09T14:30:00Z,15052444423722.80
2011-12-12T14:30:00Z,15054018277569.00
2011-12-13T14:30:00Z,15060274082298.80
2011-12-14T14:30:00Z,15051286197149.70
2011-12-15T14:30:00Z,15098098486788.80
2011-12-16T14:30:00Z,15099497460357.50
2011-12-19T14:30:00Z,15104054667691.40
2011-12-20T14:30:00Z,15131979264288.80
2011-12-21T14:30:00Z,15123841039390.30
2011-12-22T14:30:00Z,15123728427980.10
2011-12-23T14:30:00Z,15128573259990.50
2011-12-27T14:30:00Z,15130583332494.90
2011-12-28T14:30:00Z,15125205774064.00
2011-12-29T14:30:00Z,15125898976397.10
2011-12-30T14:30:00Z,15222940045451.00
2012-01-03T14:30:00Z,15226217488652.30
2012-01-04T14:30:00Z,15236542247490.80
2012-01-05T14:30:00Z,15236541899973.10
2012-01-06T14:30:00Z,15236532960597.70
2012-01-09T14:30:00Z,15236506139986.80
2012-01-10T14:30:00Z,15236497198899.70
2012-01-11T14:30:00Z,15236307075631.50
2012-01-12T14:30:00Z,15236332233848.30
2012-01-13T14:30:00Z,15236323396400.40
2012-01-17T14:30:00Z,15236288061558.60
2012-01-18T14:30:00Z,15236279221858.30
2012-01-19T14:30:00Z,15236280735687.70
2012-01-20T14:30:00Z,15236271879792.70
2012-01-23T14:30:00Z,15236245309869.60
2012-01-24T14:30:00Z,15236236452380.40
2012-01-25T14:30:00Z,15236227594419.30
2012-01-26T14:30:00Z,15236231788440.20
2012-01-27T14:30:00Z,15236222907480.60
2012-01-30T14:30:00Z,15295052578718.00
2012-01-31T14:30:00Z,15356140493616.00
2012-02-01T14:30:00Z,15330778119850.60
2012-02-02T14:30:00Z,15351406294640.40
2012-02-03T14:30:00Z,15335108283338.50
2012-02-06T14:30:00Z,15337881657918.10
2012-02-07T14:30:00Z,15343504866785.60
2012-02-08T14:30:00Z,15335666215381.00
2012-02-09T14:30:00Z,15355838921022.10
2012-02-10T14:30:00Z,15354108706908.50
2012-02-13T14:30:00Z,15355198335393.60
2012-02-14T14:30:00Z,15359384163919.50
2012-02-15T14:30:00Z,15391735627010.10
2012-02-16T14:30:00Z,15413030984842.10
2012-02-17T14:30:00Z,15416593980013.00
2012-02-21T14:30:00Z,15419800222325.10
2012-02-22T14:30:00Z,15416323644046.70
2012-02-23T14:30:00Z,15435694556033.20
2012-02-24T14:30:00Z,15437987849460.90
2012-02-27T14:30:00Z,15438518062690.30
2012-02-28T14:30:00Z,15442120983663.80
2012-02-29T14:30:00Z,15488891296248.00
2012-03-01T14:30:00Z,15501014716143.70
2012-03-02T14:30:00Z,15489873651597.40
2012-03-05T14:30:00Z,15491983252196.40
2012-03-06T14:30:00Z,15499023629682.40
2012-03-07T14:30:00Z,15498306692627.90
2012-03-08T14:30:00Z,15517794642311.20
2012-03-09T14:30:00Z,15517051724148.90
2012-03-12T14:30:00Z,15519140875930.80
2012-03-13T14:30:00Z,15524177849489.60
2012-03-14T14:30:00Z,15516449945583.70
2012-03-15T14:30:00Z,15564809891767.90
2012-03-16T14:30:00Z,15566570829745.90
2012-03-19T14:30:00Z,15574238368104.80
2012-03-20T14:30:00Z,15583383846149.30
2012-03-21T14:30:00Z,15574428564198.30
2012-03-22T14:30:00Z,15584905894127.20
2012-03-23T14:30:00Z,15585576040333.70
2012-03-26T14:30:00Z,15586074570040.70
2012-03-27T14:30:00Z,15589407415161.70
2012-03-28T14:30:00Z,15580211803539.40
2012-03-29T14:30:00Z,15579852946457.60
2012-03-30T14:30:00Z,15582078681188.60
2012-04-02T14:30:00Z,15620325998403.90
2012-04-03T14:30:00Z,15616846574939.20
2012-04-04T14:30:00Z,15617722544078.90
2012-04-05T14:30:00Z,15619740170408.30
2012-04-06T14:30:00Z,15618640279582.90
2012-04-09T14:30:00Z,15621445734132.80
2012-04-10T14:30:00Z,15626832596694.90
2012-04-11T14:30:00Z,15618088043505.60
2012-04-12T14:30:00Z,15614994767843.30
2012-04-13T14:30:00Z,15615726037322.60
2012-04-16T14:30:00Z,15654638525397.60
2012-04-17T14:30:00Z,15661574232598.80
2012-04-18T14:30:00Z,15660736663887.90
2012-04-19T14:30:00Z,15615590975022.30
2012-04-20T14:30:00Z,15617358530369.90
2012-04-23T14:30:00Z,15620174049560.20
2012-04-24T14:30:00Z,15628266498708.00
2012-04-25T14:30:00Z,15623285528454.40
2012-04-26T14:30:00Z,15624347610476.80
2012-04-27T14:30:00Z,15623697207417.30
2012-04-30T14:30:00Z,15692368067305.20
2012-05-01T14:30:00Z,15673229738379.90
2012-05-02T14:30:00Z,15680495896140.50
2012-05-03T14:30:00Z,15671202480642.90
2012-05-04T14:30:00Z,15671916356611.30
2012-05-07T14:30:00Z,15675791363404.10
2012-05-08T14:30:00Z,15685726985716.40
2012-05-09T14:30:00Z,15674047733490.90
2012-05-10T14:30:00Z,15674689177258.50
2012-05-11T14:30:00Z,15674182767474.30
2012-05-14T14:30:00Z,15676996273860.80
2012-05-15T14:30:00Z,15716115612805.00
2012-05-16T14:30:00Z,15708753671767.60
2012-05-17T14:30:00Z,15712823135725.80
2012-05-18T14:30:00Z,15712206657211.00
2012-05-21T14:30:00Z,15715461162489.20
2012-05-22T14:30:00Z,15721218607447.00
2012-05-23T14:30:00Z,15714297615655.60
2012-05-24T14:30:00Z,15712446368243.60
2012-05-25T14:30:00Z,15711600946205.90
2012-05-29T14:30:00Z,15713655602953.20
2012-05-30T14:30:00Z,15716625300450.60
2012-05-31T14:30:00Z,15770685085364.10
2012-06-01T14:30:00Z,15724907364995.00
2012-06-04T14:30:00Z,15728112402859.90
2012-06-05T14:30:00Z,15733409283200.10
2012-06-06T14:30:00Z,15734596578458.50
2012-06-07T14:30:00Z,15733369432140.80
2012-06-08T14:30:00Z,15735363673245.80
2012-06-11T14:30:00Z,15737910187514.80
2012-06-12T14:30:00Z,15744360700064.80
2012-06-13T14:30:00Z,15735182423771.70
2012-06-14T14:30:00Z,15736971094472.10
2012-06-15T14:30:00Z,15772177351447.10
2012-06-18T14:30:00Z,15776139241010.30
2012-06-19T14:30:00Z,15784676619110.60
2012-06-20T14:30:00Z,15777954587181.90
2012-06-21T14:30:00Z,15779643362484.60
2012-06-22T14:30:00Z,15778438599568.20
2012-06-25T14:30:00Z,15782570144097.90
2012-06-26T14:30:00Z,15789104033603.70
2012-06-27T14:30:00Z,15778950543472.60
2012-06-28T14:30:00Z,15780999920520.10
2012-06-29T14:30:00Z,15856367214324.40
2012-07-02T14:30:00Z,15888741858820.60
2012-07-03T14:30:00Z,15880986464325.20
2012-07-05T14:30:00Z,15876652312551.20
2012-07-06T14:30:00Z,15879528608975.10
2012-07-09T14:30:00Z,15879266313073.20
2012-07-10T14:30:00Z,15885854755351.40
2012-07-11T14:30:00Z,15876457645132.60
2012-07-12T14:30:00Z,15871512181712.20
2012-07-13T14:30:00Z,15871166712270.80
2012-07-16T14:30:00Z,15875734673516.00
2012-07-17T14:30:00Z,15884155929632.00
2012-07-18T14:30:00Z,15874046715877.50
2012-07-19T14:30:00Z,15874365457260.40
2012-07-20T14:30:00Z,15874876409526.40
2012-07-23T14:30:00Z,15877234078986.00
2012-07-24T14:30:00Z,15882491122065.60
2012-07-25T14:30:00Z,15874859322768.40
2012-07-26T14:30:00Z,15879556244052.90
2012-07-27T14:30:00Z,15878374495398.40
2012-07-30T14:30:00Z,15873767378850.10
2012-07-31T14:30:00Z,15933234637493.50
2012-08-01T14:30:00Z,15907138660280.90
2012-08-02T14:30:00Z,15920591039091.80
2012-08-03T14:30:00Z,15904628648096.10
2012-08-06T14:30:00Z,15908699525928.40
2012-08-07T14:30:00Z,15912062243224.70
2012-08-08T14:30:00Z,15903941392436.30
2012-08-09T14:30:00Z,15915814457919.40
2012-08-10T14:30:00Z,15914973399362.50
2012-08-13T14:30:00Z,15915547390139.90
2012-08-14T14:30:00Z,15919488010442.70
2012-08-15T14:30:00Z,15944869685894.90
2012-08-16T14:30:00Z,15957959655187.20
2012-08-17T14:30:00Z,15962054850397.90
2012-08-20T14:30:00Z,15964767302206.60
2012-08-21T14:30:00Z,15970134937605.00
2012-08-22T14:30:00Z,15960468522111.20
2012-08-23T14:30:00Z,15976519029144.10
2012-08-24T14:30:00Z,15974809707529.10
2012-08-27T14:30:00Z,15975222200557.20
2012-08-28T14:30:00Z,15978918589911.70
2012-08-29T14:30:00Z,15978184771159.20
2012-08-30T14:30:00Z,15990541092391.90
2012-08-31T14:30:00Z,16015769788215.80
2012-09-04T14:30:00Z,16008060301079.10
2012-09-05T14:30:00Z,16020684444134.50
2012-09-06T14:30:00Z,16045515411416.80
2012-09-07T14:30:00Z,16046680286836.30
2012-09-10T14:30:00Z,16048018310212.90
2012-09-11T14:30:00Z,16054953743219.10
2012-09-12T14:30:00Z,16046337277273.30
2012-09-13T14:30:00Z,16045678692730.60
2012-09-14T14:30:00Z,16045783217833.70
2012-09-17T14:30:00Z,16008938323880.90
2012-09-18T14:30:00Z,16020975194914.80
2012-09-19T14:30:00Z,16012971761294.50
2012-09-20T14:30:00Z,16014424023771.60
2012-09-21T14:30:00Z,16016101949370.00
2012-09-24T14:30:00Z,16017841062517.00
2012-09-25T14:30:00Z,16022742650424.30
2012-09-26T14:30:00Z,16015837297632.30
2012-09-27T14:30:00Z,16015131024562.50
2012-09-28T14:30:00Z,16066241407385.80
2012-10-01T14:30:00Z,16159487013300.30
2012-10-02T14:30:00Z,16171037343408.50
2012-10-03T14:30:00Z,16153318273015.00
2012-10-04T14:30:00Z,16161879857156.60
2012-10-05T14:30:00Z,16161866671342.00
2012-10-09T14:30:00Z,16167932295919.50
2012-10-10T14:30:00Z,16157753419211.10
2012-10-11T14:30:00Z,16158270866947.20
2012-10-12T14:30:00Z,16157542962383.10
2012-10-15T14:30:00Z,16190979268766.60
2012-10-16T14:30:00Z,16199574839671.30
2012-10-17T14:30:00Z,16193100189055.20
2012-10-18T14:30:00Z,16198174452215.20
2012-10-19T14:30:00Z,16196052388163.20
2012-10-22T14:30:00Z,16198677971774.40
2012-10-23T14:30:00Z,16203845445635.70
2012-10-24T14:30:00Z,16194791826674.80
2012-10-25T14:30:00Z,16197082554040.00
2012-10-26T14:30:00Z,16197815714310.70
2012-10-29T14:30:00Z,16198993554072.30
2012-10-30T14:30:00Z,16204061671104.80
2012-10-31T14:30:00Z,16261470510720.70
2012-11-01T14:30:00Z,16221685381838.20
2012-11-02T14:30:00Z,16206129028709.20
2012-11-05T14:30:00Z,16209959246534.10
2012-11-06T14:30:00Z,16214358823745.30
2012-11-07T14:30:00Z,16213982129207.30
2012-11-08T14:30:00Z,16245318820569.30
2012-11-09T14:30:00Z,16244708707467.20
2012-11-13T14:30:00Z,16248293041003.50
2012-11-14T14:30:00Z,16244384093831.90
2012-11-15T14:30:00Z,16278932378520.90
2012-11-16T14:30:00Z,16281329916599.60
2012-11-19T14:30:00Z,16286110428799.00
2012-11-20T14:30:00Z,16292689481349.80
2012-11-21T14:30:00Z,16283161895179.80
2012-11-23T14:30:00Z,16307488943564.20
2012-11-26T14:30:00Z,16309738056362.40
2012-11-27T14:30:00Z,16317681766441.40
2012-11-28T14:30:00Z,16306713138468.80
2012-11-29T14:30:00Z,16323083449604.90
2012-11-30T14:30:00Z,16369548799604.90
2012-12-03T14:30:00Z,16338092943716.60
2012-12-04T14:30:00Z,16347055651380.30
2012-12-05T14:30:00Z,16337928777944.10
2012-12-06T14:30:00Z,16366436891948.00
2012-12-07T14:30:00Z,16365370575377.40
2012-12-10T14:30:00Z,16370056245929.60
2012-12-11T14:30:00Z,16375874429255.50
2012-12-12T14:30:00Z,16366422407639.90
2012-12-13T14:30:00Z,16369984159473.80
2012-12-14T14:30:00Z,16359576959576.40
2012-12-17T14:30:00Z,16351193522286.90
2012-12-18T14:30:00Z,16359758742907.70
2012-12-19T14:30:00Z,16352043784079.60
2012-12-20T14:30:00Z,16334217015073.40
2012-12-21T14:30:00Z,16336217360826.40
2012-12-24T14:30:00Z,16337556561533.60
2012-12-26T14:30:00Z,16337860200635.00
2012-12-27T14:30:00Z,16338243391747.00
2012-12-28T14:30:00Z,16336461552606.30
2012-12-31T14:30:00Z,16432730050569.10
2013-01-02T14:30:00Z,16432705914255.40
2013-01-03T14:30:00Z,16431219143696.50
2013-01-04T14:30:00Z,16432707263449.50
2013-01-07T14:30:00Z,16432671087771.60
2013-01-08T14:30:00Z,16432659028067.50
2013-01-09T14:30:00Z,16432646968419.60
2013-01-10T14:30:00Z,16432692129510.80
2013-01-11T14:30:00Z,16432680097613.80
2013-01-14T14:30:00Z,16432643996680.60
2013-01-15T14:30:00Z,16432632102288.60
2013-01-16T14:30:00Z,16432620067491.40
2013-01-17T14:30:00Z,16432631489854.70
2013-01-18T14:30:00Z,16432619424703.00
2013-01-22T14:30:00Z,16432571159411.50
2013-01-23T14:30:00Z,16432559091945.90
2013-01-24T14:30:00Z,16432567939377.30
2013-01-25T14:30:00Z,16432555923758.90
2013-01-28T14:30:00Z,16432519875802.90
2013-01-29T14:30:00Z,16432507858820.40
2013-01-30T14:30:00Z,16432495841444.60
2013-01-31T14:30:00Z,16433791850294.00
2013-02-01T14:30:00Z,16433779913880.30
2013-02-04T14:30:00Z,16475048398165.70
2013-02-05T14:30:00Z,16480910656603.90
2013-02-06T14:30:00Z,16479954658103.50
2013-02-07T14:30:00Z,16487564297892.00
2013-02-08T14:30:00Z,16488908847828.20
2013-02-11T14:30:00Z,16489930650594.10
2013-02-12T14:30:00Z,16494367339423.60
2013-02-13T14:30:00Z,16524304599079.00
2013-02-14T14:30:00Z,16540800290147.40
2013-02-15T14:30:00Z,16548926805129.30
2013-02-19T14:30:00Z,16552819142207.40
2013-02-20T14:30:00Z,16588751035306.30
2013-02-21T14:30:00Z,16608318357376.50
2013-02-22T14:30:00Z,16609040800845.50
2013-02-25T14:30:00Z,16610557777904.90
2013-02-26T14:30:00Z,16618701810927.70
2013-02-27T14:30:00Z,16607216503950.70
2013-02-28T14:30:00Z,16687289180215.30
2013-03-01T14:30:00Z,16640135316625.30
2013-03-04T14:30:00Z,16649703459968.00
2013-03-05T14:30:00Z,16663709478521.00
2013-03-06T14:30:00Z,16692238790019.20
2013-03-07T14:30:00Z,16701250641109.60
2013-03-08T14:30:00Z,16701846937879.70
2013-03-11T14:30:00Z,16703943129416.10
2013-03-12T14:30:00Z,16709976214794.40
2013-03-13T14:30:00Z,16700634854470.50
2013-03-14T14:30:00Z,16708225460175.10
2013-03-15T14:30:00Z,16731693041858.10
2013-03-18T14:30:00Z,16736188026047.80
2013-03-19T14:30:00Z,16749269587407.50
2013-03-20T14:30:00Z,16739939855865.30
2013-03-21T14:30:00Z,16750130322121.00
2013-03-22T14:30:00Z,16749924938094.40
2013-03-25T14:30:00Z,16753443064898.80
2013-03-26T14:30:00Z,16759063744572.40
2013-03-27T14:30:00Z,16749482454905.80
2013-03-28T14:30:00Z,16766988432792.60
2013-03-29T14:30:00Z,16771379006760.30
2013-04-01T14:30:00Z,16792120009606.80
2013-04-02T14:30:00Z,16804876955116.70
2013-04-03T14:30:00Z,16786970142478.80
2013-04-04T14:30:00Z,16798051589934.60
2013-04-05T14:30:00Z,16797828899086.80
2013-04-08T14:30:00Z,16802515751907.60
2013-04-09T14:30:00Z,16808274414207.10
2013-04-10T14:30:00Z,16798984234792.30
2013-04-11T14:30:00Z,16808067104144.00
2013-04-12T14:30:00Z,16808240386273.50
2013-04-15T14:30:00Z,16801307487216.50
2013-04-16T14:30:00Z,16812065609373.20
2013-04-17T14:30:00Z,16807270364907.30
2013-04-18T14:30:00Z,16779469574292.60
2013-04-19T14:30:00Z,16781967702405.30
2013-04-22T14:30:00Z,16787451118147.30
2013-04-23T14:30:00Z,16798952599955.50
2013-04-24T14:30:00Z,16794349827897.30
2013-04-25T14:30:00Z,16758107082298.60
2013-04-26T14:30:00Z,16756644393707.00
2013-04-29T14:30:00Z,16758168229380.20
2013-04-30T14:30:00Z,16828845497183.90
2013-05-01T14:30:00Z,16805036884755.00
2013-05-02T14:30:00Z,16794979173216.60
2013-05-03T14:30:00Z,16780900194134.10
2013-05-06T14:30:00Z,16788427184539.40
2013-05-07T14:30:00Z,16795552390198.40
2013-05-08T14:30:00Z,16784106881842.70
2013-05-09T14:30:00Z,16754734781812.80
2013-05-10T14:30:00Z,16753992575790.10
2013-05-13T14:30:00Z,16755788437042.40
2013-05-14T14:30:00Z,16760961851934.60
2013-05-15T14:30:00Z,16765040725133.70
2013-05-16T14:30:00Z,16734808644648.00
2013-05-17T14:30:00Z,16737328238148.10
2013-05-20T14:30:00Z,16737294304715.50
2013-05-21T14:30:00Z,16737282992090.70
2013-05-22T14:30:00Z,16734032974210.20
2013-05-23T14:30:00Z,16736576618573.30
2013-05-24T14:30:00Z,16735424271257.80
2013-05-28T14:30:00Z,16737219726401.20
2013-05-29T14:30:00Z,16737208536433.80
2013-05-30T14:30:00Z,16737246099998.80
2013-05-31T14:30:00Z,16738821943986.10
2013-06-03T14:30:00Z,16738788832145.30
2013-06-04T14:30:00Z,16738778336691.50
2013-06-05T14:30:00Z,16738767256596.60
2013-06-06T14:30:00Z,16738770826158.50
2013-06-07T14:30:00Z,16738759828986.40
2013-06-10T14:30:00Z,16738726834732.30
2013-06-11T14:30:00Z,16738715835680.50
2013-06-12T14:30:00Z,16738704836178.50
2013-06-13T14:30:00Z,16738708293971.50
2013-06-14T14:30:00Z,16738697370019.80
2013-06-17T14:30:00Z,16738664595327.60
2013-06-18T14:30:00Z,16738653639711.50
2013-06-19T14:30:00Z,16738642755073.30
2013-06-20T14:30:00Z,16738645811490.40
2013-06-21T14:30:00Z,16738634995209.70
2013-06-24T14:30:00Z,16738602543527.10
2013-06-25T14:30:00Z,16738591725217.10
2013-06-26T14:30:00Z,16738580905836.30
2013-06-27T14:30:00Z,16738629048819.00
2013-06-28T14:30:00Z,16738320054489.20
2013-07-01T14:30:00Z,16738309305648.20
2013-07-02T14:30:00Z,16738298556333.20
2013-07-03T14:30:00Z,16738287806544.20
2013-07-05T14:30:00Z,16738281074058.70
2013-07-08T14:30:00Z,16738249094798.80
2013-07-09T14:30:00Z,16738238434108.90
2013-07-10T14:30:00Z,16738227772946.00
2013-07-11T14:30:00Z,16738230684008.80
2013-07-12T14:30:00Z,16738220086104.50
2013-07-15T14:30:00Z,16738188365630.00
2013-07-16T14:30:00Z,16738177765933.40
2013-07-17T14:30:00Z,16738167165761.50
2013-07-18T14:30:00Z,16738168990385.70
2013-07-19T14:30:00Z,16738158460368.60
2013-07-22T14:30:00Z,16738126867888.50
2013-07-23T14:30:00Z,16738116336111.10
2013-07-24T14:30:00Z,16738105803858.20
2013-07-25T14:30:00Z,16738136405384.60
2013-07-26T14:30:00Z,16738125957131.00
2013-07-29T14:30:00Z,16738094608381.00
2013-07-30T14:30:00Z,16738084158233.50
2013-07-31T14:30:00Z,16738599194294.80
2013-08-01T14:30:00Z,16738600261139.00
2013-08-02T14:30:00Z,16738589818505.90
2013-08-05T14:30:00Z,16738558487748.50
2013-08-06T14:30:00Z,16738548043209.60
2013-08-07T14:30:00Z,16738537598194.20
2013-08-08T14:30:00Z,16738541240281.10
2013-08-09T14:30:00Z,16738530794717.40
2013-08-12T14:30:00Z,16738499455164.90
2013-08-13T14:30:00Z,16738489007693.40
2013-08-14T14:30:00Z,16738478559738.10
2013-08-15T14:30:00Z,16738484642516.80
2013-08-16T14:30:00Z,16738474221654.90
2013-08-19T14:30:00Z,16738442956309.10
2013-08-20T14:30:00Z,16738432533607.00
2013-08-21T14:30:00Z,16738422110434.90
2013-08-22T14:30:00Z,16738460765994.00
2013-08-23T14:30:00Z,16738450395371.10
2013-08-26T14:30:00Z,16738419280739.50
2013-08-27T14:30:00Z,16738408908240.10
2013-08-28T14:30:00Z,16738398535315.90
2013-08-29T14:30:00Z,16738401335152.10
2013-08-30T14:30:00Z,16738649841392.70
2013-09-03T14:30:00Z,16738618787875.30
2013-09-04T14:30:00Z,16738608435751.20
2013-09-05T14:30:00Z,16738608362951.80
2013-09-06T14:30:00Z,16738598129329.00
2013-09-09T14:30:00Z,16738567425782.40
2013-09-10T14:30:00Z,16738557190345.30
2013-09-11T14:30:00Z,16738546954446.60
2013-09-12T14:30:00Z,16738543125208.30
2013-09-13T14:30:00Z,16738533025135.60
2013-09-16T14:30:00Z,16738502722145.90
2013-09-17T14:30:00Z,16738492645235.00
2013-09-18T14:30:00Z,16738482606783.00
2013-09-19T14:30:00Z,16738503812337.70
2013-09-20T14:30:00Z,16738493983660.00
2013-09-23T14:30:00Z,16738464494846.80
2013-09-24T14:30:00Z,16738454664319.30
2013-09-25T14:30:00Z,16738444833205.50
2013-09-26T14:30:00Z,16738443175473.90
2013-09-27T14:30:00Z,16738433470635.60
2013-09-30T14:30:00Z,16738183526697.30
2013-10-01T14:30:00Z,16747478675335.10
2013-10-02T14:30:00Z,16747468940509.70
2013-10-03T14:30:00Z,16747468275799.20
2013-10-04T14:30:00Z,16747458528953.00
2013-10-07T14:30:00Z,16747429285635.10
2013-10-08T14:30:00Z,16747419536935.40
2013-10-09T14:30:00Z,16747409787772.30
2013-10-10T14:30:00Z,16747421858503.20
2013-10-11T14:30:00Z,16747411584091.50
2013-10-15T14:30:00Z,16747370534090.60
2013-10-16T14:30:00Z,16747360549057.20
2013-10-17T14:30:00Z,17075590107963.50
2013-10-18T14:30:00Z,17074260390144.90
2013-10-21T14:30:00Z,17075230597788.30
2013-10-22T14:30:00Z,17078769687926.60
2013-10-23T14:30:00Z,17067881125283.80
2013-10-24T14:30:00Z,17077729309281.50
2013-10-25T14:30:00Z,17076507741269.40
2013-10-28T14:30:00Z,17081509219288.50
2013-10-29T14:30:00Z,17090753527402.40
2013-10-30T14:30:00Z,17088263258631.00
2013-10-31T14:30:00Z,17156117102204.40
2013-11-01T14:30:00Z,17108598955343.80
2013-11-04T14:30:00Z,17116705114727.90
2013-11-05T14:30:00Z,17121761484979.40
2013-11-06T14:30:00Z,17121570995931.60
2013-11-07T14:30:00Z,17149154023335.80
2013-11-08T14:30:00Z,17151627467959.50
2013-11-12T14:30:00Z,17154624205951.00
2013-11-13T14:30:00Z,17149193429752.10
2013-11-14T14:30:00Z,17183316943225.50
2013-11-15T14:30:00Z,17189547404790.40
2013-11-18T14:30:00Z,17192878839268.30
2013-11-19T14:30:00Z,17200725370597.50
2013-11-20T14:30:00Z,17190225699170.90
2013-11-21T14:30:00Z,17208963804203.70
2013-11-22T14:30:00Z,17209511322941.90
2013-11-25T14:30:00Z,17211829040346.00
2013-11-26T14:30:00Z,17219110204136.20
2013-11-27T14:30:00Z,17203336836345.10
2013-11-29T14:30:00Z,17217151645105.80
2013-12-02T14:30:00Z,17235032379905.80
2013-12-03T14:30:00Z,17223254862815.30
2013-12-04T14:30:00Z,17222092499153.60
2013-12-05T14:30:00Z,17228699889181.60
2013-12-06T14:30:00Z,17227010669351.90
2013-12-09T14:30:00Z,17230345583111.50
2013-12-10T14:30:00Z,17234005998603.90
2013-12-11T14:30:00Z,17222454811203.70
2013-12-12T14:30:00Z,17226015851914.40
2013-12-13T14:30:00Z,17224129200180.80
2013-12-16T14:30:00Z,17259029055459.10
2013-12-17T14:30:00Z,17268587651056.20
2013-12-18T14:30:00Z,17258809832599.00
2013-12-19T14:30:00Z,17251528475994.10
2013-12-20T14:30:00Z,17250434606977.30
2013-12-23T14:30:00Z,17250656426380.20
2013-12-24T14:30:00Z,17248088481989.80
2013-12-26T14:30:00Z,17226097907646.20
2013-12-27T14:30:00Z,17226267273544.30
2013-12-30T14:30:00Z,17226768075403.10
2013-12-31T14:30:00Z,17351970784950.10
2014-01-02T14:30:00Z,17315970933899.60
2014-01-03T14:30:00Z,17308849523342.90
2014-01-06T14:30:00Z,17310216315568.90
2014-01-07T14:30:00Z,17315227613858.70
2014-01-08T14:30:00Z,17306977954400.10
2014-01-09T14:30:00Z,17281164714573.40
2014-01-10T14:30:00Z,17280842092016.10
2014-01-13T14:30:00Z,17282527565175.00
2014-01-14T14:30:00Z,17287251611151.60
2014-01-15T14:30:00Z,17286874322095.90
2014-01-16T14:30:00Z,17270240354364.80
2014-01-17T14:30:00Z,17273683713523.00
2014-01-21T14:30:00Z,17276126988070.60
2014-01-22T14:30:00Z,17273488616875.10
2014-01-23T14:30:00Z,17261485887733.00
2014-01-24T14:30:00Z,17263279883739.60
2014-01-27T14:30:00Z,17266723744017.00
2014-01-28T14:30:00Z,17271931802733.20
2014-01-29T14:30:00Z,17272506995913.70
2014-01-30T14:30:00Z,17249265796405.00
2014-01-31T14:30:00Z,17293019654983.60
2014-02-03T14:30:00Z,17263040455036.20
2014-02-04T14:30:00Z,17280020592178.90
2014-02-05T14:30:00Z,17281222665378.60
2014-02-06T14:30:00Z,17258482479004.30
2014-02-07T14:30:00Z,17258824690537.50
2014-02-10T14:30:00Z,17258793918103.20
2014-02-11T14:30:00Z,17258792658336.60
2014-02-12T14:30:00Z,17258782272265.10
2014-02-13T14:30:00Z,17258805514290.90
2014-02-14T14:30:00Z,17258795000703.00
2014-02-18T14:30:00Z,17384649566329.30
2014-02-19T14:30:00Z,17385409685452.00
2014-02-20T14:30:00Z,17409111636454.40
2014-02-21T14:30:00Z,17411178036656.20
2014-02-24T14:30:00Z,17413220474647.90
2014-02-25T14:30:00Z,17419220117766.60
2014-02-26T14:30:00Z,17410830777447.30
2014-02-27T14:30:00Z,17426891428702.40
2014-02-28T14:30:00Z,17463228562652.90
2014-03-03T14:30:00Z,17444385246890.50
2014-03-04T14:30:00Z,17467228205267.40
2014-03-05T14:30:00Z,17467541352870.00
2014-03-06T14:30:00Z,17491871158767.40
2014-03-07T14:30:00Z,17491079219453.80
2014-03-10T14:30:00Z,17495622444209.70
2014-03-11T14:30:00Z,17501576037738.00
2014-03-12T14:30:00Z,17491372091598.40
2014-03-13T14:30:00Z,17511461705211.80
2014-03-14T14:30:00Z,17511659595323.90
2014-03-17T14:30:00Z,17546814482078.90
2014-03-18T14:30:00Z,17559060160057.70
2014-03-19T14:30:00Z,17549497313923.60
2014-03-20T14:30:00Z,17546932628558.00
2014-03-21T14:30:00Z,17548206894037.00
2014-03-24T14:30:00Z,17550128150467.40
2014-03-25T14:30:00Z,17555984029917.00
2014-03-26T14:30:00Z,17544080042932.50
2014-03-27T14:30:00Z,17533579816074.10
2014-03-28T14:30:00Z,17554275708064.70
2014-03-31T14:30:00Z,17601227291213.80
2014-04-01T14:30:00Z,17578141920035.60
2014-04-02T14:30:00Z,17585625829197.80
2014-04-03T14:30:00Z,17554778670289.30
2014-04-04T14:30:00Z,17555437713940.20
2014-04-07T14:30:00Z,17559603867896.40
2014-04-08T14:30:00Z,17567074702635.00
2014-04-09T14:30:00Z,17556587058571.70
2014-04-10T14:30:00Z,17539023466494.90
2014-04-11T14:30:00Z,17538602387972.80
2014-04-14T14:30:00Z,17541896989433.70
2014-04-15T14:30:00Z,17576842289814.80
2014-04-16T14:30:00Z,17571837454552.90
2014-04-17T14:30:00Z,17512421133896.10
2014-04-18T14:30:00Z,17516581643567.10
2014-04-21T14:30:00Z,17521417830074.70
2014-04-22T14:30:00Z,17528980978730.90
2014-04-23T14:30:00Z,17525948567765.50
2014-04-24T14:30:00Z,17437874260412.10
2014-04-25T14:30:00Z,17436444226130.20
2014-04-28T14:30:00Z,17440764612875.80
2014-04-29T14:30:00Z,17447321527551.10
2014-04-30T14:30:00Z,17508437127661.60
2014-05-01T14:30:00Z,17474314085413.20
2014-05-02T14:30:00Z,17468093940076.30
2014-05-05T14:30:00Z,17473168572574.10
2014-05-06T14:30:00Z,17484285711524.00
2014-05-07T14:30:00Z,17484100151856.20
2014-05-08T14:30:00Z,17472051696926.10
2014-05-09T14:30:00Z,17472278485983.20
2014-05-12T14:30:00Z,17472131682925.40
2014-05-13T14:30:00Z,17477954685990.20
2014-05-14T14:30:00Z,17466359022192.10
2014-05-15T14:30:00Z,17471572575280.70
2014-05-16T14:30:00Z,17473133162652.10
2014-05-19T14:30:00Z,17479199305480.70
2014-05-20T14:30:00Z,17485062209497.40
2014-05-21T14:30:00Z,17475322147342.40
2014-05-22T14:30:00Z,17488395174401.70
2014-05-23T14:30:00Z,17490453119908.90
2014-05-27T14:30:00Z,17494957564945.40
2014-05-28T14:30:00Z,17490047622577.60
2014-05-29T14:30:00Z,17502870380161.90
2014-05-30T14:30:00Z,17516958495107.70
2014-06-02T14:30:00Z,17524872541725.10
2014-06-03T14:30:00Z,17517597022244.80
2014-06-04T14:30:00Z,17518074536326.30
2014-06-05T14:30:00Z,17544581789209.80
2014-06-06T14:30:00Z,17543976854111.70
2014-06-09T14:30:00Z,17548899562327.20
2014-06-10T14:30:00Z,17555165805212.20
2014-06-11T14:30:00Z,17544440933912.90
2014-06-12T14:30:00Z,17536614238239.10
2014-06-13T14:30:00Z,17536123426853.10
2014-06-16T14:30:00Z,17569041604920.90
2014-06-17T14:30:00Z,17581114237583.10
2014-06-18T14:30:00Z,17571991775280.00
2014-06-19T14:30:00Z,17532488016268.40
2014-06-20T14:30:00Z,17529945473040.60
2014-06-23T14:30:00Z,17535731914061.50
2014-06-24T14:30:00Z,17545861055228.60
2014-06-25T14:30:00Z,17533149947693.10
2014-06-26T14:30:00Z,17512592730101.90
2014-06-27T14:30:00Z,17524460363250.30
2014-06-30T14:30:00Z,17632606234365.90
2014-07-01T14:30:00Z,17602672273372.60
2014-07-02T14:30:00Z,17609721841195.60
2014-07-03T14:30:00Z,17586595427577.20
2014-07-07T14:30:00Z,17588757555596.10
2014-07-08T14:30:00Z,17596427039854.50
2014-07-09T14:30:00Z,17586759896863.90
2014-07-10T14:30:00Z,17591098482428.30
2014-07-11T14:30:00Z,17589434621637.90
2014-07-14T14:30:00Z,17591980437201.70
2014-07-15T14:30:00Z,17603731782433.70
2014-07-16T14:30:00Z,17594291030425.70
2014-07-17T14:30:00Z,17600503637303.30
2014-07-18T14:30:00Z,17599556606441.80
2014-07-21T14:30:00Z,17602846009056.50
2014-07-22T14:30:00Z,17610253000219.60
2014-07-23T14:30:00Z,17599231161990.50
2014-07-24T14:30:00Z,17613901518929.00
2014-07-25T14:30:00Z,17611454807678.70
2014-07-28T14:30:00Z,17613035203018.10
2014-07-29T14:30:00Z,17621751199943.70
2014-07-30T14:30:00Z,17618599653160.10
2014-07-31T14:30:00Z,17687136723410.50
2014-08-01T14:30:00Z,17631209292846.20
2014-08-04T14:30:00Z,17640751157460.10
2014-08-05T14:30:00Z,17649650881486.90
2014-08-06T14:30:00Z,17651845933132.40
2014-08-07T14:30:00Z,17670486142057.90
2014-08-08T14:30:00Z,17672734489595.10
2014-08-11T14:30:00Z,17675094670675.60
2014-08-12T14:30:00Z,17680354243586.40
2014-08-13T14:30:00Z,17667502388165.50
2014-08-14T14:30:00Z,17671687900979.80
2014-08-15T14:30:00Z,17678982503280.20
2014-08-18T14:30:00Z,17682532332244.60
2014-08-19T14:30:00Z,17692276725427.80
2014-08-20T14:30:00Z,17690033596105.50
2014-08-21T14:30:00Z,17709322691303.00
2014-08-22T14:30:00Z,17710260573782.80
2014-08-25T14:30:00Z,17712825868365.50
2014-08-26T14:30:00Z,17719515195854.40
2014-08-27T14:30:00Z,17708342668041.10
2014-08-28T14:30:00Z,17721613306706.10
2014-08-29T14:30:00Z,17749172392528.10
2014-09-02T14:30:00Z,17741639147858.10
2014-09-03T14:30:00Z,17734663408950.90
2014-09-04T14:30:00Z,17754467569229.70
2014-09-05T14:30:00Z,17756856045819.40
2014-09-08T14:30:00Z,17757884048448.00
2014-09-09T14:30:00Z,17764720406589.00
2014-09-10T14:30:00Z,17753539449528.80
2014-09-11T14:30:00Z,17742108970073.30
2014-09-12T14:30:00Z,17741170643844.80
2014-09-15T14:30:00Z,17760739788762.60
2014-09-16T14:30:00Z,17770878224353.80
2014-09-17T14:30:00Z,17764742713788.70
2014-09-18T14:30:00Z,17749820713747.80
2014-09-19T14:30:00Z,17749004354887.80
2014-09-22T14:30:00Z,17752082587972.00
2014-09-23T14:30:00Z,17759786274163.10
2014-09-24T14:30:00Z,17752790683108.80
2014-09-25T14:30:00Z,17741568558862.70
2014-09-26T14:30:00Z,17787535095914.10
2014-09-29T14:30:00Z,17781487901300.10
2014-09-30T14:30:00Z,17824071380733.80
2014-10-01T14:30:00Z,17875258091207.00
2014-10-02T14:30:00Z,17872947693176.60
2014-10-03T14:30:00Z,17858510713719.30
2014-10-06T14:30:00Z,17863004998073.00
2014-10-07T14:30:00Z,17867699034165.60
2014-10-08T14:30:00Z,17859802042524.60
2014-10-09T14:30:00Z,17859583673997.50
2014-10-10T14:30:00Z,17858480029490.20
2014-10-14T14:30:00Z,17861216378589.80
2014-10-15T14:30:00Z,17886964853466.80
2014-10-16T14:30:00Z,17899316084553.30
2014-10-17T14:30:00Z,17903370294898.80
2014-10-20T14:30:00Z,17904969580881.60
2014-10-21T14:30:00Z,17909673864034.60
2014-10-22T14:30:00Z,17898403405809.90
2014-10-23T14:30:00Z,17899001165157.90
2014-10-24T14:30:00Z,17898691021355.10
2014-10-27T14:30:00Z,17899703054992.30
2014-10-28T14:30:00Z,17906106113024.80
2014-10-29T14:30:00Z,17904999710062.10
2014-10-30T14:30:00Z,17914425526718.00
2014-10-31T14:30:00Z,17937160394872.60
2014-11-03T14:30:00Z,17908461539950.80
2014-11-04T14:30:00Z,17922328250690.00
2014-11-05T14:30:00Z,17923491376354.00
2014-11-06T14:30:00Z,17938161633953.00
2014-11-07T14:30:00Z,17937617036693.00
2014-11-10T14:30:00Z,17942478973674.50
2014-11-12T14:30:00Z,17936639705375.40
2014-11-13T14:30:00Z,17941406575143.30
2014-11-14T14:30:00Z,17946228427416.70
2014-11-17T14:30:00Z,17955187358115.70
2014-11-18T14:30:00Z,17965853482963.60
2014-11-19T14:30:00Z,17955861759790.10
2014-11-20T14:30:00Z,17966390052905.50
2014-11-21T14:30:00Z,17966430866445.20
2014-11-24T14:30:00Z,17969341202862.60
2014-11-25T14:30:00Z,17973268374867.70
2014-11-26T14:30:00Z,17963753617957.20
2014-11-28T14:30:00Z,18005549328561.40
2014-12-01T14:30:00Z,17988139701976.20
2014-12-02T14:30:00Z,17994739178153.40
2014-12-03T14:30:00Z,17976896374080.00
2014-12-04T14:30:00Z,17993726181400.00
2014-12-05T14:30:00Z,17991068498107.30
2014-12-08T14:30:00Z,17993213058619.30
2014-12-09T14:30:00Z,17997912502715.70
2014-12-10T14:30:00Z,17985409515198.70
2014-12-11T14:30:00Z,17999196518791.70
2014-12-12T14:30:00Z,17998480987314.10
2014-12-15T14:30:00Z,18026487992142.50
2014-12-16T14:30:00Z,18033285352731.20
2014-12-17T14:30:00Z,18027975066340.90
2014-12-18T14:30:00Z,18029014745208.90
2014-12-19T14:30:00Z,18027956621353.20
2014-12-22T14:30:00Z,18031021541347.50
2014-12-23T14:30:00Z,18044495047811.80
2014-12-24T14:30:00Z,18032267753648.50
2014-12-26T14:30:00Z,18030113356076.00
2014-12-29T14:30:00Z,18039456080782.90
2014-12-30T14:30:00Z,18043862247389.00
2014-12-31T14:30:00Z,18141444135563.30
2015-01-02T14:30:00Z,18080612655244.20
2015-01-05T14:30:00Z,18091316381602.60
2015-01-06T14:30:00Z,18097814959110.10
2015-01-07T14:30:00Z,18098260560760.20
2015-01-08T14:30:00Z,18084817920825.50
2015-01-09T14:30:00Z,18085826074241.50
2015-01-12T14:30:00Z,18086946763085.70
2015-01-13T14:30:00Z,18092170790087.30
2015-01-14T14:30:00Z,18081478613745.90
2015-01-15T14:30:00Z,18079608395519.60
2015-01-16T14:30:00Z,18080794482225.40
2015-01-20T14:30:00Z,18086048044499.30
2015-01-21T14:30:00Z,18083464106854.20
2015-01-22T14:30:00Z,18087425445178.50
2015-01-23T14:30:00Z,18086335602055.10
2015-01-26T14:30:00Z,18087727352703.70
2015-01-27T14:30:00Z,18095120088870.90
2015-01-28T14:30:00Z,18082591078060.20
2015-01-29T14:30:00Z,18085063837781.80
2015-01-30T14:30:00Z,18082294157510.20
2015-02-02T14:30:00Z,18099042237253.80
2015-02-03T14:30:00Z,18098502229899.70
2015-02-04T14:30:00Z,18099980277424.30
2015-02-05T14:30:00Z,18125876697430.90
2015-02-06T14:30:00Z,18124962972729.90
2015-02-09T14:30:00Z,18128511342681.10
2015-02-10T14:30:00Z,18132368869938.90
2015-02-11T14:30:00Z,18120851078035.50
2015-02-12T14:30:00Z,18136906268079.50
2015-02-13T14:30:00Z,18136847747421.80
2015-02-17T14:30:00Z,18122443088634.20
2015-02-18T14:30:00Z,18122881555570.90
2015-02-19T14:30:00Z,18138459241907.50
2015-02-20T14:30:00Z,18140525203303.60
2015-02-23T14:30:00Z,18141409083212.30
2015-02-24T14:30:00Z,18148105006223.00
2015-02-25T14:30:00Z,18133356358144.40
2015-02-26T14:30:00Z,18149752816959.60
2015-02-27T14:30:00Z,18155853840783.60
2015-03-02T14:30:00Z,18153537817364.70
2015-03-03T14:30:00Z,18149954531765.00
2015-03-04T14:30:00Z,18149661959194.60
2015-03-05T14:30:00Z,18147256483854.60
2015-03-06T14:30:00Z,18146997769289.20
2015-03-09T14:30:00Z,18150077808750.30
2015-03-10T14:30:00Z,18155726801056.40
2015-03-11T14:30:00Z,18148968934412.10
2015-03-12T14:30:00Z,18153816304576.20
2015-03-13T14:30:00Z,18152457339107.90
2015-03-16T14:30:00Z,18152428120668.50
2015-03-17T14:30:00Z,18152418378331.40
2015-03-18T14:30:00Z,18152408635055.50
2015-03-19T14:30:00Z,18152422064045.40
2015-03-20T14:30:00Z,18152412192314.90
2015-03-23T14:30:00Z,18152382569585.30
2015-03-24T14:30:00Z,18152372692901.00
2015-03-25T14:30:00Z,18152362814977.40
2015-03-26T14:30:00Z,18152367511357.60
2015-03-27T14:30:00Z,18152357604289.30
2015-03-30T14:30:00Z,18152327875384.90
2015-03-31T14:30:00Z,18152056197489.20
2015-04-01T14:30:00Z,18152046284380.70
2015-04-02T14:30:00Z,18152122140432.20
2015-04-03T14:30:00Z,18152112019695.10
2015-04-06T14:30:00Z,18152081649050.20
2015-04-07T14:30:00Z,18152071523374.80
2015-04-08T14:30:00Z,18152061396456.90
2015-04-09T14:30:00Z,18152064358207.50
2015-04-10T14:30:00Z,18152054202954.50
2015-04-13T14:30:00Z,18152023729666.50
2015-04-14T14:30:00Z,18152013569439.50
2015-04-15T14:30:00Z,18152003466281.40
2015-04-16T14:30:00Z,18152007830734.00
2015-04-17T14:30:00Z,18151997679396.00
2015-04-20T14:30:00Z,18151967217887.80
2015-04-21T14:30:00Z,18151957061585.50
2015-04-22T14:30:00Z,18151946904041.60
2015-04-23T14:30:00Z,18151949531837.70
2015-04-24T14:30:00Z,18151939363157.10
2015-04-27T14:30:00Z,18151908849687.10
2015-04-28T14:30:00Z,18151898676069.20
2015-04-29T14:30:00Z,18151888501207.80
2015-04-30T14:30:00Z,18152560126787.70
2015-05-01T14:30:00Z,18152549890270.90
2015-05-04T14:30:00Z,18152519173098.50
2015-05-05T14:30:00Z,18152508931605.40
2015-05-06T14:30:00Z,18152498688867.40
2015-05-07T14:30:00Z,18152497848547.70
2015-05-08T14:30:00Z,18152487619906.90
2015-05-11T14:30:00Z,18152456926656.10
2015-05-12T14:30:00Z,18152446693102.20
2015-05-13T14:30:00Z,18152436458301.60
2015-05-14T14:30:00Z,18152438060107.20
2015-05-15T14:30:00Z,18152427930102.20
2015-05-18T14:30:00Z,18152397532696.20
2015-05-19T14:30:00Z,18152387397784.00
2015-05-20T14:30:00Z,18152377261644.60
2015-05-21T14:30:00Z,18152378180209.20
2015-05-22T14:30:00Z,18152368037290.20
2015-05-26T14:30:00Z,18152327453268.80
2015-05-27T14:30:00Z,18152317304208.10
2015-05-28T14:30:00Z,18152383244725.20
2015-05-29T14:30:00Z,18152851678150.20
2015-06-01T14:30:00Z,18152841401259.20
2015-06-02T14:30:00Z,18152831123420.50
2015-06-03T14:30:00Z,18152821344452.90
2015-06-04T14:30:00Z,18152820259005.50
2015-06-05T14:30:00Z,18152809942589.10
2015-06-08T14:30:00Z,18152778985959.40
2015-06-09T14:30:00Z,18152768664619.50
2015-06-10T14:30:00Z,18152758342047.20
2015-06-11T14:30:00Z,18152758771144.60
2015-06-12T14:30:00Z,18152748464829.10
2015-06-15T14:30:00Z,18152717537302.10
2015-06-16T14:30:00Z,18152707189859.80
2015-06-17T14:30:00Z,18152696919060.40
2015-06-18T14:30:00Z,18152699387458.70
2015-06-19T14:30:00Z,18152689167905.60
2015-06-22T14:30:00Z,18152658501837.30
2015-06-23T14:30:00Z,18152648277344.00
2015-06-24T14:30:00Z,18152638051615.30
2015-06-25T14:30:00Z,18152711443291.50
2015-06-26T14:30:00Z,18152701159226.70
2015-06-29T14:30:00Z,18152670293644.00
2015-06-30T14:30:00Z,18151997510872.40
2015-07-01T14:30:00Z,18151987220640.40
2015-07-02T14:30:00Z,18151991536019.10
2015-07-03T14:30:00Z,18151981262337.40
2015-07-06T14:30:00Z,18151950433860.70
2015-07-07T14:30:00Z,18151940155226.00
2015-07-08T14:30:00Z,18151929875352.30
2015-07-09T14:30:00Z,18151931284495.30
2015-07-10T14:30:00Z,18151921010337.50
2015-07-13T14:30:00Z,18151890180391.60
2015-07-14T14:30:00Z,18151879901274.20
2015-07-15T14:30:00Z,18151869674750.50
2015-07-16T14:30:00Z,18151873074142.90
2015-07-17T14:30:00Z,18151862792175.00
2015-07-20T14:30:00Z,18151831938889.00
2015-07-21T14:30:00Z,18151821652004.70
2015-07-22T14:30:00Z,18151811363890.70
2015-07-23T14:30:00Z,18151903780340.30
2015-07-24T14:30:00Z,18151893254765.10
2015-07-27T14:30:00Z,18151861669505.00
2015-07-28T14:30:00Z,18151851139012.50
2015-07-29T14:30:00Z,18151840607288.70
2015-07-30T14:30:00Z,18151852256637.30
2015-07-31T14:30:00Z,18151322549156.90
2015-08-03T14:30:00Z,18151290609956.20
2015-08-04T14:30:00Z,18151279961119.70
2015-08-05T14:30:00Z,18151269311050.40
2015-08-06T14:30:00Z,18151284784984.50
2015-08-07T14:30:00Z,18151273990514.80
2015-08-10T14:30:00Z,18151241599502.70
2015-08-11T14:30:00Z,18151230800098.70
2015-08-12T14:30:00Z,18151220988961.40
2015-08-13T14:30:00Z,18151248999672.80
2015-08-14T14:30:00Z,18151237942000.80
2015-08-17T14:30:00Z,18151204858128.50
2015-08-18T14:30:00Z,18151193827731.50
2015-08-19T14:30:00Z,18151182796107.60
2015-08-20T14:30:00Z,18151300217506.70
2015-08-21T14:30:00Z,18151288807268.10
2015-08-24T14:30:00Z,18151254619016.70
2015-08-25T14:30:00Z,18151243220485.40
2015-08-26T14:30:00Z,18151231820725.70
2015-08-27T14:30:00Z,18151249152738.70
2015-08-28T14:30:00Z,18151237646318.30
2015-08-31T14:30:00Z,18151150179588.00
2015-09-01T14:30:00Z,18151139449629.00
2015-09-02T14:30:00Z,18151127937093.00
2015-09-03T14:30:00Z,18151154955297.80
2015-09-04T14:30:00Z,18151143313299.50
2015-09-08T14:30:00Z,18151096731763.10
2015-09-09T14:30:00Z,18151085083623.00
2015-09-10T14:30:00Z,18151108522784.20
2015-09-11T14:30:00Z,18151096777894.90
2015-09-14T14:30:00Z,18151061535754.50
2015-09-15T14:30:00Z,18151049785935.00
2015-09-16T14:30:00Z,18151038086972.10
2015-09-17T14:30:00Z,18151144349685.30
2015-09-18T14:30:00Z,18151132467967.50
2015-09-21T14:30:00Z,18151096814879.00
2015-09-22T14:30:00Z,18151084928227.50
2015-09-23T14:30:00Z,18151073040341.30
2015-09-24T14:30:00Z,18151073031331.50
2015-09-25T14:30:00Z,18151061200913.20
2015-09-28T14:30:00Z,18151025702418.90
2015-09-29T14:30:00Z,18151013867116.30
2015-09-30T14:30:00Z,18150617666484.30
2015-10-01T14:30:00Z,18150616066342.50
2015-10-02T14:30:00Z,18150604277750.60
2015-10-05T14:30:00Z,18150568904537.00
2015-10-06T14:30:00Z,18150557110995.00
2015-10-07T14:30:00Z,18150545316215.00
2015-10-08T14:30:00Z,18150540421127.50
2015-10-09T14:30:00Z,18150528663452.90
2015-10-13T14:30:00Z,18150481620363.30
2015-10-14T14:30:00Z,18150469856492.40
2015-10-15T14:30:00Z,18152716828322.00
2015-10-16T14:30:00Z,18152705110034.30
2015-10-19T14:30:00Z,18152669947434.60
2015-10-20T14:30:00Z,18152658224184.60
2015-10-21T14:30:00Z,18152646499693.20
2015-10-22T14:30:00Z,18152650688229.10
2015-10-23T14:30:00Z,18152638934294.30
2015-10-26T14:30:00Z,18152603664891.40
2015-10-27T14:30:00Z,18152591905989.80
2015-10-28T14:30:00Z,18152580145845.20
2015-10-29T14:30:00Z,18152590112385.60
2015-10-30T14:30:00Z,18152981685747.50
2015-11-02T14:30:00Z,18492091120833.90
2015-11-03T14:30:00Z,18532338091711.40
2015-11-04T14:30:00Z,18532854382821.70
2015-11-05T14:30:00Z,18609800070328.70
2015-11-06T14:30:00Z,18609854385435.20
2015-11-09T14:30:00Z,18614769216712.80
2015-11-10T14:30:00Z,18605392428942.10
2015-11-12T14:30:00Z,18649024795838.70
2015-11-13T14:30:00Z,18653507360573.40
2015-11-16T14:30:00Z,18660490153278.20
2015-11-17T14:30:00Z,18670014021513.70
2015-11-18T14:30:00Z,18658332270181.30
2015-11-19T14:30:00Z,18718208593840.70
2015-11-20T14:30:00Z,18720800091471.30
2015-11-23T14:30:00Z,18722746583118.00
2015-11-24T14:30:00Z,18730245227214.20
2015-11-25T14:30:00Z,18719613274893.50
2015-11-27T14:30:00Z,18782451267806.00
2015-11-30T14:30:00Z,18827322966908.80
2015-12-01T14:30:00Z,18797839523342.20
2015-12-02T14:30:00Z,18802739156430.90
2015-12-03T14:30:00Z,18787992446946.80
2015-12-04T14:30:00Z,18786830545682.60
2015-12-07T14:30:00Z,18789199596566.90
2015-12-08T14:30:00Z,18789064366804.10
2015-12-09T14:30:00Z,18775084981439.80
2015-12-10T14:30:00Z,18762069058578.80
2015-12-11T14:30:00Z,18764921984881.40
2015-12-14T14:30:00Z,18767636190409.90
2015-12-15T14:30:00Z,18798211680628.10
2015-12-16T14:30:00Z,18788138221346.40
2015-12-17T14:30:00Z,18796279678290.20
2015-12-18T14:30:00Z,18795033928275.50
2015-12-21T14:30:00Z,18798201511452.00
2015-12-22T14:30:00Z,18807362192458.60
2015-12-23T14:30:00Z,18795265446286.50
2015-12-24T14:30:00Z,18802880491536.00
2015-12-28T14:30:00Z,18818691266108.10
2015-12-29T14:30:00Z,18824106833961.80
2015-12-30T14:30:00Z,18825061664535.90
2015-12-31T14:30:00Z,18922179009420.80
2016-01-04T14:30:00Z,18900932690017.00
2016-01-05T14:30:00Z,18918445650584.70
2016-01-06T14:30:00Z,18918380217573.10
2016-01-07T14:30:00Z,18887876761105.10
2016-01-08T14:30:00Z,18888640000429.60
2016-01-11T14:30:00Z,18891869602125.10
2016-01-12T14:30:00Z,18897682225587.80
2016-01-13T14:30:00Z,18955778615041.10
2016-01-14T14:30:00Z,18923558492862.90
2016-01-15T14:30:00Z,18934589767234.90
2016-01-19T14:30:00Z,18940640177236.50
2016-01-20T14:30:00Z,18941406899252.10
2016-01-21T14:30:00Z,18958837318233.60
2016-01-22T14:30:00Z,18961637973066.40
2016-01-25T14:30:00Z,18961968091511.10
2016-01-26T14:30:00Z,18968344511857.00
2016-01-27T14:30:00Z,18962589775045.40
2016-01-28T14:30:00Z,18989803014663.70
2016-01-29T14:30:00Z,19012827698417.90
2016-02-01T14:30:00Z,18975719827131.20
2016-02-02T14:30:00Z,18992299007716.90
2016-02-03T14:30:00Z,18975193925522.50
2016-02-04T14:30:00Z,18996686873180.00
2016-02-05T14:30:00Z,18996371521571.10
2016-02-08T14:30:00Z,19000235912585.60
2016-02-09T14:30:00Z,19005359240744.60
2016-02-10T14:30:00Z,18991325677268.40
2016-02-11T14:30:00Z,19016261934962.80
2016-02-12T14:30:00Z,19016524950018.50
2016-02-16T14:30:00Z,19030024473090.80
2016-02-17T14:30:00Z,19028997194318.40
2016-02-18T14:30:00Z,19047126605778.90
2016-02-19T14:30:00Z,19052403868282.80
2016-02-22T14:30:00Z,19053381143534.20
2016-02-23T14:30:00Z,19064879099682.50
2016-02-24T14:30:00Z,19054164528762.90
2016-02-25T14:30:00Z,19070657293114.50
2016-02-26T14:30:00Z,19080123823020.70
2016-02-29T14:30:00Z,19125455057425.80
2016-03-01T14:30:00Z,19090880799021.60
2016-03-02T14:30:00Z,19097521671148.80
2016-03-03T14:30:00Z,19093150844906.00
2016-03-04T14:30:00Z,19093496023754.40
2016-03-07T14:30:00Z,19097825627603.00
2016-03-08T14:30:00Z,19112876896495.00
2016-03-09T14:30:00Z,19100184217930.40
2016-03-10T14:30:00Z,19125325175994.30
2016-03-11T14:30:00Z,19124286688944.60
2016-03-14T14:30:00Z,19128719568343.70
2016-03-15T14:30:00Z,19161874528616.40
2016-03-16T14:30:00Z,19151399412549.70
2016-03-17T14:30:00Z,19188228962810.30
2016-03-18T14:30:00Z,19202994410080.30
2016-03-21T14:30:00Z,19205597413856.90
2016-03-22T14:30:00Z,19211342727724.70
2016-03-23T14:30:00Z,19200599665938.70
2016-03-24T14:30:00Z,19211664593324.30
2016-03-25T14:30:00Z,19214929969878.50
2016-03-28T14:30:00Z,19230095073592.90
2016-03-29T14:30:00Z,19235698467028.80
2016-03-30T14:30:00Z,19232950841710.60
2016-03-31T14:30:00Z,19264938619643.00
2016-04-01T14:30:00Z,19218516838306.50
2016-04-04T14:30:00Z,19228044093705.00
2016-04-05T14:30:00Z,19237067126145.00
2016-04-06T14:30:00Z,19238908031871.90
2016-04-07T14:30:00Z,19221206331589.00
2016-04-08T14:30:00Z,19223197501336.10
2016-04-11T14:30:00Z,19226226489207.10
2016-04-12T14:30:00Z,19234006195713.70
2016-04-13T14:30:00Z,19221297840432.80
2016-04-14T14:30:00Z,19203187186595.40
2016-04-15T14:30:00Z,19203643099493.20
2016-04-18T14:30:00Z,19208277938656.00
2016-04-19T14:30:00Z,19221832717891.30
2016-04-20T14:30:00Z,19215679607589.40
2016-04-21T14:30:00Z,19196769313019.60
2016-04-22T14:30:00Z,19198172774532.70
2016-04-25T14:30:00Z,19210345265252.20
2016-04-26T14:30:00Z,19218673186359.40
2016-04-27T14:30:00Z,19209405161325.60
2016-04-28T14:30:00Z,19186207744589.50
2016-04-29T14:30:00Z,19187387483983.30
2016-05-02T14:30:00Z,19170001895674.00
2016-05-03T14:30:00Z,19171815928698.80
2016-05-04T14:30:00Z,19186655441721.60
2016-05-05T14:30:00Z,19188102413248.80
2016-05-06T14:30:00Z,19190059553782.20
2016-05-09T14:30:00Z,19197497243132.10
2016-05-10T14:30:00Z,19204514007221.30
2016-05-11T14:30:00Z,19193401105901.90
2016-05-12T14:30:00Z,19200169433825.20
2016-05-13T14:30:00Z,19199894125074.00
2016-05-16T14:30:00Z,19206980431910.00
2016-05-17T14:30:00Z,19218044952594.20
2016-05-18T14:30:00Z,19206517044303.50
2016-05-19T14:30:00Z,19212451626242.60
2016-05-20T14:30:00Z,19209816164726.60
2016-05-23T14:30:00Z,19212492715543.20
2016-05-24T14:30:00Z,19223047535897.30
2016-05-25T14:30:00Z,19214128824849.90
2016-05-26T14:30:00Z,19216137840436.10
2016-05-27T14:30:00Z,19226417790338.50
2016-05-31T14:30:00Z,19265451572330.70
2016-06-01T14:30:00Z,19230634229069.50
2016-06-02T14:30:00Z,19229279536521.70
2016-06-03T14:30:00Z,19214514064181.20
2016-06-06T14:30:00Z,19220484557364.60
2016-06-07T14:30:00Z,19228398127636.90
2016-06-08T14:30:00Z,19230270048404.90
2016-06-09T14:30:00Z,19219465874275.40
2016-06-10T14:30:00Z,19218850296387.20
2016-06-13T14:30:00Z,19222275711902.50
2016-06-14T14:30:00Z,19230063635793.40
2016-06-15T14:30:00Z,19245574495391.70
2016-06-16T14:30:00Z,19248244178321.00
2016-06-17T14:30:00Z,19252984535317.60
2016-06-20T14:30:00Z,19256656157468.50
2016-06-21T14:30:00Z,19265744770778.60
2016-06-22T14:30:00Z,19252431295170.00
2016-06-23T14:30:00Z,19259812422016.40
2016-06-24T14:30:00Z,19277937823462.90
2016-06-27T14:30:00Z,19279322871098.40
2016-06-28T14:30:00Z,19284399792310.70
2016-06-29T14:30:00Z,19283325598353.50
2016-06-30T14:30:00Z,19381591140792.20
2016-07-01T14:30:00Z,19316931693227.10
2016-07-05T14:30:00Z,19327746021669.90
2016-07-06T14:30:00Z,19343541768823.90
2016-07-07T14:30:00Z,19360176741617.50
2016-07-08T14:30:00Z,19362032846861.90
2016-07-11T14:30:00Z,19366974554360.50
2016-07-12T14:30:00Z,19372930080447.30
2016-07-13T14:30:00Z,19361289088131.50
2016-07-14T14:30:00Z,19380590048237.60
2016-07-15T14:30:00Z,19386059979169.70
2016-07-18T14:30:00Z,19391094247028.20
2016-07-19T14:30:00Z,19402361890929.40
2016-07-20T14:30:00Z,19391704027667.10
2016-07-21T14:30:00Z,19400566867618.90
2016-07-22T14:30:00Z,19400333651023.40
2016-07-25T14:30:00Z,19407186678584.20
2016-07-26T14:30:00Z,19415128807132.90
2016-07-27T14:30:00Z,19402906386524.20
2016-07-28T14:30:00Z,19412286582301.90
2016-07-29T14:30:00Z,19427694579786.60
2016-08-01T14:30:00Z,19358707115589.00
2016-08-02T14:30:00Z,19374216793141.40
2016-08-03T14:30:00Z,19359342005838.40
2016-08-04T14:30:00Z,19379566441022.10
2016-08-05T14:30:00Z,19380142516035.40
2016-08-08T14:30:00Z,19385571696962.50
2016-08-09T14:30:00Z,19390746423154.10
2016-08-10T14:30:00Z,19377642119796.70
2016-08-11T14:30:00Z,19404383126105.00
2016-08-12T14:30:00Z,19403004579982.80
2016-08-15T14:30:00Z,19420158030582.00
2016-08-16T14:30:00Z,19428079384183.20
2016-08-17T14:30:00Z,19421791184792.60
2016-08-18T14:30:00Z,19445100633520.10
2016-08-19T14:30:00Z,19443266164413.40
2016-08-22T14:30:00Z,19446002493012.80
2016-08-23T14:30:00Z,19454944368305.90
2016-08-24T14:30:00Z,19442913162409.10
2016-08-25T14:30:00Z,19472203761101.70
2016-08-26T14:30:00Z,19483788594328.20
2016-08-29T14:30:00Z,19486203862406.10
2016-08-30T14:30:00Z,19492084009780.30
2016-08-31T14:30:00Z,19510296242765.60
2016-09-01T14:30:00Z,19481571141221.60
2016-09-02T14:30:00Z,19470383603813.70
2016-09-06T14:30:00Z,19473941446098.30
2016-09-07T14:30:00Z,19479491484659.10
2016-09-08T14:30:00Z,19482086271333.80
2016-09-09T14:30:00Z,19482694389006.50
2016-09-12T14:30:00Z,19484660626765.50
2016-09-13T14:30:00Z,19493291113807.70
2016-09-14T14:30:00Z,19480514004421.70
2016-09-15T14:30:00Z,19508241572025.50
2016-09-16T14:30:00Z,19510910825630.70
2016-09-19T14:30:00Z,19518125575008.40
2016-09-20T14:30:00Z,19524335895543.00
2016-09-21T14:30:00Z,19517456954252.40
2016-09-22T14:30:00Z,19519471076568.70
2016-09-23T14:30:00Z,19524762977719.60
2016-09-26T14:30:00Z,19529588502748.60
2016-09-27T14:30:00Z,19536854516281.70
2016-09-28T14:30:00Z,19519932367847.20
2016-09-29T14:30:00Z,19532890233853.10
2016-09-30T14:30:00Z,19573444713936.70
2016-10-03T14:30:00Z,19642949742561.50
2016-10-04T14:30:00Z,19659460647160.80
2016-10-05T14:30:00Z,19663411497797.40
2016-10-06T14:30:00Z,19688773606117.50
2016-10-07T14:30:00Z,19687424480959.10
2016-10-11T14:30:00Z,19694316597212.10
2016-10-12T14:30:00Z,19688681856198.00
2016-10-13T14:30:00Z,19720830822303.40
2016-10-14T14:30:00Z,19721618557803.70
2016-10-17T14:30:00Z,19755564017152.90
2016-10-18T14:30:00Z,19766580028249.40
2016-10-19T14:30:00Z,19754257061882.10
2016-10-20T14:30:00Z,19785585189878.10
2016-10-21T14:30:00Z,19786440755303.80
2016-10-24T14:30:00Z,19788020688520.50
2016-10-25T14:30:00Z,19808504852207.20
2016-10-26T14:30:00Z,19795497461281.60
2016-10-27T14:30:00Z,19824868242412.00
2016-10-28T14:30:00Z,19820509238591.40
2016-10-31T14:30:00Z,19805715214641.70
2016-11-01T14:30:00Z,19760054127045.80
2016-11-02T14:30:00Z,19769621678552.70
2016-11-03T14:30:00Z,19790136330003.10
2016-11-04T14:30:00Z,19790767232311.90
2016-11-07T14:30:00Z,19796589500776.00
2016-11-08T14:30:00Z,19806239858606.00
2016-11-09T14:30:00Z,19793697162303.80
2016-11-10T14:30:00Z,19840574291147.00
2016-11-14T14:30:00Z,19842173949869.50
2016-11-15T14:30:00Z,19867119032053.20
2016-11-16T14:30:00Z,19857827860685.60
2016-11-17T14:30:00Z,19897150970886.80
2016-11-18T14:30:00Z,19895970356079.00
2016-11-21T14:30:00Z,19899004081493.50
2016-11-22T14:30:00Z,19907540739514.50
2016-11-23T14:30:00Z,19897994347700.50
2016-11-25T14:30:00Z,19928118193162.50
2016-11-28T14:30:00Z,19929184161352.10
2016-11-29T14:30:00Z,19930698649977.40
2016-11-30T14:30:00Z,19948064697245.70
2016-12-01T14:30:00Z,19901545151126.50
2016-12-02T14:30:00Z,19881223023152.80
2016-12-05T14:30:00Z,19885572935868.30
2016-12-06T14:30:00Z,19892366528061.20
2016-12-07T14:30:00Z,19891173384830.00
2016-12-08T14:30:00Z,19877418396481.60
2016-12-09T14:30:00Z,19876373398959.30
2016-12-12T14:30:00Z,19878727122829.60
2016-12-13T14:30:00Z,19884323271403.20
2016-12-14T14:30:00Z,19871457952087.70
2016-12-15T14:30:00Z,19875320486024.50
2016-12-16T14:30:00Z,19876036342624.50
2016-12-19T14:30:00Z,19882663760136.60
2016-12-20T14:30:00Z,19889592850494.70
2016-12-21T14:30:00Z,19878280893331.70
2016-12-22T14:30:00Z,19877449679259.40
2016-12-23T14:30:00Z,19887188017177.10
2016-12-27T14:30:00Z,19890699605286.50
2016-12-28T14:30:00Z,19879389298528.90
2016-12-29T14:30:00Z,19879151754933.50
2016-12-30T14:30:00Z,19976826951047.80
2017-01-03T14:30:00Z,19935025589392.80
2017-01-04T14:30:00Z,19952414234340.70
2017-01-05T14:30:00Z,19948472988335.10
2017-01-06T14:30:00Z,19952808638850.50
2017-01-09T14:30:00Z,19955343885377.70
2017-01-10T14:30:00Z,19964268875957.60
2017-01-11T14:30:00Z,19951756200280.90
2017-01-12T14:30:00Z,19941807383847.00
2017-01-13T14:30:00Z,19940614376504.40
2017-01-17T14:30:00Z,19959954817351.60
2017-01-18T14:30:00Z,19961467137973.60
2017-01-19T14:30:00Z,19944429217106.70
2017-01-20T14:30:00Z,19947304555212.40
2017-01-23T14:30:00Z,19949678366998.00
2017-01-24T14:30:00Z,19958089555359.80
2017-01-25T14:30:00Z,19950603242667.50
2017-01-26T14:30:00Z,19939908790870.40
2017-01-27T14:30:00Z,19939019834828.80
2017-01-30T14:30:00Z,19939760263983.40
2017-01-31T14:30:00Z,19937261314503.20
2017-02-01T14:30:00Z,19900037472787.20
2017-02-02T14:30:00Z,19902827463569.10
2017-02-03T14:30:00Z,19885875150544.40
2017-02-06T14:30:00Z,19890330215216.50
2017-02-07T14:30:00Z,19895763669170.00
2017-02-08T14:30:00Z,19884606221456.10
2017-02-09T14:30:00Z,19922335630306.60
2017-02-10T14:30:00Z,19921065289061.60
2017-02-13T14:30:00Z,19924218517074.50
2017-02-14T14:30:00Z,19932679233716.10
2017-02-15T14:30:00Z,19937364595503.00
2017-02-16T14:30:00Z,19926581166878.30
2017-02-17T14:30:00Z,19932504874101.40
2017-02-21T14:30:00Z,19935316186835.70
2017-02-22T14:30:00Z,19935880851981.00
2017-02-23T14:30:00Z,19913901120188.10
2017-02-24T14:30:00Z,19930147891686.70
2017-02-27T14:30:00Z,19931228821002.70
2017-02-28T14:30:00Z,19959593604841.50
2017-03-01T14:30:00Z,19920418771289.20
2017-03-02T14:30:00Z,19894958569032.90
2017-03-03T14:30:00Z,19878476676904.60
2017-03-06T14:30:00Z,19883012984069.80
2017-03-07T14:30:00Z,19889862451192.30
2017-03-08T14:30:00Z,19879149018877.50
2017-03-09T14:30:00Z,19855676540211.30
2017-03-10T14:30:00Z,19853618720466.00
2017-03-13T14:30:00Z,19858033799549.90
2017-03-14T14:30:00Z,19902604401637.90
2017-03-15T14:30:00Z,19845811298014.00
2017-03-16T14:30:00Z,19846045559411.80
2017-03-17T14:30:00Z,19846009616285.30
2017-03-20T14:30:00Z,19845901777612.00
2017-03-21T14:30:00Z,19845865829114.00
2017-03-22T14:30:00Z,19845829879261.90
2017-03-23T14:30:00Z,19846049205261.80
2017-03-24T14:30:00Z,19846011928285.00
2017-03-27T14:30:00Z,19845900078837.00
2017-03-28T14:30:00Z,19845862796665.10
2017-03-29T14:30:00Z,19845825513137.10
2017-03-30T14:30:00Z,19846255248406.60
2017-03-31T14:30:00Z,19846420062676.80
2017-04-03T14:30:00Z,19846423785551.50
2017-04-04T14:30:00Z,19846142407188.80
2017-04-05T14:30:00Z,19846103311307.70
2017-04-06T14:30:00Z,19846326429133.80
2017-04-07T14:30:00Z,19846285707214.10
2017-04-10T14:30:00Z,19846163529210.90
2017-04-11T14:30:00Z,19846122820560.40
2017-04-12T14:30:00Z,19846082091559.70
2017-04-13T14:30:00Z,19846313677094.40
2017-04-14T14:30:00Z,19846272172776.60
2017-04-17T14:30:00Z,19846147684611.10
2017-04-18T14:30:00Z,19846106186190.40
2017-04-19T14:30:00Z,19846064686422.90
2017-04-20T14:30:00Z,19846293677437.80
2017-04-21T14:30:00Z,19846252141589.20
2017-04-24T14:30:00Z,19846127520117.40
2017-04-25T14:30:00Z,19846085978995.60
2017-04-26T14:30:00Z,19846044436483.60
2017-04-27T14:30:00Z,19846491745845.90
2017-04-28T14:30:00Z,19846129308635.70
2017-05-01T14:30:00Z,19846087305498.20
2017-05-02T14:30:00Z,19846045309192.10
2017-05-03T14:30:00Z,19846003311535.70
2017-05-04T14:30:00Z,19846238291542.50
2017-05-05T14:30:00Z,19846195521326.10
2017-05-08T14:30:00Z,19846067200822.70
2017-05-09T14:30:00Z,19846024425839.20
2017-05-10T14:30:00Z,19845981649507.90
2017-05-11T14:30:00Z,19846227292251.00
2017-05-12T14:30:00Z,19846183719855.50
2017-05-15T14:30:00Z,19846053011381.80
2017-05-16T14:30:00Z,19846009453270.70
2017-05-17T14:30:00Z,19845965893811.30
2017-05-18T14:30:00Z,19846211384209.10
2017-05-19T14:30:00Z,19846167124114.00
2017-05-22T14:30:00Z,19846034340301.90
2017-05-23T14:30:00Z,19845990076683.10
2017-05-24T14:30:00Z,19845945811714.30
2017-05-25T14:30:00Z,19846431364938.70
2017-05-26T14:30:00Z,19846386043286.40
2017-05-30T14:30:00Z,19846204744568.50
2017-05-31T14:30:00Z,19845941916894.60
2017-06-01T14:30:00Z,19846204620702.30
2017-06-02T14:30:00Z,19846157819438.30
2017-06-05T14:30:00Z,19846017411457.10
2017-06-06T14:30:00Z,19845970606481.70
2017-06-07T14:30:00Z,19845923800152.50
2017-06-08T14:30:00Z,19846178256583.30
2017-06-09T14:30:00Z,19846130655338.90
2017-06-12T14:30:00Z,19845987843632.60
2017-06-13T14:30:00Z,19845940165818.30
2017-06-14T14:30:00Z,19845892557867.50
2017-06-15T14:30:00Z,19846150150843.90
2017-06-16T14:30:00Z,19846102452852.30
2017-06-19T14:30:00Z,19845959348871.10
2017-06-20T14:30:00Z,19845911645535.40
2017-06-21T14:30:00Z,19845863940842.30
2017-06-22T14:30:00Z,19846371512623.10
2017-06-23T14:30:00Z,19846322940480.60
2017-06-26T14:30:00Z,19846177199258.30
2017-06-27T14:30:00Z,19846128623122.50
2017-06-28T14:30:00Z,19846080045627.40
2017-06-29T14:30:00Z,19846342893092.50
2017-06-30T14:30:00Z,19844554182651.30
2017-07-03T14:30:00Z,19844623881256.90
2017-07-05T14:30:00Z,19844525346312.30
2017-07-06T14:30:00Z,19844797176473.90
2017-07-07T14:30:00Z,19844746961071.50
2017-07-10T14:30:00Z,19844596307004.60
2017-07-11T14:30:00Z,19844546086266.80
2017-07-12T14:30:00Z,19844495864166.10
2017-07-13T14:30:00Z,19844765411285.20
2017-07-14T14:30:00Z,19844714185141.60
2017-07-17T14:30:00Z,19844560602117.50
2017-07-18T14:30:00Z,19844509405451.20
2017-07-19T14:30:00Z,19844458207438.50
2017-07-20T14:30:00Z,19844968852152.50
2017-07-21T14:30:00Z,19844916127427.10
2017-07-24T14:30:00Z,19844757951019.00
2017-07-25T14:30:00Z,19844705230729.00
2017-07-26T14:30:00Z,19844652509086.90
2017-07-27T14:30:00Z,19844938940351.30
2017-07-28T14:30:00Z,19844885019040.00
2017-07-31T14:30:00Z,19844908989217.00
2017-08-01T14:30:00Z,19844862920005.40
2017-08-02T14:30:00Z,19844808432656.70
2017-08-03T14:30:00Z,19845082603862.30
2017-08-04T14:30:00Z,19845027138435.40
2017-08-07T14:30:00Z,19844860734174.00
2017-08-08T14:30:00Z,19844805263383.80
2017-08-09T14:30:00Z,19844749791238.20
2017-08-10T14:30:00Z,19845021514944.10
2017-08-11T14:30:00Z,19844965149781.90
2017-08-14T14:30:00Z,19844796046741.60
2017-08-15T14:30:00Z,19844739708017.10
2017-08-16T14:30:00Z,19844683929063.40
2017-08-17T14:30:00Z,19845188460166.70
2017-08-18T14:30:00Z,19845131947038.00
2017-08-21T14:30:00Z,19844962412703.60
2017-08-22T14:30:00Z,19844905899360.40
2017-08-23T14:30:00Z,19844849384667.30
2017-08-24T14:30:00Z,19845100367124.00
2017-08-25T14:30:00Z,19845043703943.80
2017-08-28T14:30:00Z,19844873705820.40
2017-08-29T14:30:00Z,19844817037769.10
2017-08-30T14:30:00Z,19844760368365.90
2017-08-31T14:30:00Z,19844533441924.30
2017-09-01T14:30:00Z,19844621643528.60
2017-09-05T14:30:00Z,19844390249115.40
2017-09-06T14:30:00Z,19844332397358.50
2017-09-07T14:30:00Z,19844586961607.10
2017-09-08T14:30:00Z,20162176797904.10
2017-09-11T14:30:00Z,20165692741989.90
2017-09-12T14:30:00Z,20173505864062.20
2017-09-13T14:30:00Z,20160009329677.80
2017-09-14T14:30:00Z,20165466677134.70
2017-09-15T14:30:00Z,20153567885894.20
2017-09-18T14:30:00Z,20160428995120.00
2017-09-19T14:30:00Z,20173203847678.40
2017-09-20T14:30:00Z,20164808111509.90
2017-09-21T14:30:00Z,20179769858967.20
2017-09-22T14:30:00Z,20181984148961.70
2017-09-25T14:30:00Z,20190193324915.90
2017-09-26T14:30:00Z,20200728540248.20
2017-09-27T14:30:00Z,20188949439233.60
2017-09-28T14:30:00Z,20203668853807.70
2017-09-29T14:30:00Z,20244900016053.50
2017-10-02T14:30:00Z,20347802336477.80
2017-10-03T14:30:00Z,20343751188107.80
2017-10-04T14:30:00Z,20346648181637.90
2017-10-05T14:30:00Z,20371173402452.20
2017-10-06T14:30:00Z,20373231412162.90
2017-10-10T14:30:00Z,20383171480978.80
2017-10-11T14:30:00Z,20375497503910.50
2017-10-12T14:30:00Z,20382178657059.50
2017-10-13T14:30:00Z,20384194022196.00
2017-10-16T14:30:00Z,20422972363114.20
2017-10-17T14:30:00Z,20433393699689.30
2017-10-18T14:30:00Z,20423370425348.80
2017-10-19T14:30:00Z,20433416014983.40
2017-10-20T14:30:00Z,20432034265111.70
2017-10-23T14:30:00Z,20435639346821.00
2017-10-24T14:30:00Z,20443455421241.50
2017-10-25T14:30:00Z,20439686602058.60
2017-10-26T14:30:00Z,20453245142792.60
2017-10-27T14:30:00Z,20454137488012.60
2017-10-30T14:30:00Z,20453368882109.30
2017-10-31T14:30:00Z,20442473549889.30
2017-11-01T14:30:00Z,20453288033638.80
2017-11-02T14:30:00Z,20484949588327.30
2017-11-03T14:30:00Z,20469010197347.90
2017-11-06T14:30:00Z,20474850038554.50
2017-11-07T14:30:00Z,20482255904624.30
2017-11-08T14:30:00Z,20472055576918.70
2017-11-09T14:30:00Z,20496092622812.50
2017-11-10T14:30:00Z,20467375664755.30
2017-11-13T14:30:00Z,20497883954505.30
2017-11-14T14:30:00Z,20503586293308.30
2017-11-15T14:30:00Z,20507345683038.60
2017-11-16T14:30:00Z,20529210216668.80
2017-11-17T14:30:00Z,20534019362990.50
2017-11-20T14:30:00Z,20538363384975.70
2017-11-21T14:30:00Z,20546926554467.70
2017-11-22T14:30:00Z,20533379940805.40
2017-11-24T14:30:00Z,20557279072690.50
2017-11-27T14:30:00Z,20563678566454.30
2017-11-28T14:30:00Z,20567936964198.00
2017-11-29T14:30:00Z,20564167371736.70
2017-11-30T14:30:00Z,20590391942312.20
2017-12-01T14:30:00Z,20531846220213.60
2017-12-04T14:30:00Z,20540360356857.00
2017-12-05T14:30:00Z,20546623579203.50
2017-12-06T14:30:00Z,20546441840672.40
2017-12-07T14:30:00Z,20541101511244.20
2017-12-08T14:30:00Z,20492887195569.10
2017-12-11T14:30:00Z,20492677740169.20
2017-12-12T14:30:00Z,20492607932866.60
2017-12-13T14:30:00Z,20487502503616.20
2017-12-14T14:30:00Z,20492949732212.30
2017-12-15T14:30:00Z,20492878719927.30
2017-12-18T14:30:00Z,20492665673399.90
2017-12-19T14:30:00Z,20492594576868.10
2017-12-20T14:30:00Z,20492523558087.50
2017-12-21T14:30:00Z,20492946882116.30
2017-12-22T14:30:00Z,20492874492282.50
2017-12-26T14:30:00Z,20492584911300.30
2017-12-27T14:30:00Z,20492512514851.00
2017-12-28T14:30:00Z,20492954574011.80
2017-12-29T14:30:00Z,20492746546193.70
2018-01-02T14:30:00Z,20492598761860.60
2018-01-03T14:30:00Z,20492526045598.10
2018-01-04T14:30:00Z,20493371220438.50
2018-01-05T14:30:00Z,20493295888804.90
2018-01-08T14:30:00Z,20493069880245.30
2018-01-09T14:30:00Z,20492994543246.00
2018-01-10T14:30:00Z,20492919204874.40
2018-01-11T14:30:00Z,20493401574964.00
2018-01-12T14:30:00Z,20493324536905.90
2018-01-16T14:30:00Z,20493016378414.10
2018-01-17T14:30:00Z,20492939320324.00
2018-01-18T14:30:00Z,20493420765319.90
2018-01-19T14:30:00Z,20493342622878.60
2018-01-22T14:30:00Z,20493108144643.10
2018-01-23T14:30:00Z,20493029991624.70
2018-01-24T14:30:00Z,20492951837215.00
2018-01-25T14:30:00Z,20493423423807.10
2018-01-26T14:30:00Z,20493344333189.50
2018-01-29T14:30:00Z,20493107046026.80
2018-01-30T14:30:00Z,20493027951424.20
2018-01-31T14:30:00Z,20493729921939.70
2018-02-01T14:30:00Z,20494566890206.00
2018-02-02T14:30:00Z,20494486445042.80
2018-02-05T14:30:00Z,20494245400584.30
2018-02-06T14:30:00Z,20494165051604.50
2018-02-07T14:30:00Z,20494084701228.70
2018-02-08T14:30:00Z,20494637976880.60
2018-02-09T14:30:00Z,20669079408408.10
2018-02-12T14:30:00Z,20673916370594.80
2018-02-13T14:30:00Z,20681825802445.40
2018-02-14T14:30:00Z,20669606301184.90
2018-02-15T14:30:00Z,20710203610249.70
2018-02-16T14:30:00Z,20760158076330.60
2018-02-20T14:30:00Z,20769498460581.90
2018-02-21T14:30:00Z,20763473664583.20
2018-02-22T14:30:00Z,20804998625487.50
2018-02-23T14:30:00Z,20820865274109.00
2018-02-26T14:30:00Z,20828957756485.60
2018-02-27T14:30:00Z,20838188918432.10
2018-02-28T14:30:00Z,20855671542905.90
2018-03-01T14:30:00Z,20874435529527.50
2018-03-02T14:30:00Z,20867726890754.50
2018-03-05T14:30:00Z,20872756577561.60
2018-03-06T14:30:00Z,20878815095126.50
2018-03-07T14:30:00Z,20879868237922.00
2018-03-08T14:30:00Z,20957314831621.40
2018-03-09T14:30:00Z,20957037099272.40
2018-03-12T14:30:00Z,20962217016816.10
2018-03-13T14:30:00Z,20972809767485.30
2018-03-14T14:30:00Z,20958230936189.60
2018-03-15T14:30:00Z,21031067004766.20
2018-03-16T14:30:00Z,21034109394094.70
2018-03-19T14:30:00Z,21044423366830.60
2018-03-20T14:30:00Z,21050409012718.70
2018-03-21T14:30:00Z,21032685133173.20
2018-03-22T14:30:00Z,21065155853968.80
2018-03-23T14:30:00Z,21068911163715.00
2018-03-26T14:30:00Z,21078004295231.90
2018-03-27T14:30:00Z,21085008958072.40
2018-03-28T14:30:00Z,21071123981792.30
2018-03-29T14:30:00Z,21113576555836.40
2018-03-30T14:30:00Z,21089642954195.80
2018-04-02T14:30:00Z,21119428167134.30
2018-04-03T14:30:00Z,21117036563374.40
2018-04-04T14:30:00Z,21118181678650.60
2018-04-05T14:30:00Z,21120516214632.50
2018-04-06T14:30:00Z,21120328488282.30
2018-04-09T14:30:00Z,21126975459212.60
2018-04-10T14:30:00Z,21134791585045.70
2018-04-11T14:30:00Z,21121833941447.80
2018-04-12T14:30:00Z,21062482347576.00
2018-04-13T14:30:00Z,21063430153271.00
2018-04-16T14:30:00Z,21070966420897.60
2018-04-17T14:30:00Z,21078301250985.40
2018-04-18T14:30:00Z,21079825622461.70
2018-04-19T14:30:00Z,21035490499062.00
2018-04-20T14:30:00Z,21038689089288.50
2018-04-23T14:30:00Z,21043317739890.60
2018-04-24T14:30:00Z,21062394007499.10
2018-04-25T14:30:00Z,21059600102296.70
2018-04-26T14:30:00Z,21055498294426.90
2018-04-27T14:30:00Z,21053362097750.10
2018-04-30T14:30:00Z,21068200197433.30
2018-05-01T14:30:00Z,21030629980055.90
2018-05-02T14:30:00Z,21045329035471.80
2018-05-03T14:30:00Z,21033707724786.20
2018-05-04T14:30:00Z,21037962909322.30
2018-05-07T14:30:00Z,21044166639576.70
2018-05-08T14:30:00Z,21054765494439.70
2018-05-09T14:30:00Z,21041008612752.30
2018-05-10T14:30:00Z,21050822593901.60
2018-05-11T14:30:00Z,21050639712224.10
2018-05-14T14:30:00Z,21054333351581.10
2018-05-15T14:30:00Z,21085763264509.00
2018-05-16T14:30:00Z,21073973527665.00
2018-05-17T14:30:00Z,21080911541301.80
2018-05-18T14:30:00Z,21080657571615.80
2018-05-21T14:30:00Z,21085944732707.80
2018-05-22T14:30:00Z,21094646382036.50
2018-05-23T14:30:00Z,21082960914217.10
2018-05-24T14:30:00Z,21086523104703.40
2018-05-25T14:30:00Z,21100147496907.10
2018-05-29T14:30:00Z,21103081230154.60
2018-05-30T14:30:00Z,21105716687008.40
2018-05-31T14:30:00Z,21145215185726.20
2018-06-01T14:30:00Z,21083101841090.80
2018-06-04T14:30:00Z,21090788185039.90
2018-06-05T14:30:00Z,21101359553390.90
2018-06-06T14:30:00Z,21102352873994.40
2018-06-07T14:30:00Z,21100104747917.40
2018-06-08T14:30:00Z,21089120186022.90
2018-06-11T14:30:00Z,21092939472262.30
2018-06-12T14:30:00Z,21099489928692.20
2018-06-13T14:30:00Z,21086796728063.70
2018-06-14T14:30:00Z,21080800469062.50
2018-06-15T14:30:00Z,21123860003777.00
2018-06-18T14:30:00Z,21131552165121.60
2018-06-19T14:30:00Z,21145776248815.30
2018-06-20T14:30:00Z,21134210723405.80
2018-06-21T14:30:00Z,21130804062854.80
2018-06-22T14:30:00Z,21130600883846.10
2018-06-25T14:30:00Z,21140053677467.70
2018-06-26T14:30:00Z,21149679487479.00
2018-06-27T14:30:00Z,21132466998348.70
2018-06-28T14:30:00Z,21128999819421.20
2018-06-29T14:30:00Z,21195069635322.80
2018-07-02T14:30:00Z,21206269833983.20
2018-07-03T14:30:00Z,21200946191836.50
2018-07-05T14:30:00Z,21202772898489.00
2018-07-06T14:30:00Z,21205959245607.90
2018-07-09T14:30:00Z,21208118414223.50
2018-07-10T14:30:00Z,21216401150637.20
2018-07-11T14:30:00Z,21207800900961.20
2018-07-12T14:30:00Z,21211173172828.90
2018-07-13T14:30:00Z,21210749709985.30
2018-07-16T14:30:00Z,21243372844071.80
2018-07-17T14:30:00Z,21255414486483.40
2018-07-18T14:30:00Z,21240863782088.90
2018-07-19T14:30:00Z,21259998398094.90
2018-07-20T14:30:00Z,21260651850117.70
2018-07-23T14:30:00Z,21263807944392.70
2018-07-24T14:30:00Z,21271247800540.00
2018-07-25T14:30:00Z,21265465085278.10
2018-07-26T14:30:00Z,21298625513846.40
2018-07-27T14:30:00Z,21298529758160.30
2018-07-30T14:30:00Z,21299336900639.90
2018-07-31T14:30:00Z,21313061060202.30
2018-08-01T14:30:00Z,21264843695121.80
2018-08-02T14:30:00Z,21313281480972.70
2018-08-03T14:30:00Z,21299885021440.10
2018-08-06T14:30:00Z,21305396357131.20
2018-08-07T14:30:00Z,21309935887061.00
2018-08-08T14:30:00Z,21298611652099.70
2018-08-09T14:30:00Z,21342180438050.30
2018-08-10T14:30:00Z,21340305860713.20
2018-08-13T14:30:00Z,21345092516711.60
2018-08-14T14:30:00Z,21351570155673.90
2018-08-15T14:30:00Z,21372335862718.20
2018-08-16T14:30:00Z,21407198924328.40
2018-08-17T14:30:00Z,21411381995917.60
2018-08-20T14:30:00Z,21413596733315.30
2018-08-21T14:30:00Z,21419489702413.20
2018-08-22T14:30:00Z,21406769129269.20
2018-08-23T14:30:00Z,21427964691382.10
2018-08-24T14:30:00Z,21427915886083.80
2018-08-27T14:30:00Z,21434509795753.30
2018-08-28T14:30:00Z,21441778054853.20
2018-08-29T14:30:00Z,21439418968321.40
2018-08-30T14:30:00Z,21442467655114.30
2018-08-31T14:30:00Z,21458849674105.00
2018-09-04T14:30:00Z,21455349744287.30
2018-09-05T14:30:00Z,21471068566864.10
2018-09-06T14:30:00Z,21454589882352.10
2018-09-07T14:30:00Z,21456483108262.80
2018-09-10T14:30:00Z,21459790397306.60
2018-09-11T14:30:00Z,21466240223764.90
2018-09-12T14:30:00Z,21450777638517.60
2018-09-13T14:30:00Z,21432542252109.40
2018-09-14T14:30:00Z,21432243515559.60
2018-09-17T14:30:00Z,21490885696294.10
2018-09-18T14:30:00Z,21499171612329.20
2018-09-19T14:30:00Z,21494298981877.30
2018-09-20T14:30:00Z,21467468522886.30
2018-09-21T14:30:00Z,21466736176134.40
2018-09-24T14:30:00Z,21475519434473.50
2018-09-25T14:30:00Z,21482774907893.40
2018-09-26T14:30:00Z,21471059693409.20
2018-09-27T14:30:00Z,21431887134696.40
2018-09-28T14:30:00Z,21516058183180.20
2018-10-01T14:30:00Z,21606948383546.20
2018-10-02T14:30:00Z,21618812057150.70
2018-10-03T14:30:00Z,21605363414469.10
2018-10-04T14:30:00Z,21599377345082.30
2018-10-05T14:30:00Z,21599293061786.90
2018-10-09T14:30:00Z,21602285916278.30
2018-10-10T14:30:00Z,21594438319301.60
2018-10-11T14:30:00Z,21590013434727.30
2018-10-12T14:30:00Z,21597941304882.10
2018-10-15T14:30:00Z,21654150409486.30
2018-10-16T14:30:00Z,21661717322449.40
2018-10-17T14:30:00Z,21653793061650.80
2018-10-18T14:30:00Z,21672453590238.10
2018-10-19T14:30:00Z,21671476474549.20
2018-10-22T14:30:00Z,21674683713625.90
2018-10-23T14:30:00Z,21682446587870.70
2018-10-24T14:30:00Z,21671062290012.80
2018-10-25T14:30:00Z,21695750095091.40
2018-10-26T14:30:00Z,21694906926249.10
2018-10-29T14:30:00Z,21697502722082.50
2018-10-30T14:30:00Z,21699981385978.10
2018-10-31T14:30:00Z,21702369768174.40
2018-11-01T14:30:00Z,21683971652591.40
2018-11-02T14:30:00Z,21676608763810.60
2018-11-05T14:30:00Z,21682375718173.20
2018-11-06T14:30:00Z,21691245489008.60
2018-11-07T14:30:00Z,21690440697756.70
2018-11-08T14:30:00Z,21733425227728.40
2018-11-09T14:30:00Z,21732569650931.10
2018-11-13T14:30:00Z,21734201829935.60
2018-11-14T14:30:00Z,21725713263679.90
2018-11-15T14:30:00Z,21763815767800.20
2018-11-16T14:30:00Z,21766361664768.60
2018-11-19T14:30:00Z,21772154155056.20
2018-11-20T14:30:00Z,21782702247862.10
2018-11-21T14:30:00Z,21769263916844.00
2018-11-23T14:30:00Z,21802839722859.60
2018-11-26T14:30:00Z,21811396160621.90
2018-11-27T14:30:00Z,21816375589157.50
2018-11-28T14:30:00Z,21801924124576.80
2018-11-29T14:30:00Z,21818103811690.40
2018-11-30T14:30:00Z,21850093880675.80
2018-12-03T14:30:00Z,21824097352309.90
2018-12-04T14:30:00Z,21836687236972.00
2018-12-05T14:30:00Z,21839046215674.50
2018-12-06T14:30:00Z,21851519415475.70
2018-12-07T14:30:00Z,21850844847464.50
2018-12-10T14:30:00Z,21854296172540.90
2018-12-11T14:30:00Z,21849744563858.20
2018-12-12T14:30:00Z,21836655970708.00
2018-12-13T14:30:00Z,21823094510705.50
2018-12-14T14:30:00Z,21820936961476.60
2018-12-17T14:30:00Z,21876674953142.60
2018-12-18T14:30:00Z,21885501490485.70
2018-12-19T14:30:00Z,21873194423164.40
2018-12-20T14:30:00Z,21863635176724.10
2018-12-21T14:30:00Z,21868943731576.60
2018-12-24T14:30:00Z,21862540831594.70
2018-12-26T14:30:00Z,21861315992472.00
2018-12-27T14:30:00Z,21845329154412.00
2018-12-28T14:30:00Z,21867322638334.40
2018-12-31T14:30:00Z,21974095705790.50
