Timestamp, Adj Close
2018-01-02T14:30:00Z,7648.100098
2018-01-03T14:30:00Z,7671.100098
2018-01-04T14:30:00Z,7695.899902
2018-01-05T14:30:00Z,7724.200195
2018-01-08T14:30:00Z,7696.5
2018-01-09T14:30:00Z,7731
2018-01-10T14:30:00Z,7748.5
2018-01-11T14:30:00Z,7762.899902
2018-01-12T14:30:00Z,7778.600098
2018-01-15T14:30:00Z,7769.100098
2018-01-16T14:30:00Z,7755.899902
2018-01-17T14:30:00Z,7725.399902
2018-01-18T14:30:00Z,7701
2018-01-19T14:30:00Z,7730.799805
2018-01-22T14:30:00Z,7715.399902
2018-01-23T14:30:00Z,7731.799805
2018-01-24T14:30:00Z,7643.399902
2018-01-25T14:30:00Z,7615.799805
2018-01-26T14:30:00Z,7665.5
2018-01-29T14:30:00Z,7671.5
2018-01-30T14:30:00Z,7588
2018-01-31T14:30:00Z,7533.600098
2018-02-01T14:30:00Z,7490.399902
2018-02-02T14:30:00Z,7443.399902
2018-02-05T14:30:00Z,7335
2018-02-06T14:30:00Z,7141.399902
2018-02-07T14:30:00Z,7279.399902
2018-02-08T14:30:00Z,7170.700195
2018-02-09T14:30:00Z,7092.399902
2018-02-12T14:30:00Z,7177.100098
2018-02-13T14:30:00Z,7168
2018-02-14T14:30:00Z,7214
2018-02-15T14:30:00Z,7234.799805
2018-02-16T14:30:00Z,7294.700195
2018-02-19T14:30:00Z,7247.700195
2018-02-20T14:30:00Z,7246.799805
2018-02-21T14:30:00Z,7281.600098
2018-02-22T14:30:00Z,7252.399902
2018-02-23T14:30:00Z,7244.399902
2018-02-26T14:30:00Z,7289.600098
2018-02-27T14:30:00Z,7282.5
2018-02-28T14:30:00Z,7231.899902
2018-03-01T14:30:00Z,7175.600098
2018-03-02T14:30:00Z,7069.899902
2018-03-05T14:30:00Z,7116
2018-03-06T14:30:00Z,7146.799805
2018-03-07T14:30:00Z,7157.799805
2018-03-08T14:30:00Z,7203.200195
2018-03-09T14:30:00Z,7224.5
2018-03-12T14:30:00Z,7214.799805
2018-03-13T14:30:00Z,7138.799805
2018-03-14T14:30:00Z,7132.700195
2018-03-15T14:30:00Z,7139.799805
2018-03-16T14:30:00Z,7164.100098
2018-03-19T14:30:00Z,7042.899902
2018-03-20T14:30:00Z,7061.299805
2018-03-21T14:30:00Z,7039
2018-03-22T14:30:00Z,6952.600098
2018-03-23T14:30:00Z,6921.899902
2018-03-26T14:30:00Z,6888.700195
2018-03-27T14:30:00Z,7000.100098
2018-03-28T14:30:00Z,7044.700195
2018-03-29T14:30:00Z,7056.600098
2018-04-03T14:30:00Z,7030.5
2018-04-04T14:30:00Z,7034
2018-04-05T14:30:00Z,7199.5
2018-04-06T14:30:00Z,7183.600098
2018-04-09T14:30:00Z,7194.799805
2018-04-10T14:30:00Z,7266.799805
2018-04-11T14:30:00Z,7257.100098
2018-04-12T14:30:00Z,7258.299805
2018-04-13T14:30:00Z,7264.600098
2018-04-16T14:30:00Z,7198.200195
2018-04-17T14:30:00Z,7226.100098
2018-04-18T14:30:00Z,7317.299805
2018-04-19T14:30:00Z,7328.899902
2018-04-20T14:30:00Z,7368.200195
2018-04-23T14:30:00Z,7398.899902
2018-04-24T14:30:00Z,7425.399902
2018-04-25T14:30:00Z,7379.299805
2018-04-26T14:30:00Z,7421.399902
2018-04-27T14:30:00Z,7502.200195
2018-04-30T14:30:00Z,7509.299805
2018-05-01T14:30:00Z,7520.399902
2018-05-02T14:30:00Z,7543.200195
2018-05-03T14:30:00Z,7502.700195
2018-05-04T14:30:00Z,7567.100098
2018-05-08T14:30:00Z,7565.799805
2018-05-09T14:30:00Z,7662.5
2018-05-10T14:30:00Z,7701
2018-05-11T14:30:00Z,7724.600098
2018-05-14T14:30:00Z,7711
2018-05-15T14:30:00Z,7723
2018-05-16T14:30:00Z,7734.200195
2018-05-17T14:30:00Z,7788
2018-05-18T14:30:00Z,7778.799805
2018-05-21T14:30:00Z,7859.200195
2018-05-22T14:30:00Z,7877.5
2018-05-23T14:30:00Z,7788.399902
2018-05-24T14:30:00Z,7716.700195
2018-05-25T14:30:00Z,7730.299805
2018-05-29T14:30:00Z,7632.600098
2018-05-30T14:30:00Z,7689.600098
2018-05-31T14:30:00Z,7678.200195
2018-06-01T14:30:00Z,7701.799805
2018-06-04T14:30:00Z,7741.299805
2018-06-05T14:30:00Z,7686.799805
2018-06-06T14:30:00Z,7712.399902
2018-06-07T14:30:00Z,7704.399902
2018-06-08T14:30:00Z,7681.100098
2018-06-11T14:30:00Z,7737.399902
2018-06-12T14:30:00Z,7703.799805
2018-06-13T14:30:00Z,7703.700195
2018-06-14T14:30:00Z,7765.799805
2018-06-15T14:30:00Z,7633.899902
2018-06-18T14:30:00Z,7631.299805
2018-06-19T14:30:00Z,7603.899902
2018-06-20T14:30:00Z,7627.399902
2018-06-21T14:30:00Z,7556.399902
2018-06-22T14:30:00Z,7682.299805
2018-06-25T14:30:00Z,7509.799805
2018-06-26T14:30:00Z,7537.899902
2018-06-27T14:30:00Z,7621.700195
2018-06-28T14:30:00Z,7615.600098
2018-06-29T14:30:00Z,7636.899902
2018-07-02T14:30:00Z,7547.899902
2018-07-03T14:30:00Z,7593.299805
2018-07-04T14:30:00Z,7573.100098
2018-07-05T14:30:00Z,7603.200195
2018-07-06T14:30:00Z,7617.700195
2018-07-09T14:30:00Z,7688
2018-07-10T14:30:00Z,7692
2018-07-11T14:30:00Z,7592
2018-07-12T14:30:00Z,7651.299805
2018-07-13T14:30:00Z,7661.899902
2018-07-16T14:30:00Z,7600.5
2018-07-17T14:30:00Z,7626.299805
2018-07-18T14:30:00Z,7676.299805
2018-07-19T14:30:00Z,7684
2018-07-20T14:30:00Z,7678.799805
2018-07-23T14:30:00Z,7655.799805
2018-07-24T14:30:00Z,7709.100098
2018-07-25T14:30:00Z,7658.299805
2018-07-26T14:30:00Z,7663.200195
2018-07-27T14:30:00Z,7701.299805
2018-07-30T14:30:00Z,7700.899902
2018-07-31T14:30:00Z,7748.799805
2018-08-01T14:30:00Z,7652.899902
2018-08-02T14:30:00Z,7575.899902
2018-08-03T14:30:00Z,7659.100098
2018-08-06T14:30:00Z,7663.799805
2018-08-07T14:30:00Z,7718.5
2018-08-08T14:30:00Z,7776.700195
2018-08-09T14:30:00Z,7741.799805
2018-08-10T14:30:00Z,7667
2018-08-13T14:30:00Z,7642.5
2018-08-14T14:30:00Z,7611.600098
2018-08-15T14:30:00Z,7497.899902
2018-08-16T14:30:00Z,7556.399902
2018-08-17T14:30:00Z,7558.600098
2018-08-20T14:30:00Z,7591.299805
2018-08-21T14:30:00Z,7565.700195
2018-08-22T14:30:00Z,7574.200195
2018-08-23T14:30:00Z,7563.200195
2018-08-24T14:30:00Z,7577.5
2018-08-28T14:30:00Z,7617.200195
2018-08-29T14:30:00Z,7563.200195
2018-08-30T14:30:00Z,7516
2018-08-31T14:30:00Z,7432.399902
2018-09-03T14:30:00Z,7504.600098
2018-09-04T14:30:00Z,7457.899902
2018-09-05T14:30:00Z,7383.299805
2018-09-06T14:30:00Z,7319
2018-09-07T14:30:00Z,7277.700195
2018-09-10T14:30:00Z,7279.299805
2018-09-11T14:30:00Z,7273.5
2018-09-12T14:30:00Z,7313.399902
2018-09-13T14:30:00Z,7281.600098
2018-09-14T14:30:00Z,7304
2018-09-17T14:30:00Z,7302.100098
2018-09-18T14:30:00Z,7300.200195
2018-09-19T14:30:00Z,7331.100098
2018-09-20T14:30:00Z,7367.299805
2018-09-21T14:30:00Z,7490.200195
2018-09-24T14:30:00Z,7458.399902
2018-09-25T14:30:00Z,7507.600098
2018-09-26T14:30:00Z,7511.5
2018-09-27T14:30:00Z,7545.399902
2018-09-28T14:30:00Z,7510.200195
2018-10-01T14:30:00Z,7495.700195
2018-10-02T14:30:00Z,7474.600098
2018-10-03T14:30:00Z,7510.299805
2018-10-04T14:30:00Z,7418.299805
2018-10-05T14:30:00Z,7318.5
2018-10-08T14:30:00Z,7233.299805
2018-10-09T14:30:00Z,7237.600098
2018-10-10T14:30:00Z,7145.700195
2018-10-11T14:30:00Z,7006.899902
2018-10-12T14:30:00Z,6995.899902
2018-10-15T14:30:00Z,7029.200195
2018-10-16T14:30:00Z,7059.399902
2018-10-17T14:30:00Z,7054.600098
2018-10-18T14:30:00Z,7027
2018-10-19T14:30:00Z,7049.799805
2018-10-22T14:30:00Z,7042.799805
2018-10-23T14:30:00Z,6955.200195
2018-10-24T14:30:00Z,6963
2018-10-25T14:30:00Z,7004.100098
2018-10-26T14:30:00Z,6939.600098
2018-10-29T14:30:00Z,7026.299805
2018-10-30T14:30:00Z,7035.899902
2018-10-31T14:30:00Z,7128.100098
2018-11-01T14:30:00Z,7114.700195
2018-11-02T14:30:00Z,7094.100098
2018-11-05T14:30:00Z,7103.799805
2018-11-06T14:30:00Z,7040.700195
2018-11-07T14:30:00Z,7117.299805
2018-11-08T14:30:00Z,7140.700195
2018-11-09T14:30:00Z,7105.299805
2018-11-12T14:30:00Z,7053.100098
2018-11-13T14:30:00Z,7053.799805
2018-11-14T14:30:00Z,7033.799805
2018-11-15T14:30:00Z,7038
2018-11-16T14:30:00Z,7013.899902
2018-11-19T14:30:00Z,7000.899902
2018-11-20T14:30:00Z,6947.899902
2018-11-21T14:30:00Z,7050.200195
2018-11-22T14:30:00Z,6960.299805
2018-11-23T14:30:00Z,6952.899902
2018-11-26T14:30:00Z,7036
2018-11-27T14:30:00Z,7016.899902
2018-11-28T14:30:00Z,7004.5
2018-11-29T14:30:00Z,7039
2018-11-30T14:30:00Z,6980.200195
2018-12-03T14:30:00Z,7062.399902
2018-12-04T14:30:00Z,7022.799805
2018-12-05T14:30:00Z,6921.799805
2018-12-06T14:30:00Z,6704.100098
2018-12-07T14:30:00Z,6778.100098
2018-12-10T14:30:00Z,6721.5
2018-12-11T14:30:00Z,6806.899902
2018-12-12T14:30:00Z,6880.200195
2018-12-13T14:30:00Z,6877.5
2018-12-14T14:30:00Z,6845.200195
2018-12-17T14:30:00Z,6773.200195
2018-12-18T14:30:00Z,6701.600098
2018-12-19T14:30:00Z,6765.899902
2018-12-20T14:30:00Z,6711.899902
2018-12-21T14:30:00Z,6721.200195
2018-12-24T14:30:00Z,6686
2018-12-27T14:30:00Z,6584.700195
2018-12-28T14:30:00Z,6734
2018-12-31T14:30:00Z,6728.100098
2019-01-02T14:30:00Z,6734.200195
2019-01-03T14:30:00Z,6692.700195
2019-01-04T14:30:00Z,6837.399902
2019-01-07T14:30:00Z,6810.899902
2019-01-08T14:30:00Z,6861.600098
2019-01-09T14:30:00Z,6906.600098
2019-01-10T14:30:00Z,6942.899902
2019-01-11T14:30:00Z,6918.200195
2019-01-14T14:30:00Z,6855
2019-01-15T14:30:00Z,6895
2019-01-16T14:30:00Z,6862.700195
2019-01-17T14:30:00Z,6834.899902
2019-01-18T14:30:00Z,6968.299805
2019-01-21T14:30:00Z,6970.600098
2019-01-22T14:30:00Z,6901.399902
2019-01-23T14:30:00Z,6842.899902
2019-01-24T14:30:00Z,6819
2019-01-25T14:30:00Z,6809.200195
2019-01-28T14:30:00Z,6747.100098
2019-01-29T14:30:00Z,6833.899902
2019-01-30T14:30:00Z,6941.600098
2019-01-31T14:30:00Z,6968.899902
2019-02-01T14:30:00Z,7020.200195
2019-02-04T14:30:00Z,7034.100098
2019-02-05T14:30:00Z,7177.399902
2019-02-06T14:30:00Z,7173.100098
2019-02-07T14:30:00Z,7093.600098
2019-02-08T14:30:00Z,7071.200195
2019-02-11T14:30:00Z,7129.100098
2019-02-12T14:30:00Z,7133.100098
2019-02-13T14:30:00Z,7190.799805
2019-02-14T14:30:00Z,7197
2/15/2019,7236.700195
