Timestamp,Volume
2018-01-02T14:30:00Z,576251800
2018-01-03T14:30:00Z,571662800
2018-01-04T14:30:00Z,705864000
2018-01-05T14:30:00Z,636035700
2018-01-08T14:30:00Z,635135400
2018-01-09T14:30:00Z,709674500
2018-01-10T14:30:00Z,861758600
2018-01-11T14:30:00Z,982791800
2018-01-12T14:30:00Z,1133867000
2018-01-15T14:30:00Z,551904700
2018-01-16T14:30:00Z,824367900
2018-01-17T14:30:00Z,822508200
2018-01-18T14:30:00Z,765527900
2018-01-19T14:30:00Z,795594100
2018-01-22T14:30:00Z,730171300
2018-01-23T14:30:00Z,742420200
2018-01-24T14:30:00Z,746643300
2018-01-25T14:30:00Z,713251600
2018-01-26T14:30:00Z,713831300
2018-01-29T14:30:00Z,612924000
2018-01-30T14:30:00Z,798999000
2018-01-31T14:30:00Z,880751700
2018-02-01T14:30:00Z,872509100
2018-02-02T14:30:00Z,871574000
2018-02-05T14:30:00Z,888994600
2018-02-06T14:30:00Z,1354591000
2018-02-07T14:30:00Z,1027400300
2018-02-08T14:30:00Z,973611300
2018-02-09T14:30:00Z,927291900
2018-02-12T14:30:00Z,718740600
2018-02-13T14:30:00Z,718988800
2018-02-14T14:30:00Z,940537000
2018-02-15T14:30:00Z,747830200
2018-02-16T14:30:00Z,651756200
2018-02-19T14:30:00Z,511199000
2018-02-20T14:30:00Z,679057900
2018-02-21T14:30:00Z,902872700
2018-02-22T14:30:00Z,926221400
2018-02-23T14:30:00Z,674864300
2018-02-26T14:30:00Z,585774600
2018-02-27T14:30:00Z,718147000
2018-02-28T14:30:00Z,919954800
2018-03-01T14:30:00Z,859756500
2018-03-02T14:30:00Z,910442200
2018-03-05T14:30:00Z,941867700
2018-03-06T14:30:00Z,786141900
2018-03-07T14:30:00Z,862383600
2018-03-08T14:30:00Z,712676800
2018-03-09T14:30:00Z,651119000
2018-03-12T14:30:00Z,613077900
2018-03-13T14:30:00Z,766738500
2018-03-14T14:30:00Z,752181500
2018-03-15T14:30:00Z,808062300
2018-03-16T14:30:00Z,1380663300
2018-03-19T14:30:00Z,728214400
2018-03-20T14:30:00Z,742142200
2018-03-21T14:30:00Z,762202300
2018-03-22T14:30:00Z,861231600
2018-03-23T14:30:00Z,879273700
2018-03-26T14:30:00Z,765318100
2018-03-27T14:30:00Z,690975500
2018-03-28T14:30:00Z,763193100
2018-03-29T14:30:00Z,876227900
2018-04-03T14:30:00Z,790532700
2018-04-04T14:30:00Z,794337900
2018-04-05T14:30:00Z,794899100
2018-04-06T14:30:00Z,656250500
2018-04-09T14:30:00Z,671088200
2018-04-10T14:30:00Z,755081700
2018-04-11T14:30:00Z,766200800
2018-04-12T14:30:00Z,666773400
2018-04-13T14:30:00Z,662868400
2018-04-16T14:30:00Z,862881700
2018-04-17T14:30:00Z,714046100
2018-04-18T14:30:00Z,877056200
2018-04-19T14:30:00Z,788416300
2018-04-20T14:30:00Z,769512800
2018-04-23T14:30:00Z,777571800
2018-04-24T14:30:00Z,836399400
2018-04-25T14:30:00Z,879795200
2018-04-26T14:30:00Z,814899700
2018-04-27T14:30:00Z,750485000
2018-04-30T14:30:00Z,991178200
2018-05-01T14:30:00Z,567569600
2018-05-02T14:30:00Z,829699300
2018-05-03T14:30:00Z,723643100
2018-05-04T14:30:00Z,880646600
2018-05-08T14:30:00Z,876829900
2018-05-09T14:30:00Z,891351200
2018-05-10T14:30:00Z,878774100
2018-05-11T14:30:00Z,731924200
2018-05-14T14:30:00Z,749899600
2018-05-15T14:30:00Z,1027698700
2018-05-16T14:30:00Z,933498300
2018-05-17T14:30:00Z,781296600
2018-05-18T14:30:00Z,899946200
2018-05-21T14:30:00Z,691927400
2018-05-22T14:30:00Z,807636300
2018-05-23T14:30:00Z,918822700
2018-05-24T14:30:00Z,890463600
2018-05-25T14:30:00Z,844360200
2018-05-29T14:30:00Z,1288493000
2018-05-30T14:30:00Z,923820700
2018-05-31T14:30:00Z,1549063100
2018-06-01T14:30:00Z,783469400
2018-06-04T14:30:00Z,722966000
2018-06-05T14:30:00Z,933666200
2018-06-06T14:30:00Z,884617800
2018-06-07T14:30:00Z,1056744900
2018-06-08T14:30:00Z,755489900
2018-06-11T14:30:00Z,736070400
2018-06-12T14:30:00Z,773837800
2018-06-13T14:30:00Z,852427100
2018-06-14T14:30:00Z,1119081700
2018-06-15T14:30:00Z,1711560200
2018-06-18T14:30:00Z,664167900
2018-06-19T14:30:00Z,897872000
2018-06-20T14:30:00Z,844000100
2018-06-21T14:30:00Z,777562300
2018-06-22T14:30:00Z,716273100
2018-06-25T14:30:00Z,791358000
2018-06-26T14:30:00Z,1088107300
2018-06-27T14:30:00Z,1643638600
2018-06-28T14:30:00Z,790762300
2018-06-29T14:30:00Z,898931000
2018-07-02T14:30:00Z,778437000
2018-07-03T14:30:00Z,1015952400
2018-07-04T14:30:00Z,574163100
2018-07-05T14:30:00Z,614456600
2018-07-06T14:30:00Z,663475300
2018-07-09T14:30:00Z,676761100
2018-07-10T14:30:00Z,701511200
2018-07-11T14:30:00Z,793208100
2018-07-12T14:30:00Z,746183900
2018-07-13T14:30:00Z,574401200
2018-07-16T14:30:00Z,591161000
2018-07-17T14:30:00Z,724367500
2018-07-18T14:30:00Z,651377100
2018-07-19T14:30:00Z,695398600
2018-07-20T14:30:00Z,685061200
2018-07-23T14:30:00Z,573514400
2018-07-24T14:30:00Z,852532800
2018-07-25T14:30:00Z,677528100
2018-07-26T14:30:00Z,588851200
2018-07-27T14:30:00Z,765238000
2018-07-30T14:30:00Z,732990700
2018-07-31T14:30:00Z,915075400
2018-08-01T14:30:00Z,975009600
2018-08-02T14:30:00Z,1006803400
2018-08-03T14:30:00Z,649947700
2018-08-06T14:30:00Z,813731500
2018-08-07T14:30:00Z,675716300
2018-08-08T14:30:00Z,604063500
2018-08-09T14:30:00Z,565689200
2018-08-10T14:30:00Z,664153400
2018-08-13T14:30:00Z,595242100
2018-08-14T14:30:00Z,763645300
2018-08-15T14:30:00Z,967014400
2018-08-16T14:30:00Z,771423800
2018-08-17T14:30:00Z,602739600
2018-08-20T14:30:00Z,559541000
2018-08-21T14:30:00Z,543548500
2018-08-22T14:30:00Z,611259200
2018-08-23T14:30:00Z,574932100
2018-08-24T14:30:00Z,507869800
2018-08-28T14:30:00Z,585715100
2018-08-29T14:30:00Z,688677800
2018-08-30T14:30:00Z,623166000
2018-08-31T14:30:00Z,812932000
2018-09-03T14:30:00Z,455166900
2018-09-04T14:30:00Z,652803100
2018-09-05T14:30:00Z,769494800
2018-09-06T14:30:00Z,723693100
2018-09-07T14:30:00Z,863004900
2018-09-10T14:30:00Z,696321800
2018-09-11T14:30:00Z,644115800
2018-09-12T14:30:00Z,677165600
2018-09-13T14:30:00Z,660719700
2018-09-14T14:30:00Z,577288900
2018-09-17T14:30:00Z,620997300
2018-09-18T14:30:00Z,700366200
2018-09-19T14:30:00Z,762448100
2018-09-20T14:30:00Z,864910500
2018-09-21T14:30:00Z,1504423700
2018-09-24T14:30:00Z,689612600
2018-09-25T14:30:00Z,767955100
2018-09-26T14:30:00Z,672358800
2018-09-27T14:30:00Z,646428000
2018-09-28T14:30:00Z,915815000
2018-10-01T14:30:00Z,728276800
2018-10-02T14:30:00Z,817840400
2018-10-03T14:30:00Z,824628100
2018-10-04T14:30:00Z,801963200
2018-10-05T14:30:00Z,743757800
2018-10-08T14:30:00Z,675287300
2018-10-09T14:30:00Z,765996800
2018-10-10T14:30:00Z,1029488500
2018-10-11T14:30:00Z,1172373200
2018-10-12T14:30:00Z,876577500
2018-10-15T14:30:00Z,657640100
2018-10-16T14:30:00Z,766800500
2018-10-17T14:30:00Z,685937100
2018-10-18T14:30:00Z,672072000
2018-10-19T14:30:00Z,793925800
2018-10-22T14:30:00Z,784032400
2018-10-23T14:30:00Z,983305900
2018-10-24T14:30:00Z,778187100
2018-10-25T14:30:00Z,831568200
2018-10-26T14:30:00Z,779028300
2018-10-29T14:30:00Z,780563900
2018-10-30T14:30:00Z,751498500
2018-10-31T14:30:00Z,895391200
2018-11-01T14:30:00Z,1024684600
2018-11-02T14:30:00Z,800219300
2018-11-05T14:30:00Z,553382600
2018-11-06T14:30:00Z,646543100
2018-11-07T14:30:00Z,678581300
2018-11-08T14:30:00Z,676867200
2018-11-09T14:30:00Z,652724100
2018-11-12T14:30:00Z,708713400
2018-11-13T14:30:00Z,1048825300
2018-11-14T14:30:00Z,925587100
2018-11-15T14:30:00Z,1257540400
2018-11-16T14:30:00Z,1010040200
2018-11-19T14:30:00Z,776442400
2018-11-20T14:30:00Z,826183700
2018-11-21T14:30:00Z,841306700
2018-11-22T14:30:00Z,763217400
2018-11-23T14:30:00Z,686823000
2018-11-26T14:30:00Z,802145500
2018-11-27T14:30:00Z,829960500
2018-11-28T14:30:00Z,800840600
2018-11-29T14:30:00Z,777115000
2018-11-30T14:30:00Z,1189062500
2018-12-03T14:30:00Z,864783000
2018-12-04T14:30:00Z,822570700
2018-12-05T14:30:00Z,789059300
2018-12-06T14:30:00Z,1029779500
2018-12-07T14:30:00Z,819982500
2018-12-10T14:30:00Z,864359000
2018-12-11T14:30:00Z,841263500
2018-12-12T14:30:00Z,1063865300
2018-12-13T14:30:00Z,735372600
2018-12-14T14:30:00Z,714141000
2018-12-17T14:30:00Z,734851100
2018-12-18T14:30:00Z,855040800
2018-12-19T14:30:00Z,754065600
2018-12-20T14:30:00Z,903273100
2018-12-21T14:30:00Z,1596669300
2018-12-24T14:30:00Z,192808000
2018-12-27T14:30:00Z,590127000
2018-12-28T14:30:00Z,499812000
2018-12-31T14:30:00Z,225303900
2019-01-02T14:30:00Z,614252000
2019-01-03T14:30:00Z,674099100
2019-01-04T14:30:00Z,639136700
2019-01-07T14:30:00Z,736559900
2019-01-08T14:30:00Z,651977000
2019-01-09T14:30:00Z,860684900
2019-01-10T14:30:00Z,611434300
2019-01-11T14:30:00Z,680478600
2019-01-14T14:30:00Z,683449700
2019-01-15T14:30:00Z,687341200
2019-01-16T14:30:00Z,787626400
2019-01-17T14:30:00Z,582654200
2019-01-18T14:30:00Z,795742900
2019-01-21T14:30:00Z,474827100
2019-01-22T14:30:00Z,565967800
2019-01-23T14:30:00Z,646039700
2019-01-24T14:30:00Z,599978600
2019-01-25T14:30:00Z,727497200
2019-01-28T14:30:00Z,648213700
2019-01-29T14:30:00Z,697035900
2019-01-30T14:30:00Z,748772100
2019-01-31T14:30:00Z,866316300
2019-02-01T14:30:00Z,630712300
2019-02-04T14:30:00Z,611990600
2019-02-05T14:30:00Z,662979300
2019-02-06T14:30:00Z,599487700
2019-02-07T14:30:00Z,649638500
2019-02-08T14:30:00Z,532300500
2019-02-11T14:30:00Z,548318300
2019-02-12T14:30:00Z,526735100
2019-02-13T14:30:00Z,561646800
2019-02-14T14:30:00Z,519107200
2/15/2019,688422300
