Timestamp,Low
2018-01-02T14:30:00Z,7624.100098
2018-01-03T14:30:00Z,7640.5
2018-01-04T14:30:00Z,7671.100098
2018-01-05T14:30:00Z,7689.799805
2018-01-08T14:30:00Z,7691.799805
2018-01-09T14:30:00Z,7696.5
2018-01-10T14:30:00Z,7716.200195
2018-01-11T14:30:00Z,7734.600098
2018-01-12T14:30:00Z,7752.600098
2018-01-15T14:30:00Z,7763.399902
2018-01-16T14:30:00Z,7740.600098
2018-01-17T14:30:00Z,7711.100098
2018-01-18T14:30:00Z,7683.700195
2018-01-19T14:30:00Z,7694.700195
2018-01-22T14:30:00Z,7703.700195
2018-01-23T14:30:00Z,7710
2018-01-24T14:30:00Z,7643.399902
2018-01-25T14:30:00Z,7608.5
2018-01-26T14:30:00Z,7615.799805
2018-01-29T14:30:00Z,7663.899902
2018-01-30T14:30:00Z,7587.100098
2018-01-31T14:30:00Z,7521.799805
2018-02-01T14:30:00Z,7476.5
2018-02-02T14:30:00Z,7432.299805
2018-02-05T14:30:00Z,7334.799805
2018-02-06T14:30:00Z,7079.399902
2018-02-07T14:30:00Z,7141.399902
2018-02-08T14:30:00Z,7161.299805
2018-02-09T14:30:00Z,7073
2018-02-12T14:30:00Z,7092.399902
2018-02-13T14:30:00Z,7165.799805
2018-02-14T14:30:00Z,7145.700195
2018-02-15T14:30:00Z,7206.700195
2018-02-16T14:30:00Z,7234.799805
2018-02-19T14:30:00Z,7240
2018-02-20T14:30:00Z,7202.100098
2018-02-21T14:30:00Z,7220.600098
2018-02-22T14:30:00Z,7187.799805
2018-02-23T14:30:00Z,7220.799805
2018-02-26T14:30:00Z,7244.299805
2018-02-27T14:30:00Z,7272.899902
2018-02-28T14:30:00Z,7231.899902
2018-03-01T14:30:00Z,7153.399902
2018-03-02T14:30:00Z,7063.399902
2018-03-05T14:30:00Z,7062.100098
2018-03-06T14:30:00Z,7115.600098
2018-03-07T14:30:00Z,7109.600098
2018-03-08T14:30:00Z,7145.700195
2018-03-09T14:30:00Z,7189.700195
2018-03-12T14:30:00Z,7198.200195
2018-03-13T14:30:00Z,7125.600098
2018-03-14T14:30:00Z,7122.799805
2018-03-15T14:30:00Z,7127.100098
2018-03-16T14:30:00Z,7131.299805
2018-03-19T14:30:00Z,7034.899902
2018-03-20T14:30:00Z,7042.600098
2018-03-21T14:30:00Z,7016.799805
2018-03-22T14:30:00Z,6914.5
2018-03-23T14:30:00Z,6877
2018-03-26T14:30:00Z,6866.899902
2018-03-27T14:30:00Z,6888.700195
2018-03-28T14:30:00Z,6923.299805
2018-03-29T14:30:00Z,7042.700195
2018-04-03T14:30:00Z,6996.799805
2018-04-04T14:30:00Z,6971.799805
2018-04-05T14:30:00Z,7034
2018-04-06T14:30:00Z,7163.100098
2018-04-09T14:30:00Z,7145.600098
2018-04-10T14:30:00Z,7194.799805
2018-04-11T14:30:00Z,7243.299805
2018-04-12T14:30:00Z,7240.799805
2018-04-13T14:30:00Z,7249.100098
2018-04-16T14:30:00Z,7195.5
2018-04-17T14:30:00Z,7189.899902
2018-04-18T14:30:00Z,7226.100098
2018-04-19T14:30:00Z,7309.399902
2018-04-20T14:30:00Z,7323.299805
2018-04-23T14:30:00Z,7359.700195
2018-04-24T14:30:00Z,7397.299805
2018-04-25T14:30:00Z,7334.600098
2018-04-26T14:30:00Z,7355
2018-04-27T14:30:00Z,7421.299805
2018-04-30T14:30:00Z,7497.100098
2018-05-01T14:30:00Z,7506.600098
2018-05-02T14:30:00Z,7519.600098
2018-05-03T14:30:00Z,7492.399902
2018-05-04T14:30:00Z,7502.700195
2018-05-08T14:30:00Z,7550.399902
2018-05-09T14:30:00Z,7565.799805
2018-05-10T14:30:00Z,7631.600098
2018-05-11T14:30:00Z,7691.700195
2018-05-14T14:30:00Z,7688.600098
2018-05-15T14:30:00Z,7687.5
2018-05-16T14:30:00Z,7717.799805
2018-05-17T14:30:00Z,7713.899902
2018-05-18T14:30:00Z,7753.299805
2018-05-21T14:30:00Z,7778.100098
2018-05-22T14:30:00Z,7854.600098
2018-05-23T14:30:00Z,7765.299805
2018-05-24T14:30:00Z,7716.700195
2018-05-25T14:30:00Z,7703.299805
2018-05-29T14:30:00Z,7610.700195
2018-05-30T14:30:00Z,7618.100098
2018-05-31T14:30:00Z,7651.100098
2018-06-01T14:30:00Z,7678.200195
2018-06-04T14:30:00Z,7701.700195
2018-06-05T14:30:00Z,7686.600098
2018-06-06T14:30:00Z,7671.600098
2018-06-07T14:30:00Z,7698.200195
2018-06-08T14:30:00Z,7637.5
2018-06-11T14:30:00Z,7681.100098
2018-06-12T14:30:00Z,7701.299805
2018-06-13T14:30:00Z,7677.200195
2018-06-14T14:30:00Z,7650.200195
2018-06-15T14:30:00Z,7633.899902
2018-06-18T14:30:00Z,7601.600098
2018-06-19T14:30:00Z,7548.799805
2018-06-20T14:30:00Z,7603.899902
2018-06-21T14:30:00Z,7548.100098
2018-06-22T14:30:00Z,7556.200195
2018-06-25T14:30:00Z,7508.299805
2018-06-26T14:30:00Z,7509.799805
2018-06-27T14:30:00Z,7512
2018-06-28T14:30:00Z,7576
2018-06-29T14:30:00Z,7615.600098
2018-07-02T14:30:00Z,7540.700195
2018-07-03T14:30:00Z,7545
2018-07-04T14:30:00Z,7560.799805
2018-07-05T14:30:00Z,7572.700195
2018-07-06T14:30:00Z,7569.700195
2018-07-09T14:30:00Z,7617.700195
2018-07-10T14:30:00Z,7677.100098
2018-07-11T14:30:00Z,7578.200195
2018-07-12T14:30:00Z,7592
2018-07-13T14:30:00Z,7651.299805
2018-07-16T14:30:00Z,7565
2018-07-17T14:30:00Z,7581.799805
2018-07-18T14:30:00Z,7625.799805
2018-07-19T14:30:00Z,7660
2018-07-20T14:30:00Z,7631.700195
2018-07-23T14:30:00Z,7621.799805
2018-07-24T14:30:00Z,7648.600098
2018-07-25T14:30:00Z,7640.600098
2018-07-26T14:30:00Z,7640.899902
2018-07-27T14:30:00Z,7663.200195
2018-07-30T14:30:00Z,7659.899902
2018-07-31T14:30:00Z,7695.799805
2018-08-01T14:30:00Z,7634.700195
2018-08-02T14:30:00Z,7549.299805
2018-08-03T14:30:00Z,7575.899902
2018-08-06T14:30:00Z,7636.600098
2018-08-07T14:30:00Z,7663.200195
2018-08-08T14:30:00Z,7707.299805
2018-08-09T14:30:00Z,7714.5
2018-08-10T14:30:00Z,7657.700195
2018-08-13T14:30:00Z,7614.5
2018-08-14T14:30:00Z,7599.700195
2018-08-15T14:30:00Z,7477.100098
2018-08-16T14:30:00Z,7497.899902
2018-08-17T14:30:00Z,7514.299805
2018-08-20T14:30:00Z,7558.600098
2018-08-21T14:30:00Z,7557.299805
2018-08-22T14:30:00Z,7531.200195
2018-08-23T14:30:00Z,7560.899902
2018-08-24T14:30:00Z,7557.700195
2018-08-28T14:30:00Z,7577.5
2018-08-29T14:30:00Z,7545.100098
2018-08-30T14:30:00Z,7497.5
2018-08-31T14:30:00Z,7428.700195
2018-09-03T14:30:00Z,7432.200195
2018-09-04T14:30:00Z,7437.700195
2018-09-05T14:30:00Z,7358
2018-09-06T14:30:00Z,7313.100098
2018-09-07T14:30:00Z,7227.100098
2018-09-10T14:30:00Z,7256.5
2018-09-11T14:30:00Z,7220.5
2018-09-12T14:30:00Z,7250.799805
2018-09-13T14:30:00Z,7275.100098
2018-09-14T14:30:00Z,7281.600098
2018-09-17T14:30:00Z,7267.799805
2018-09-18T14:30:00Z,7282
2018-09-19T14:30:00Z,7279.899902
2018-09-20T14:30:00Z,7324
2018-09-21T14:30:00Z,7367.299805
2018-09-24T14:30:00Z,7450.5
2018-09-25T14:30:00Z,7455.200195
2018-09-26T14:30:00Z,7490.200195
2018-09-27T14:30:00Z,7490.899902
2018-09-28T14:30:00Z,7474.700195
2018-10-01T14:30:00Z,7466.700195
2018-10-02T14:30:00Z,7444.799805
2018-10-03T14:30:00Z,7474.600098
2018-10-04T14:30:00Z,7411.299805
2018-10-05T14:30:00Z,7318.5
2018-10-08T14:30:00Z,7233.299805
2018-10-09T14:30:00Z,7184.299805
2018-10-10T14:30:00Z,7145.700195
2018-10-11T14:30:00Z,6998
2018-10-12T14:30:00Z,6994.799805
2018-10-15T14:30:00Z,6961.299805
2018-10-16T14:30:00Z,6998.899902
2018-10-17T14:30:00Z,7019.399902
2018-10-18T14:30:00Z,7026.700195
2018-10-19T14:30:00Z,7012.600098
2018-10-22T14:30:00Z,7042.100098
2018-10-23T14:30:00Z,6928.700195
2018-10-24T14:30:00Z,6955.200195
2018-10-25T14:30:00Z,6886
2018-10-26T14:30:00Z,6851.600098
2018-10-29T14:30:00Z,6939.600098
2018-10-30T14:30:00Z,6983.700195
2018-10-31T14:30:00Z,7035.899902
2018-11-01T14:30:00Z,7085.700195
2018-11-02T14:30:00Z,7094.100098
2018-11-05T14:30:00Z,7077.399902
2018-11-06T14:30:00Z,7027.5
2018-11-07T14:30:00Z,7040.700195
2018-11-08T14:30:00Z,7115
2018-11-09T14:30:00Z,7070.799805
2018-11-12T14:30:00Z,7053.100098
2018-11-13T14:30:00Z,7016.600098
2018-11-14T14:30:00Z,6979.700195
2018-11-15T14:30:00Z,6979.600098
2018-11-16T14:30:00Z,6969
2018-11-19T14:30:00Z,6997.799805
2018-11-20T14:30:00Z,6904.200195
2018-11-21T14:30:00Z,6947.899902
2018-11-22T14:30:00Z,6945
2018-11-23T14:30:00Z,6912.299805
2018-11-26T14:30:00Z,6952.899902
2018-11-27T14:30:00Z,6984
2018-11-28T14:30:00Z,6987.299805
2018-11-29T14:30:00Z,7004.5
2018-11-30T14:30:00Z,6965.600098
2018-12-03T14:30:00Z,6980.200195
2018-12-04T14:30:00Z,7002.700195
2018-12-05T14:30:00Z,6921.799805
2018-12-06T14:30:00Z,6673.600098
2018-12-07T14:30:00Z,6704.100098
2018-12-10T14:30:00Z,6719.200195
2018-12-11T14:30:00Z,6721.5
2018-12-12T14:30:00Z,6806.899902
2018-12-13T14:30:00Z,6849
2018-12-14T14:30:00Z,6788.700195
2018-12-17T14:30:00Z,6761.399902
2018-12-18T14:30:00Z,6701.600098
2018-12-19T14:30:00Z,6698.200195
2018-12-20T14:30:00Z,6646.5
2018-12-21T14:30:00Z,6653.700195
2018-12-24T14:30:00Z,6661
2018-12-27T14:30:00Z,6536.5
2018-12-28T14:30:00Z,6584.700195
2018-12-31T14:30:00Z,6718.299805
2019-01-02T14:30:00Z,6599.5
2019-01-03T14:30:00Z,6685.100098
2019-01-04T14:30:00Z,6692.5
2019-01-07T14:30:00Z,6778
2019-01-08T14:30:00Z,6804.899902
2019-01-09T14:30:00Z,6861.600098
2019-01-10T14:30:00Z,6860.799805
2019-01-11T14:30:00Z,6902.700195
2019-01-14T14:30:00Z,6841.700195
2019-01-15T14:30:00Z,6849.600098
2019-01-16T14:30:00Z,6848.600098
2019-01-17T14:30:00Z,6799
2019-01-18T14:30:00Z,6834.899902
2019-01-21T14:30:00Z,6954.5
2019-01-22T14:30:00Z,6880.700195
2019-01-23T14:30:00Z,6834.299805
2019-01-24T14:30:00Z,6802
2019-01-25T14:30:00Z,6806.799805
2019-01-28T14:30:00Z,6734
2019-01-29T14:30:00Z,6747.100098
2019-01-30T14:30:00Z,6833.899902
2019-01-31T14:30:00Z,6941.100098
2019-02-01T14:30:00Z,6968.899902
2019-02-04T14:30:00Z,7002.399902
2019-02-05T14:30:00Z,7033.600098
2019-02-06T14:30:00Z,7146.700195
2019-02-07T14:30:00Z,7093.600098
2019-02-08T14:30:00Z,7064.899902
2019-02-11T14:30:00Z,7071.200195
2019-02-12T14:30:00Z,7121.700195
2019-02-13T14:30:00Z,7133.100098
2019-02-14T14:30:00Z,7183
2/15/2019,7185.200195
