Timestamp, Adj Close
2018-01-02T14:30:00Z,5288.600098
2018-01-03T14:30:00Z,5331.279785
2018-01-04T14:30:00Z,5413.689941
2018-01-05T14:30:00Z,5470.750000
2018-01-08T14:30:00Z,5487.419922
2018-01-09T14:30:00Z,5523.939941
2018-01-10T14:30:00Z,5504.680176
2018-01-11T14:30:00Z,5488.549805
2018-01-12T14:30:00Z,5517.060059
2018-01-15T14:30:00Z,5509.689941
2018-01-16T14:30:00Z,5513.819824
2018-01-17T14:30:00Z,5493.990234
2018-01-18T14:30:00Z,5494.830078
2018-01-19T14:30:00Z,5526.509766
2018-01-22T14:30:00Z,5541.990234
2018-01-23T14:30:00Z,5535.259766
2018-01-24T14:30:00Z,5495.160156
2018-01-25T14:30:00Z,5481.209961
2018-01-26T14:30:00Z,5529.149902
2018-01-29T14:30:00Z,5521.589844
2018-01-30T14:30:00Z,5473.779785
2018-01-31T14:30:00Z,5481.930176
2018-02-01T14:30:00Z,5454.549805
2018-02-02T14:30:00Z,5364.979980
2018-02-05T14:30:00Z,5285.830078
2018-02-06T14:30:00Z,5161.810059
2018-02-07T14:30:00Z,5255.899902
2018-02-08T14:30:00Z,5151.680176
2018-02-09T14:30:00Z,5079.209961
2018-02-12T14:30:00Z,5140.060059
2018-02-13T14:30:00Z,5109.240234
2018-02-14T14:30:00Z,5165.259766
2018-02-15T14:30:00Z,5222.520020
2018-02-16T14:30:00Z,5281.580078
2018-02-19T14:30:00Z,5256.180176
2018-02-20T14:30:00Z,5289.859863
2018-02-21T14:30:00Z,5302.169922
2018-02-22T14:30:00Z,5309.229980
2018-02-23T14:30:00Z,5317.370117
2018-02-26T14:30:00Z,5344.259766
2018-02-27T14:30:00Z,5343.930176
2018-02-28T14:30:00Z,5320.490234
2018-03-01T14:30:00Z,5262.560059
2018-03-02T14:30:00Z,5136.580078
2018-03-05T14:30:00Z,5167.229980
2018-03-06T14:30:00Z,5170.229980
2018-03-07T14:30:00Z,5187.830078
2018-03-08T14:30:00Z,5254.100098
2018-03-09T14:30:00Z,5274.399902
2018-03-12T14:30:00Z,5276.709961
2018-03-13T14:30:00Z,5242.790039
2018-03-14T14:30:00Z,5233.359863
2018-03-15T14:30:00Z,5267.259766
2018-03-16T14:30:00Z,5282.750000
2018-03-19T14:30:00Z,5222.839844
2018-03-20T14:30:00Z,5252.430176
2018-03-21T14:30:00Z,5239.740234
2018-03-22T14:30:00Z,5167.209961
2018-03-23T14:30:00Z,5095.220215
2018-03-26T14:30:00Z,5066.279785
2018-03-27T14:30:00Z,5115.740234
2018-03-28T14:30:00Z,5130.439941
2018-03-29T14:30:00Z,5167.299805
2018-04-03T14:30:00Z,5152.120117
2018-04-04T14:30:00Z,5141.799805
2018-04-05T14:30:00Z,5276.669922
2018-04-06T14:30:00Z,5258.240234
2018-04-09T14:30:00Z,5263.390137
2018-04-10T14:30:00Z,5307.560059
2018-04-11T14:30:00Z,5277.939941
2018-04-12T14:30:00Z,5309.220215
2018-04-13T14:30:00Z,5315.020020
2018-04-16T14:30:00Z,5312.959961
2018-04-17T14:30:00Z,5353.540039
2018-04-18T14:30:00Z,5380.169922
2018-04-19T14:30:00Z,5391.640137
2018-04-20T14:30:00Z,5412.830078
2018-04-23T14:30:00Z,5438.549805
2018-04-24T14:30:00Z,5444.160156
2018-04-25T14:30:00Z,5413.299805
2018-04-26T14:30:00Z,5453.580078
2018-04-27T14:30:00Z,5483.189941
2018-04-30T14:30:00Z,5520.500000
2018-05-02T14:30:00Z,5529.220215
2018-05-03T14:30:00Z,5501.660156
2018-05-04T14:30:00Z,5516.049805
2018-05-07T14:30:00Z,5531.419922
2018-05-08T14:30:00Z,5521.930176
2018-05-09T14:30:00Z,5534.629883
2018-05-10T14:30:00Z,5545.950195
2018-05-11T14:30:00Z,5541.939941
2018-05-14T14:30:00Z,5540.680176
2018-05-15T14:30:00Z,5553.160156
2018-05-16T14:30:00Z,5567.540039
2018-05-17T14:30:00Z,5621.919922
2018-05-18T14:30:00Z,5614.509766
2018-05-21T14:30:00Z,5637.509766
2018-05-22T14:30:00Z,5640.100098
2018-05-23T14:30:00Z,5565.850098
2018-05-24T14:30:00Z,5548.450195
2018-05-25T14:30:00Z,5542.549805
2018-05-28T14:30:00Z,5508.930176
2018-05-29T14:30:00Z,5438.060059
2018-05-30T14:30:00Z,5427.350098
2018-05-31T14:30:00Z,5398.399902
2018-06-01T14:30:00Z,5465.529785
2018-06-04T14:30:00Z,5472.910156
2018-06-05T14:30:00Z,5460.950195
2018-06-06T14:30:00Z,5457.560059
2018-06-07T14:30:00Z,5448.359863
2018-06-08T14:30:00Z,5450.220215
2018-06-11T14:30:00Z,5473.910156
2018-06-12T14:30:00Z,5453.370117
2018-06-13T14:30:00Z,5452.729980
2018-06-14T14:30:00Z,5528.459961
2018-06-15T14:30:00Z,5501.879883
2018-06-18T14:30:00Z,5450.479980
2018-06-19T14:30:00Z,5390.629883
2018-06-20T14:30:00Z,5372.310059
2018-06-21T14:30:00Z,5316.009766
2018-06-22T14:30:00Z,5387.379883
2018-06-25T14:30:00Z,5283.859863
2018-06-26T14:30:00Z,5281.290039
2018-06-27T14:30:00Z,5327.200195
2018-06-28T14:30:00Z,5275.640137
2018-06-29T14:30:00Z,5323.529785
2018-07-02T14:30:00Z,5276.759766
2018-07-03T14:30:00Z,5316.770020
2018-07-04T14:30:00Z,5320.500000
2018-07-05T14:30:00Z,5366.319824
2018-07-06T14:30:00Z,5375.770020
2018-07-09T14:30:00Z,5398.109863
2018-07-10T14:30:00Z,5434.359863
2018-07-11T14:30:00Z,5353.930176
2018-07-12T14:30:00Z,5405.899902
2018-07-13T14:30:00Z,5429.200195
2018-07-16T14:30:00Z,5409.430176
2018-07-17T14:30:00Z,5422.540039
2018-07-18T14:30:00Z,5447.439941
2018-07-19T14:30:00Z,5417.069824
2018-07-20T14:30:00Z,5398.319824
2018-07-23T14:30:00Z,5378.250000
2018-07-24T14:30:00Z,5434.189941
2018-07-25T14:30:00Z,5426.410156
2018-07-26T14:30:00Z,5480.549805
2018-07-27T14:30:00Z,5511.759766
2018-07-30T14:30:00Z,5491.220215
2018-07-31T14:30:00Z,5511.299805
2018-08-01T14:30:00Z,5498.370117
2018-08-02T14:30:00Z,5460.979980
2018-08-03T14:30:00Z,5478.979980
2018-08-06T14:30:00Z,5477.180176
2018-08-07T14:30:00Z,5521.310059
2018-08-08T14:30:00Z,5501.899902
2018-08-09T14:30:00Z,5502.250000
2018-08-10T14:30:00Z,5414.680176
2018-08-13T14:30:00Z,5412.319824
2018-08-14T14:30:00Z,5403.410156
2018-08-15T14:30:00Z,5305.220215
2018-08-16T14:30:00Z,5349.020020
2018-08-17T14:30:00Z,5344.930176
2018-08-20T14:30:00Z,5379.649902
2018-08-21T14:30:00Z,5408.600098
2018-08-22T14:30:00Z,5420.609863
2018-08-23T14:30:00Z,5419.330078
2018-08-24T14:30:00Z,5432.500000
2018-08-27T14:30:00Z,5479.100098
2018-08-28T14:30:00Z,5484.990234
2018-08-29T14:30:00Z,5501.330078
2018-08-30T14:30:00Z,5478.060059
2018-08-31T14:30:00Z,5406.850098
2018-09-03T14:30:00Z,5413.799805
2018-09-04T14:30:00Z,5342.700195
2018-09-05T14:30:00Z,5260.220215
2018-09-06T14:30:00Z,5243.839844
2018-09-07T14:30:00Z,5252.220215
2018-09-10T14:30:00Z,5269.629883
2018-09-11T14:30:00Z,5283.790039
2018-09-12T14:30:00Z,5332.129883
2018-09-13T14:30:00Z,5328.120117
2018-09-14T14:30:00Z,5352.569824
2018-09-17T14:30:00Z,5348.870117
2018-09-18T14:30:00Z,5363.790039
2018-09-19T14:30:00Z,5393.740234
2018-09-20T14:30:00Z,5451.589844
2018-09-21T14:30:00Z,5494.169922
2018-09-24T14:30:00Z,5476.169922
2018-09-25T14:30:00Z,5479.100098
2018-09-26T14:30:00Z,5512.729980
2018-09-27T14:30:00Z,5540.410156
2018-09-28T14:30:00Z,5493.490234
2018-10-01T14:30:00Z,5506.819824
2018-10-02T14:30:00Z,5467.890137
2018-10-03T14:30:00Z,5491.399902
2018-10-04T14:30:00Z,5410.850098
2018-10-05T14:30:00Z,5359.359863
2018-10-08T14:30:00Z,5300.250000
2018-10-09T14:30:00Z,5318.549805
2018-10-10T14:30:00Z,5206.220215
2018-10-11T14:30:00Z,5106.370117
2018-10-12T14:30:00Z,5095.979980
2018-10-15T14:30:00Z,5095.069824
2018-10-16T14:30:00Z,5173.049805
2018-10-17T14:30:00Z,5144.950195
2018-10-18T14:30:00Z,5116.790039
2018-10-19T14:30:00Z,5084.660156
2018-10-22T14:30:00Z,5053.310059
2018-10-23T14:30:00Z,4967.689941
2018-10-24T14:30:00Z,4953.089844
2018-10-25T14:30:00Z,5032.299805
2018-10-26T14:30:00Z,4967.370117
2018-10-29T14:30:00Z,4989.350098
2018-10-30T14:30:00Z,4978.529785
2018-10-31T14:30:00Z,5093.439941
2018-11-01T14:30:00Z,5085.779785
2018-11-02T14:30:00Z,5102.129883
2018-11-05T14:30:00Z,5101.390137
2018-11-06T14:30:00Z,5075.189941
2018-11-07T14:30:00Z,5137.939941
2018-11-08T14:30:00Z,5131.450195
2018-11-09T14:30:00Z,5106.750000
2018-11-12T14:30:00Z,5059.089844
2018-11-13T14:30:00Z,5101.850098
2018-11-14T14:30:00Z,5068.850098
2018-11-15T14:30:00Z,5033.620117
2018-11-16T14:30:00Z,5025.200195
2018-11-19T14:30:00Z,4985.450195
2018-11-20T14:30:00Z,4924.890137
2018-11-21T14:30:00Z,4975.500000
2018-11-22T14:30:00Z,4938.140137
2018-11-23T14:30:00Z,4946.950195
2018-11-26T14:30:00Z,4994.979980
2018-11-27T14:30:00Z,4983.149902
2018-11-28T14:30:00Z,4983.240234
2018-11-29T14:30:00Z,5006.250000
2018-11-30T14:30:00Z,5003.919922
2018-12-03T14:30:00Z,5053.979980
2018-12-04T14:30:00Z,5012.660156
2018-12-05T14:30:00Z,4944.370117
2018-12-06T14:30:00Z,4780.459961
2018-12-07T14:30:00Z,4813.129883
2018-12-10T14:30:00Z,4742.379883
2018-12-11T14:30:00Z,4806.200195
2018-12-12T14:30:00Z,4909.450195
2018-12-13T14:30:00Z,4896.919922
2018-12-14T14:30:00Z,4853.700195
2018-12-17T14:30:00Z,4799.870117
2018-12-18T14:30:00Z,4754.080078
2018-12-19T14:30:00Z,4777.450195
2018-12-20T14:30:00Z,4692.459961
2018-12-21T14:30:00Z,4694.379883
2018-12-24T14:30:00Z,4626.390137
2018-12-27T14:30:00Z,4598.609863
2018-12-28T14:30:00Z,4678.740234
2018-12-31T14:30:00Z,4730.689941
2019-01-02T14:30:00Z,4689.390137
2019-01-03T14:30:00Z,4611.490234
2019-01-04T14:30:00Z,4737.120117
2019-01-07T14:30:00Z,4719.169922
2019-01-08T14:30:00Z,4773.270020
2019-01-09T14:30:00Z,4813.580078
2019-01-10T14:30:00Z,4805.660156
2019-01-11T14:30:00Z,4781.339844
2019-01-14T14:30:00Z,4762.750000
2019-01-15T14:30:00Z,4786.169922
2019-01-16T14:30:00Z,4810.740234
2019-01-17T14:30:00Z,4794.370117
2019-01-18T14:30:00Z,4875.930176
2019-01-21T14:30:00Z,4867.779785
2019-01-22T14:30:00Z,4847.529785
2019-01-23T14:30:00Z,4840.379883
2019-01-24T14:30:00Z,4871.959961
2019-01-25T14:30:00Z,4925.819824
2019-01-28T14:30:00Z,4888.580078
2019-01-29T14:30:00Z,4928.180176
2019-01-30T14:30:00Z,4974.759766
2019-01-31T14:30:00Z,4992.720215
2019-02-01T14:30:00Z,5019.259766
2019-02-04T14:30:00Z,5000.189941
2019-02-05T14:30:00Z,5083.339844
2019-02-06T14:30:00Z,5079.049805
2019-02-07T14:30:00Z,4985.560059
2019-02-08T14:30:00Z,4961.640137
2019-02-11T14:30:00Z,5014.470215
2019-02-12T14:30:00Z,5056.350098
2019-02-13T14:30:00Z,5074.270020
2019-02-14T14:30:00Z,5062.520020
2019-02-15,5153.189941
